{"_id"=>"11111111111111111111111104444444404440440444404444400",
 "choices"=>
  [1.0,
   1.0,
   1.0,
   1.0,
   1.0,
   1.0,
   1.0,
   1.0,
   1.0,
   1.0,
   1.0,
   1.0,
   1.0,
   1.0,
   1.0,
   1.0,
   1.0,
   1.0,
   1.0,
   1.0,
   1.0,
   1.0,
   1.0,
   1.0,
   0.0,
   4.0,
   4.0,
   4.0,
   4.0,
   4.0,
   4.0,
   4.0,
   4.0,
   0.0,
   4.0,
   4.0,
   4.0,
   0.0,
   4.0,
   4.0,
   0.0,
   4.0,
   4.0,
   4.0,
   4.0,
   0.0,
   4.0,
   4.0,
   4.0,
   4.0,
   4.0,
   0.0,
   0.0],
 "sankey"=>
  [["From",
    "To",
    "2011",
    "2015",
    "2020",
    "2025",
    "2030",
    "2035",
    "2040",
    "2045",
    "2050"],
   ["Oil production",
    "Oil",
    511.25480000000005,
    1867.5454000000002,
    3637.3155333211257,
    4936.099168336044,
    5889.281702300769,
    6588.826198058922,
    7102.224717343599,
    7479.0099557408375,
    7755.534157781512],
   ["Oil imports",
    "Oil",
    -0.0,
    -38861.84176445741,
    -47602.88055260817,
    -46554.78283961001,
    -56254.855376106454,
    -55899.95353436959,
    -65915.3671423631,
    -65627.10139747488,
    -75881.99128128192],
   ["Gas production",
    "Natural gas",
    2240.1019357821997,
    3139.761312303,
    6038.229706129135,
    7525.826155608729,
    8349.498005247871,
    8956.124655493879,
    9401.330394204493,
    9728.068676639747,
    9967.863216391035],
   ["Gas imports",
    "Natural gas",
    1274.8248433039903,
    1935.849438111784,
    4573.54644066013,
    5920.138248055804,
    6415.64276886084,
    6789.976181165865,
    6780.7944994020945,
    6693.761997201326,
    6212.690373085751],
   ["Coal production",
    "Coal",
    2.2564544444444445,
    10.406537777777778,
    13.008172222222223,
    13.008172222222223,
    13.008172222222223,
    13.008172222222223,
    15.609806666666667,
    13.008172222222223,
    13.008172222222223],
   ["Coal import",
    "Coal",
    -0.0,
    -0.0,
    -0.0,
    -0.0,
    -0.0,
    -0.0,
    -0.0,
    -0.0,
    -0.0],
   ["Agriculture & land-use",
    "Bioenergy production",
    18.724300000000003,
    22.75950367687501,
    29.047534914446537,
    37.07283324738314,
    47.315373543272116,
    60.387738876078494,
    77.0717577286035,
    98.3652633784835,
    125.54177204041498],
   ["Wastes",
    "Bioenergy production",
    -0.0,
    -0.0,
    -0.0,
    -0.0,
    -0.0,
    -0.0,
    -0.0,
    -0.0,
    -0.0],
   ["Marine algae",
    "Bioenergy production",
    0.0,
    0.0,
    0.0,
    0.0,
    0.0,
    0.0,
    0.0,
    0.0,
    0.0],
   ["Oil",
    "Liquid",
    511.25480000000005,
    -36994.296364457405,
    -43965.565019287045,
    -41618.68367127396,
    -50365.57367380569,
    -49311.12733631067,
    -58813.142425019505,
    -58148.09144173404,
    -68126.45712350041],
   ["Natural gas",
    "Gaseous",
    3514.92677908619,
    5075.610750414784,
    10611.776146789265,
    13445.964403664533,
    14765.140774108711,
    15746.100836659743,
    16182.124893606588,
    16421.830673841072,
    16180.553589476785],
   ["Coal",
    "Solid",
    2.2564544444444445,
    10.406537777777778,
    13.008172222222223,
    13.008172222222223,
    13.008172222222223,
    13.008172222222223,
    15.609806666666667,
    13.008172222222223,
    13.008172222222223],
   ["Liquid",
    "Over supply/exports",
    0.0,
    0.0,
    0.0,
    0.0,
    0.0,
    0.0,
    0.0,
    0.0,
    0.0],
   ["Gaseous",
    "Over supply/exports",
    1274.8248433039903,
    1935.849438111784,
    4573.54644066013,
    5920.138248055804,
    6415.64276886084,
    6789.976181165865,
    6780.7944994020945,
    6693.761997201326,
    6212.690373085751],
   ["Solid",
    "Over supply/exports",
    0.0,
    0.0,
    0.0,
    0.0,
    0.0,
    0.0,
    0.0,
    0.0,
    0.0],
   ["Liquid",
    "Thermal generation",
    0.22682192297954626,
    122.19904702237969,
    110.35251559928956,
    98.50635911502806,
    86.6385392489839,
    74.79313301657015,
    62.948101722985086,
    51.08140817018868,
    39.303237600000024],
   ["Gaseous",
    "Thermal generation",
    0.15874564659333332,
    172.12483945980003,
    184.415386833,
    196.7054950296,
    209.0209781664,
    221.3102075715,
    233.5989978,
    245.91316165380005,
    258.123636],
   ["Solid",
    "Thermal generation",
    308.5365035454546,
    631.155586090909,
    1254.8858123454545,
    1885.4652929318177,
    2275.4033705454544,
    2439.279307738636,
    2502.4849569204544,
    2512.915311518181,
    2520.271918022727],
   ["Nuclear power generation",
    "Thermal generation",
    0.0,
    0.0,
    0.0,
    0.0,
    0.0,
    0.0,
    0.0,
    0.0,
    0.0],
   ["Electricity import",
    "Electricity grid",
    0.0,
    0.0,
    0.0,
    0.0,
    0.0,
    0.0,
    0.0,
    0.0,
    0.0],
   ["Thermal generation",
    "Electricity grid",
    89.89352961221802,
    268.75495499839195,
    450.44742331332,
    636.6850450611839,
    750.871544806656,
    798.9657374028598,
    817.6280674319997,
    824.295141406152,
    826.6364297999999],
   ["Thermal generation",
    "Losses",
    219.02854150280945,
    656.7245175746967,
    1099.206291464424,
    1543.992102015262,
    1820.1913431541825,
    1936.416910923846,
    1981.4039890114398,
    1985.6147399360182,
    1991.0623618227269],
   ["Geothermal",
    "Electricity grid",
    9.909963,
    14.406921,
    19.320263999999998,
    24.233606999999996,
    29.146949999999997,
    34.060292999999994,
    38.973636,
    43.88697899999999,
    48.21738299999999],
   ["Biomass",
    "Electricity grid",
    12.741380999999999,
    16.913997,
    21.384657000000004,
    25.855317,
    30.325977000000005,
    34.796637,
    39.267297,
    43.737956999999994,
    47.61252899999999],
   ["Hydro",
    "Electricity grid",
    18.461195999999997,
    20.775419999999997,
    23.457815999999998,
    26.140212,
    28.822608,
    31.505003999999996,
    34.1874,
    36.869795999999994,
    39.39440399999999],
   ["OTEC",
    "Electricity grid",
    0.0017532000000000003,
    0.0,
    0.0,
    0.0,
    0.0,
    0.0,
    0.0,
    0.0,
    0.0],
   ["Wind",
    "Electricity grid",
    0.003278484,
    0.0,
    0.0,
    0.0,
    0.0,
    0.0,
    0.0,
    0.0,
    0.0],
   ["PV",
    "Electricity grid",
    0.005960880000000001,
    0.041726160000000005,
    0.07749144000000001,
    0.11325672000000003,
    0.14902200000000002,
    0.18478728000000003,
    0.22055256000000004,
    0.25631784,
    0.29208312000000003],
   ["Electricity grid",
    "Over generation/exports",
    0.0,
    96.78338575195767,
    226.72264997873748,
    321.4899450258931,
    261.93595903257335,
    45.65912804800712,
    0.0,
    0.0,
    0.0],
   ["Electricity grid",
    "Losses",
    2.2109393244086197,
    0.0,
    0.0,
    0.0,
    0.0,
    0.0,
    9.639291064987948,
    21.58963512480759,
    36.20005454622721],
   ["Electricity grid",
    "Domestic lighting",
    9.07621517977812,
    9.191824682923045,
    9.177208338159163,
    8.963019354822487,
    8.523821046896533,
    7.832915694066328,
    6.86214837648562,
    5.58167381691214,
    3.959676787832766],
   ["Liquid",
    "Domestic lighting",
    1.4322358964739943,
    1.214594435500418,
    0.9532868864716876,
    0.7112363004626102,
    0.49549387797415556,
    0.3121587892517042,
    0.1662303500238375,
    0.06143196225041487,
    0.0],
   ["Gaseous",
    "Domestic lighting",
    0.0,
    0.0,
    0.0,
    0.0,
    0.0,
    0.0,
    0.0,
    0.0,
    0.0],
   ["Solid", "Domestic lighting", 0.0, 0.0, 0.0, 0.0, 0.0, 0.0, 0.0, 0.0, 0.0],
   ["Electricity grid",
    "Domestic cooling",
    6.637586127443168,
    6.9783930285516895,
    7.346124829581057,
    7.633334990293645,
    7.821251783510487,
    7.888843610150355,
    7.8124682901352305,
    7.56545470418284,
    7.117602521291583],
   ["Liquid", "Domestic cooling", 0.0, 0.0, 0.0, 0.0, 0.0, 0.0, 0.0, 0.0, 0.0],
   ["Gaseous",
    "Domestic cooling",
    0.0,
    0.0,
    0.0,
    0.0,
    0.0,
    0.0,
    0.0,
    0.0,
    0.0],
   ["Solid", "Domestic cooling", 0.0, 0.0, 0.0, 0.0, 0.0, 0.0, 0.0, 0.0, 0.0],
   ["Electricity grid",
    "Domestic cooking",
    31.856931713729637,
    37.62104729783235,
    44.577672654634156,
    51.07984028123975,
    56.926952090587434,
    61.90692328254579,
    65.79439853366144,
    68.34862659923563,
    69.31091568924307],
   ["Liquid",
    "Domestic cooking",
    68.97346540948561,
    63.38313251078583,
    55.90444346473606,
    48.044262379593505,
    39.98335915309485,
    31.90884736789348,
    24.015163021296242,
    16.505240921454,
    9.591916695315659],
   ["Gaseous",
    "Domestic cooking",
    182.27581370514338,
    199.5963771064773,
    219.59814819934994,
    237.21861808495842,
    251.85273422266195,
    262.875359092798,
    269.63814662263235,
    271.4658234462881,
    267.65174606165664],
   ["Solid",
    "Domestic cooking",
    106.08999910524157,
    97.30743289942171,
    85.97209227130047,
    74.50547825215907,
    63.1775697494488,
    52.24086284923816,
    41.92764699633532,
    32.44677804592147,
    23.979791738289148],
   ["Electricity grid",
    "Domestic other appliances",
    22.657413076526403,
    23.93739524489328,
    25.421120610743376,
    26.749491386733357,
    27.893505918152755,
    28.823024603249664,
    29.50659186555704,
    29.911225909877167,
    30.002166430886728],
   ["Liquid",
    "Domestic other appliances",
    3.575362602876687,
    3.163052828763896,
    2.640631009418466,
    2.1226339629536017,
    1.6214631139766509,
    1.1486604495868982,
    0.7147748525271694,
    0.32920327508061725,
    0.0],
   ["Gaseous",
    "Domestic other appliances",
    0.0,
    0.0,
    0.0,
    0.0,
    0.0,
    0.0,
    0.0,
    0.0,
    0.0],
   ["Solid",
    "Domestic other appliances",
    0.0,
    0.0,
    0.0,
    0.0,
    0.0,
    0.0,
    0.0,
    0.0,
    0.0],
   ["Electricity grid",
    "Commercial lighting",
    0.008676324800000001,
    0.010765284845472716,
    0.013809703408780228,
    0.01727348328560936,
    0.020958866616144146,
    0.02447035406041977,
    0.02711751212111868,
    0.027786533767826596,
    0.024775376007998062],
   ["Liquid",
    "Commercial lighting",
    0.0,
    0.0,
    0.0,
    0.0,
    0.0,
    0.0,
    0.0,
    0.0,
    0.0],
   ["Gaseous",
    "Commercial lighting",
    0.0,
    0.0,
    0.0,
    0.0,
    0.0,
    0.0,
    0.0,
    0.0,
    0.0],
   ["Solid",
    "Commercial lighting",
    0.0,
    0.0,
    0.0,
    0.0,
    0.0,
    0.0,
    0.0,
    0.0,
    0.0],
   ["Electricity grid",
    "Commercial cooling",
    0.02169081199999998,
    0.027493572555646457,
    0.03641237191716855,
    0.047392707660428274,
    0.06051014392532114,
    0.07560093494499044,
    0.09210910487994796,
    0.10887815837075382,
    0.12387688003999063],
   ["Liquid",
    "Commercial cooling",
    0.0,
    0.0,
    0.0,
    0.0,
    0.0,
    0.0,
    0.0,
    0.0,
    0.0],
   ["Gaseous",
    "Commercial cooling",
    0.0,
    0.0,
    0.0,
    0.0,
    0.0,
    0.0,
    0.0,
    0.0,
    0.0],
   ["Solid",
    "Commercial cooling",
    0.0,
    0.0,
    0.0,
    0.0,
    0.0,
    0.0,
    0.0,
    0.0,
    0.0],
   ["Electricity grid",
    "Commercial cooking",
    0.1085292992,
    0.1964268460837867,
    0.3611308090577039,
    0.6080272381326481,
    0.963707278915329,
    1.457478746385783,
    2.118256141857775,
    2.968977901651071,
    4.017570414356715],
   ["Liquid",
    "Commercial cooking",
    5.42646496,
    6.464228934757345,
    7.8726516374579445,
    9.344418607091223,
    10.76838133396694,
    11.98371413694977,
    12.777867694432388,
    12.893846887170367,
    12.052711243070146],
   ["Gaseous",
    "Commercial cooking",
    1.7364687871999998,
    2.978545266070511,
    5.279732428423631,
    8.69798964865546,
    13.58827263270614,
    20.33992561622826,
    29.3344310225659,
    40.87010151472817,
    55.040714676687],
   ["Solid",
    "Commercial cooking",
    3.5814668735999993,
    4.289248039029596,
    5.265287196061322,
    6.31068270314517,
    7.36188560458362,
    8.32382306269214,
    9.067502904016992,
    9.43286693324568,
    9.240411953020436],
   ["Electricity grid",
    "Commercial others",
    13.505397976,
    17.519956637386905,
    23.977971476588287,
    32.42058992911805,
    43.28923646488524,
    57.052807839931184,
    74.17477701625282,
    95.06156220590296,
    119.98725743359213],
   ["Liquid",
    "Commercial others",
    0.0,
    0.0,
    0.0,
    0.0,
    0.0,
    0.0,
    0.0,
    0.0,
    0.0],
   ["Gaseous",
    "Commercial others",
    0.0,
    0.0,
    0.0,
    0.0,
    0.0,
    0.0,
    0.0,
    0.0,
    0.0],
   ["Solid", "Commercial others", 0.0, 0.0, 0.0, 0.0, 0.0, 0.0, 0.0, 0.0, 0.0],
   ["Electricity grid",
    "Industrial process",
    34.004882980726244,
    50.37917039854105,
    77.85738330380016,
    115.49260438228937,
    166.54691471318196,
    235.25601578562907,
    327.1070045845008,
    449.1930108076096,
    610.6654992427383],
   ["Liquid",
    "Industrial process",
    117.51131484402816,
    142.7088620390149,
    181.7802800729366,
    231.34274003094436,
    294.1713370846188,
    373.7665714763475,
    474.5421471909462,
    602.0610021757557,
    763.3318740534226],
   ["Gaseous",
    "Industrial process",
    243.1804768347128,
    297.6474905840971,
    382.6382550160929,
    491.16045082132655,
    629.585751481553,
    805.982296359326,
    1030.5604616377384,
    1316.2345289293357,
    1679.3301229175295],
   ["Solid",
    "Industrial process",
    190.93700740893314,
    202.97713694766355,
    215.00190089180387,
    221.412951133025,
    218.89456296454534,
    202.87951815648893,
    167.1432769781125,
    103.27635076042971,
    0.0],
   ["Electricity grid",
    "Freight",
    0.0,
    0.0,
    0.0,
    0.0,
    0.0,
    0.0,
    0.0,
    0.0,
    0.0],
   ["Liquid",
    "Freight",
    152.3397464629242,
    196.54612147689957,
    200.4504282432686,
    206.82594714828022,
    217.44047098942153,
    236.52520029073182,
    262.80456114982326,
    311.58413923374155,
    406.6710789020883],
   ["Gaseous",
    "Freight",
    0.0,
    0.13383360703074387,
    0.4640455946989586,
    1.1378482108757626,
    2.494106683916955,
    5.337628303775751,
    10.15453074725751,
    20.15992871532491,
    42.121138839909165],
   ["Solid", "Freight", 0.0, 0.0, 0.0, 0.0, 0.0, 0.0, 0.0, 0.0, 0.0],
   ["Electricity grid",
    "Passenger Urban",
    0.15683526486486465,
    0.2744881837803744,
    0.46260617865380504,
    39.95960544595542,
    124.63341324713949,
    286.9045262988889,
    506.211580836021,
    617.9085526469406,
    721.1037635421862],
   ["Liquid",
    "Passenger Urban",
    254.5761223871535,
    325.9189793805582,
    460.6266904830385,
    608.8827177749627,
    802.5064506392356,
    916.2107600698221,
    917.4818068913387,
    710.8142449249929,
    514.3352175481954],
   ["Gaseous",
    "Passenger Urban",
    1.4725850538409766,
    3.4289997932678635,
    8.200021504302276,
    17.601958015963024,
    35.38937100156101,
    66.73464812238925,
    121.98910051320345,
    217.92766269464605,
    382.4172112973925],
   ["Solid", "Passenger Urban", 0.0, 0.0, 0.0, 0.0, 0.0, 0.0, 0.0, 0.0, 0.0],
   ["Electricity grid",
    "Passenger Intercity",
    0.0,
    0.0,
    0.0,
    0.0,
    0.0,
    0.0,
    0.0,
    0.0,
    0.0],
   ["Liquid",
    "Passenger Intercity",
    -0.0,
    -0.0,
    -0.0,
    -0.0,
    -0.0,
    -0.0,
    -0.0,
    -0.0,
    -0.0],
   ["Gaseous",
    "Passenger Intercity",
    0.0,
    0.05617566483735567,
    0.14780513543661591,
    0.2685747203607292,
    0.4260932272389628,
    0.6291026903687726,
    0.8884497078599651,
    1.217571110206778,
    1.6324939602878805],
   ["Solid",
    "Passenger Intercity",
    0.0,
    0.0,
    0.0,
    0.0,
    0.0,
    0.0,
    0.0,
    0.0,
    0.0],
   ["Electricity grid",
    "Air transport",
    0.0,
    0.0,
    0.0,
    0.0,
    0.0,
    0.0,
    0.0,
    0.0,
    0.0],
   ["Liquid",
    "Air transport",
    34.185687200000004,
    56.96598159517067,
    99.46790686497408,
    173.79656876961286,
    277.5004348127506,
    443.06415587358595,
    560.6164866876844,
    709.2251723542578,
    897.1983889884982],
   ["Gaseous", "Air transport", 0.0, 0.0, 0.0, 0.0, 0.0, 0.0, 0.0, 0.0, 0.0],
   ["Solid", "Air transport", 0.0, 0.0, 0.0, 0.0, 0.0, 0.0, 0.0, 0.0, 0.0],
   ["Electricity grid",
    "ACM energy demand",
    0.0,
    0.0,
    0.0,
    0.0,
    0.0,
    0.0,
    0.0,
    0.0,
    0.0],
   ["Liquid",
    "ACM energy demand",
    40.407039399999995,
    41.9022065274736,
    39.6259952667159,
    33.01767984330883,
    24.240188867029143,
    13.959617639795527,
    7.765930538205093,
    3.8065940023002414,
    1.644003337078874],
   ["Gaseous",
    "ACM energy demand",
    0.0,
    0.0,
    0.0,
    0.0,
    0.0,
    0.0,
    0.0,
    0.0,
    0.0],
   ["Solid", "ACM energy demand", 0.0, 0.0, 0.0, 0.0, 0.0, 0.0, 0.0, 0.0, 0.0],
   ["Gas", "Losses", 0.0, 0.0, 0.0, 0.0, 0.0, 0.0, 0.0, 0.0, 0.0]],
 "ghg"=>
  [["Mt CO2e",
    2010.0,
    2015.0,
    2020.0,
    2025.0,
    2030.0,
    2035.0,
    2040.0,
    2045.0,
    2050.0],
   ["Fuel Combustion",
    :name,
    :name,
    :name,
    :name,
    :name,
    :name,
    :name,
    :name,
    :name],
   [:name, :name, :name, :name, :name, :name, :name, :name, :name, :name],
   [:name, :name, :name, :name, :name, :name, :name, :name, :name, :name],
   [:name, :name, :name, :name, :name, :name, :name, :name, :name, :name],
   [:name, :name, :name, :name, :name, :name, :name, :name, :name, :name],
   [:name, :name, :name, :name, :name, :name, :name, :name, :name, :name],
   [:name, :name, :name, :name, :name, :name, :name, :name, :name, :name],
   [:name, :name, :name, :name, :name, :name, :name, :name, :name, :name],
   [:name, :name, :name, :name, :name, :name, :name, :name, :name, :name],
   [:name, :name, :name, :name, :name, :name, :name, :name, :name, :name],
   ["Total", :name, :name, :name, :name, :name, :name, :name, :name, :name],
   ["Targets", 603.6, 556.4, 508.8, 390.0, nil, nil, nil, nil, 159.917234]],
 "ghg_reduction_from_1990"=>:name,
 "final_energy_demand"=>
  [["Vector",
    "2011",
    2015.0,
    2020.0,
    2025.0,
    2030.0,
    2035.0,
    2040.0,
    2045.0,
    2050.0],
   ["Transport",
    442.73097636878356,
    583.2684040367074,
    769.6716988689362,
    1048.2046453656499,
    1459.9642473740253,
    1954.7769189591936,
    2379.2580668253286,
    2587.6197005699037,
    2963.8467991182697],
   ["Domestic",
    432.5750228166986,
    442.3932500351495,
    451.5907282643944,
    457.0279149932165,
    458.2961509563036,
    454.9375957387804,
    446.43756890865427,
    432.21545868120245,
    411.6138159245157],
   ["Commerce",
    24.388695032799998,
    31.48666458072926,
    42.80699562291484,
    57.44637431708859,
    76.05295232559874,
    99.25782069119255,
    127.59206139612694,
    161.36402013483684,
    200.48731797677442],
   ["Industrial process",
    599.8231588308404,
    710.9600576582923,
    879.2903549561782,
    1087.5029397890514,
    1345.054667321025,
    1663.6468824856636,
    2057.758700773017,
    2545.3071516061896,
    3148.4644069170545],
   ["ACM",
    40.407039399999995,
    41.9022065274736,
    39.6259952667159,
    33.01767984330882,
    24.24018886702914,
    13.959617639795527,
    7.765930538205092,
    3.806594002300241,
    1.6440033370788738],
   ["Total",
    1539.9248924491226,
    1810.010582838352,
    2182.9857729791397,
    2683.1995543083153,
    3363.608206843982,
    4186.578835514625,
    5018.812328441331,
    5730.312924994432,
    6726.0563432736935]],
 "primary_energy_supply"=>
  [["Vector",
    2010.0,
    2015.0,
    2020.0,
    2025.0,
    2030.0,
    2035.0,
    2040.0,
    2045.0,
    2050.0],
   ["Indigenous Gas",
    965.2770924782094,
    1203.9118741912162,
    1464.6832654690043,
    1605.687907552925,
    1933.8552363870313,
    2166.1484743280143,
    2620.5358948023986,
    3034.3066794384204,
    3755.172843305284],
   ["Imported Gas", 0.0, 0.0, 0.0, 0.0, 0.0, 0.0, 0.0, 0.0, 0.0],
   ["Indigenous Oil",
    511.25480000000005,
    1867.5454000000002,
    3637.3155333211257,
    4936.099168336044,
    5889.281702300769,
    6588.826198058922,
    7102.224717343599,
    7479.0099557408375,
    7755.534157781512],
   ["Imported Oil",
    39937.43612552411,
    38861.84176445741,
    47602.88055260817,
    46554.78283961001,
    56254.855376106454,
    55899.95353436959,
    65915.3671423631,
    65627.10139747488,
    75881.99128128192],
   ["Indigenous Coal",
    2.2564544444444445,
    10.406537777777778,
    13.008172222222223,
    13.008172222222223,
    13.008172222222223,
    13.008172222222223,
    15.609806666666667,
    13.008172222222223,
    13.008172222222223],
   ["Imported Coal",
    604.2939954496002,
    727.8558547367079,
    1297.2819119530923,
    1870.8781831320568,
    2195.5522008111016,
    2281.61269918181,
    2905.3215359337933,
    3606.0572337661833,
    4447.69564589593],
   ["Indigenous Bioenergy",
    63.32539242399999,
    82.00230564487501,
    103.97520042644656,
    127.68536230338312,
    153.61276614327213,
    182.36999502007848,
    214.73887741660351,
    251.71724661048347,
    292.49231081641494],
   ["Imported Bioenergy", 0.0, 0.0, 0.0, 0.0, 0.0, 0.0, 0.0, 0.0, 0.0],
   ["Nuclear fussion", 0.0, 0.0, 0.0, 0.0, 0.0, 0.0, 0.0, 0.0, 0.0],
   ["Geothermal",
    86.71217625,
    126.06055875000001,
    169.05230999999998,
    212.04406124999997,
    255.0358125,
    298.02756374999996,
    341.019315,
    384.01106624999994,
    421.90210125],
   ["Agriculture",
    63.31913349999999,
    81.95849317687501,
    103.89383441444656,
    127.56644274738312,
    153.45629304327213,
    182.1759683760785,
    214.5072972286035,
    251.44811287848347,
    292.18562354041495],
   ["Hydro",
    19.3842558,
    21.814190999999997,
    24.6307068,
    27.447222599999996,
    30.263738399999998,
    33.0802542,
    35.89677,
    38.713285799999994,
    41.364124199999985],
   ["Solar", 0.0018408600000000004, 0.0, 0.0, 0.0, 0.0, 0.0, 0.0, 0.0, 0.0],
   ["Wind", 0.0034424081999999997, 0.0, 0.0, 0.0, 0.0, 0.0, 0.0, 0.0, 0.0],
   ["Wave", 0.0, 0.0, 0.0, 0.0, 0.0, 0.0, 0.0, 0.0, 0.0],
   ["Total used in Indonesia",
    42207.700749732314,
    42804.65510080603,
    54086.10500282132,
    55026.14297198075,
    66463.52904583828,
    67417.36776308264,
    79264.50456088611,
    80573.83382389366,
    92780.00442598865]],
 "test1"=>
  [["Vector",
    2010.0,
    2015.0,
    2020.0,
    2025.0,
    2030.0,
    2035.0,
    2040.0,
    2045.0,
    2050.0],
   ["Indigenous Gas",
    965.2770924782094,
    1203.9118741912162,
    1464.6832654690043,
    1605.687907552925,
    1933.8552363870313,
    2166.1484743280143,
    2620.5358948023986,
    3034.3066794384204,
    3755.172843305284],
   ["Imported Gas", 0.0, 0.0, 0.0, 0.0, 0.0, 0.0, 0.0, 0.0, 0.0],
   ["Indigenous Oil",
    511.25480000000005,
    1867.5454000000002,
    3637.3155333211257,
    4936.099168336044,
    5889.281702300769,
    6588.826198058922,
    7102.224717343599,
    7479.0099557408375,
    7755.534157781512],
   ["Imported Oil",
    39937.43612552411,
    38861.84176445741,
    47602.88055260817,
    46554.78283961001,
    56254.855376106454,
    55899.95353436959,
    65915.3671423631,
    65627.10139747488,
    75881.99128128192],
   ["Indigenous Coal",
    2.2564544444444445,
    10.406537777777778,
    13.008172222222223,
    13.008172222222223,
    13.008172222222223,
    13.008172222222223,
    15.609806666666667,
    13.008172222222223,
    13.008172222222223],
   ["Imported Coal",
    604.2939954496002,
    727.8558547367079,
    1297.2819119530923,
    1870.8781831320568,
    2195.5522008111016,
    2281.61269918181,
    2905.3215359337933,
    3606.0572337661833,
    4447.69564589593],
   ["Indigenous Bioenergy",
    63.32539242399999,
    82.00230564487501,
    103.97520042644656,
    127.68536230338312,
    153.61276614327213,
    182.36999502007848,
    214.73887741660351,
    251.71724661048347,
    292.49231081641494],
   ["Imported Bioenergy", 0.0, 0.0, 0.0, 0.0, 0.0, 0.0, 0.0, 0.0, 0.0],
   ["Nuclear fussion", 0.0, 0.0, 0.0, 0.0, 0.0, 0.0, 0.0, 0.0, 0.0],
   ["Geothermal",
    86.71217625,
    126.06055875000001,
    169.05230999999998,
    212.04406124999997,
    255.0358125,
    298.02756374999996,
    341.019315,
    384.01106624999994,
    421.90210125],
   ["Agriculture",
    63.31913349999999,
    81.95849317687501,
    103.89383441444656,
    127.56644274738312,
    153.45629304327213,
    182.1759683760785,
    214.5072972286035,
    251.44811287848347,
    292.18562354041495],
   ["Hydro",
    19.3842558,
    21.814190999999997,
    24.6307068,
    27.447222599999996,
    30.263738399999998,
    33.0802542,
    35.89677,
    38.713285799999994,
    41.364124199999985],
   ["Solar", 0.0018408600000000004, 0.0, 0.0, 0.0, 0.0, 0.0, 0.0, 0.0, 0.0],
   ["Wind", 0.0034424081999999997, 0.0, 0.0, 0.0, 0.0, 0.0, 0.0, 0.0, 0.0],
   ["Wave", 0.0, 0.0, 0.0, 0.0, 0.0, 0.0, 0.0, 0.0, 0.0],
   ["Total used in Indonesia",
    42207.700749732314,
    42804.65510080603,
    54086.10500282132,
    55026.14297198075,
    66463.52904583828,
    67417.36776308264,
    79264.50456088611,
    80573.83382389366,
    92780.00442598865]],
 "electricity"=>
  {"demand"=>
    [["Sector",
      2011.0,
      2015.0,
      2020.0,
      2025.0,
      2030.0,
      2035.0,
      2040.0,
      2045.0,
      2050.0],
     ["Transport",
      0.15683526486486465,
      0.2744881837803744,
      0.46260617865380504,
      39.95960544595542,
      124.63341324713949,
      286.9045262988889,
      506.211580836021,
      617.9085526469406,
      721.1037635421862],
     ["Industry",
      34.004882980726244,
      50.37917039854105,
      77.85738330380016,
      115.49260438228937,
      166.54691471318196,
      235.25601578562907,
      327.1070045845008,
      449.1930108076096,
      610.6654992427383],
     ["Domestic",
      70.22814609747732,
      77.72866025420036,
      86.52212643311775,
      94.42568601308923,
      101.16553083914721,
      106.45170719001213,
      109.97560706583933,
      111.40698103020779,
      110.39036142925416],
     ["Commerce",
      13.644294412,
      17.75464234087181,
      24.38932436097194,
      33.093283358196736,
      44.33441275434204,
      58.61035787532238,
      76.41225977511166,
      98.16720479969261,
      124.15348010399684],
     ["Total",
      118.03415875506843,
      146.1369611773936,
      189.23144027654365,
      282.97117919953075,
      436.6802715538107,
      687.2226071498526,
      1019.7064522614729,
      1276.6757492844506,
      1566.3131043181756]],
   "supply"=>
    [["Sector",
      2011.0,
      2015.0,
      2020.0,
      2025.0,
      2030.0,
      2035.0,
      2040.0,
      2045.0,
      2050.0],
     ["Conventional",
      89.89352961221802,
      268.75495499839195,
      450.44742331332,
      636.6850450611839,
      750.871544806656,
      798.9657374028598,
      817.6280674319997,
      824.295141406152,
      826.6364297999999],
     ["Geothermal",
      9.909963,
      14.406921,
      19.320263999999998,
      24.233606999999996,
      29.146949999999997,
      34.060292999999994,
      38.973636,
      43.88697899999999,
      48.21738299999999],
     ["Biomass",
      12.741380999999999,
      16.913997,
      21.384657000000004,
      25.855317,
      30.325977000000005,
      34.796637,
      39.267297,
      43.737956999999994,
      47.61252899999999],
     ["Hydro",
      18.461195999999997,
      20.775419999999997,
      23.457815999999998,
      26.140212,
      28.822608,
      31.505003999999996,
      34.1874,
      36.869795999999994,
      39.39440399999999],
     ["OTEC", 0.0017532000000000003, 0.0, 0.0, 0.0, 0.0, 0.0, 0.0, 0.0, 0.0],
     ["Wind", 0.003278484, 0.0, 0.0, 0.0, 0.0, 0.0, 0.0, 0.0, 0.0],
     ["PV",
      0.005960880000000001,
      0.041726160000000005,
      0.07749144000000001,
      0.11325672000000003,
      0.14902200000000002,
      0.18478728000000003,
      0.22055256000000004,
      0.25631784,
      0.29208312000000003],
     ["Nuclear power generation", 0.0, 0.0, 0.0, 0.0, 0.0, 0.0, 0.0, 0.0, 0.0],
     ["Steam coal PP as balancing",
      44.218786488172384,
      0.0,
      0.0,
      0.0,
      0.0,
      0.0,
      192.78582129975894,
      431.79270249615183,
      724.0010909245441],
     ["Total",
      175.2358486643904,
      320.89301915839195,
      514.68765175332,
      713.027437781184,
      839.3161018066558,
      899.5124586828598,
      1123.0627742917586,
      1380.8388937423038,
      1686.153919844544]],
   "ghg"=>
    [["Source",
      2011.0,
      2015.0,
      2020.0,
      2025.0,
      2030.0,
      2035.0,
      2040.0,
      2045.0,
      2050.0],
     ["Fuel combustion", nil, nil, nil, nil, nil, nil, nil, nil, nil],
     ["Bioenergy credit", nil, nil, nil, nil, nil, nil, nil, nil, nil],
     ["Total", 0.0, 0.0, 0.0, 0.0, 0.0, 0.0, 0.0, 0.0, 0.0]],
   "capacity"=>
    [["Sector",
      2011.0,
      2015.0,
      2020.0,
      2025.0,
      2030.0,
      2035.0,
      2040.0,
      2045.0,
      2050.0],
     ["Coal power plant",
      12.05,
      12.6,
      24.61,
      24.97,
      15.3,
      6.68,
      2.48,
      0.87,
      0.29],
     ["Gas combined-cycle power plant",
      8.81,
      8.8099,
      8.809800000000003,
      8.809700000000001,
      8.809600000000001,
      8.809500000000002,
      8.809400000000004,
      8.809300000000004,
      8.809200000000002],
     ["Gas turbine power plant",
      2.9700000000000006,
      2.9699,
      2.9697999999999998,
      2.9696999999999996,
      2.9696,
      2.969499999999999,
      2.969399999999999,
      2.9692999999999987,
      2.9691999999999985],
     ["Diesel power plant",
      2.598,
      2.528,
      2.458,
      2.3880000000000003,
      2.3180000000000005,
      2.2480000000000007,
      2.178000000000001,
      2.108000000000001,
      2.038000000000001],
     ["Geothermal",
      1.19,
      1.73,
      2.32,
      2.9099999999999997,
      3.4999999999999996,
      4.09,
      4.68,
      5.27,
      5.789999999999999],
     ["Biomass",
      1.71,
      2.27,
      2.87,
      3.47,
      4.07,
      4.67,
      5.27,
      5.869999999999999,
      6.389999999999999],
     ["Hydro",
      3.51,
      3.9499999999999997,
      4.46,
      4.97,
      5.4799999999999995,
      5.989999999999999,
      6.499999999999999,
      7.009999999999999,
      7.489999999999998],
     ["OTEC", 0.001, 0.0, 0.0, 0.0, 0.0, 0.0, 0.0, 0.0, 0.0],
     ["Wind", 0.00187, 0.0, 0.0, 0.0, 0.0, 0.0, 0.0, 0.0, 0.0],
     ["PV", 0.0, 0.0, 0.0, 0.0, 0.0, 0.0, 0.0, 0.0, 0.0],
     ["Nuclear power generation", 0.0, 0.0, 0.0, 0.0, 0.0, 0.0, 0.0, 0.0, 0.0],
     ["Steam coal PP as balancing",
      20.393207705182228,
      0.0,
      0.0,
      0.0,
      0.0,
      0.0,
      88.49903219174998,
      197.2940750478683,
      330.8094943287712],
     ["Total generation",
      53.23407770518223,
      34.8578,
      48.4976,
      50.48739999999999,
      42.447199999999995,
      35.457,
      121.38583219174998,
      230.2006750478683,
      364.58589432877125]]}}
