{"_id"=>"40444444444444440444444004444440444404203304440420441",
 "choices"=>
  [4.0,
   0.0,
   4.0,
   4.0,
   4.0,
   4.0,
   4.0,
   4.0,
   4.0,
   4.0,
   4.0,
   4.0,
   4.0,
   4.0,
   4.0,
   4.0,
   0.0,
   4.0,
   4.0,
   4.0,
   4.0,
   4.0,
   4.0,
   0.0,
   0.0,
   4.0,
   4.0,
   4.0,
   4.0,
   4.0,
   4.0,
   0.0,
   4.0,
   4.0,
   4.0,
   4.0,
   0.0,
   4.0,
   2.0,
   0.0,
   3.0,
   3.0,
   0.0,
   4.0,
   4.0,
   4.0,
   0.0,
   4.0,
   2.0,
   0.0,
   4.0,
   4.0,
   1.0],
 "sankey"=>
  [["From",
    "To",
    "2011",
    "2015",
    "2020",
    "2025",
    "2030",
    "2035",
    "2040",
    "2045",
    "2050"],
   ["Oil production",
    "Oil",
    511.25480000000005,
    1989.6604000000002,
    4278.76102675,
    6317.511729578849,
    8393.142932491666,
    11096.240848670144,
    13461.771211312227,
    15338.03952651133,
    16820.219467807427],
   ["Oil imports",
    "Oil",
    -0.0,
    -38614.715638336376,
    -46785.376640481176,
    -44895.83027821721,
    -53331.34304119169,
    -50781.54764077696,
    -58741.753844900406,
    -56710.01875276037,
    -65461.7904305323],
   ["Gas production",
    "Natural gas",
    2240.1019357821997,
    3267.0362865126,
    7935.043273054551,
    12581.946165986907,
    16723.64695816603,
    20321.72636169259,
    23251.93998198362,
    25402.435544406515,
    26980.692887822002],
   ["Gas imports",
    "Natural gas",
    1226.2905921106335,
    1928.4936180770883,
    6244.09868182533,
    10680.214267784382,
    14422.271968534675,
    17536.834596735534,
    20033.061394006712,
    21819.26544948277,
    22768.39328249259],
   ["Coal production",
    "Coal",
    2.2564544444444445,
    10.722917339297778,
    14.655059979849515,
    16.180370393496403,
    17.864436340125025,
    19.723781223120493,
    25.87916365610342,
    24.043179252181265,
    26.54561266022986],
   ["Coal import",
    "Coal",
    -0.0,
    -0.0,
    -0.0,
    -0.0,
    -0.0,
    -0.0,
    -0.0,
    -0.0,
    -0.0],
   ["Agriculture & land-use",
    "Bioenergy production",
    18.724300000000003,
    22.75950367687501,
    29.12461824777987,
    37.17121328449251,
    47.440934170752875,
    60.54798958990812,
    77.27628276004171,
    98.62629490517783,
    125.87492176516618],
   ["Wastes",
    "Bioenergy production",
    -0.0,
    -0.0,
    -0.0,
    -0.0,
    -0.0,
    -0.0,
    -0.0,
    -0.0,
    -0.0],
   ["Marine algae",
    "Bioenergy production",
    0.0,
    0.0,
    0.0,
    0.0019444444444444446,
    0.08088888888888889,
    0.23683333333333334,
    0.4697777777777778,
    0.6237777777777779,
    0.7777777777777779],
   ["Oil",
    "Liquid",
    511.25480000000005,
    -36625.055238336376,
    -42506.61561373118,
    -38578.31854863836,
    -44938.200108700024,
    -39685.306792106814,
    -45279.98263358818,
    -41371.97922624904,
    -48641.57096272487],
   ["Natural gas",
    "Gaseous",
    3466.392527892833,
    5195.529904589688,
    14179.14195487988,
    23262.16043377129,
    31145.918926700706,
    37858.56095842812,
    43285.00137599034,
    47221.70099388929,
    49749.08617031459],
   ["Coal",
    "Solid",
    2.2564544444444445,
    10.722917339297778,
    14.655059979849515,
    16.180370393496403,
    17.864436340125025,
    19.723781223120493,
    25.87916365610342,
    24.043179252181265,
    26.54561266022986],
   ["Liquid",
    "Over supply/exports",
    0.0,
    0.0,
    0.0,
    0.0,
    0.0,
    0.0,
    0.0,
    0.0,
    0.0],
   ["Gaseous",
    "Over supply/exports",
    1226.2905921106335,
    1928.4936180770883,
    6244.09868182533,
    10680.214267784382,
    14422.271968534675,
    17536.834596735534,
    20033.061394006712,
    21819.26544948277,
    22768.39328249259],
   ["Solid",
    "Over supply/exports",
    0.0,
    0.0,
    0.0,
    0.0,
    0.0,
    0.0,
    0.0,
    0.0,
    0.0],
   ["Liquid",
    "Thermal generation",
    0.22682192297954626,
    160.0994100930663,
    166.10343825003582,
    158.2059149522221,
    143.75342925764062,
    149.17368263800302,
    101.87916374686569,
    54.86537741090508,
    8.524058400000001],
   ["Gaseous",
    "Thermal generation",
    0.15874564659333332,
    256.3842450798,
    361.738417833,
    454.05259491960004,
    559.7177380164001,
    858.0719654415002,
    908.1339318000003,
    958.2962649137999,
    1008.0549360000001],
   ["Solid",
    "Thermal generation",
    -0.0,
    -0.0,
    -0.0,
    -0.0,
    -0.0,
    -0.0,
    -0.0,
    -0.0,
    -0.0],
   ["Nuclear power generation",
    "Thermal generation",
    0.0,
    6.06852648,
    6.06852648,
    6.06852648,
    6.06852648,
    6.06852648,
    6.06852648,
    6.06852648,
    6.06852648],
   ["Electricity import",
    "Electricity grid",
    0.0,
    0.0,
    0.0,
    0.0,
    0.0,
    0.0,
    0.0,
    0.0,
    0.0],
   ["Thermal generation",
    "Electricity grid",
    0.107774612218,
    122.26617822319201,
    156.20909455332003,
    181.960161056784,
    209.678507200656,
    301.2199657176601,
    302.18691679200003,
    303.241159536552,
    304.3537668],
   ["Thermal generation",
    "Losses",
    0.2777929573548796,
    294.2174769496743,
    371.63276152971594,
    430.29834881503814,
    493.7926600733846,
    706.0256823618431,
    707.8261787548657,
    709.920482788153,
    712.2252276],
   ["Geothermal",
    "Electricity grid",
    9.909963,
    21.985127999999992,
    36.14221799999999,
    50.299307999999996,
    64.456398,
    78.61348799999999,
    92.770578,
    106.92766799999998,
    120.33526499999998],
   ["Biomass",
    "Electricity grid",
    12.741380999999999,
    27.494559,
    45.749754,
    64.004949,
    82.260144,
    100.51533899999998,
    118.77053399999998,
    137.02572899999998,
    155.05739099999994],
   ["Hydro",
    "Electricity grid",
    18.461195999999997,
    32.977692,
    51.491484,
    70.005276,
    88.51906799999999,
    107.03286,
    125.54665199999998,
    144.060444,
    162.88981199999998],
   ["OTEC",
    "Electricity grid",
    0.0017532000000000003,
    0.07889399999999999,
    0.06837480000000001,
    0.06837480000000001,
    0.06837480000000001,
    0.06837480000000001,
    0.06837480000000001,
    0.06837480000000001,
    0.06837480000000001],
   ["Wind",
    "Electricity grid",
    0.003278484,
    2.3801969159999996,
    2.9217078000000005,
    2.9217078000000005,
    2.9217078000000005,
    2.9217078000000005,
    2.9217078000000005,
    2.9217078000000005,
    1.1246778],
   ["PV",
    "Electricity grid",
    0.005960880000000001,
    0.5439303,
    1.08189972,
    1.6198691400000003,
    2.1578385600000005,
    2.6958079800000005,
    3.2337773999999997,
    3.77174682,
    4.3767761400000005],
   ["Electricity grid",
    "Over generation/exports",
    0.0,
    0.0,
    29.873133123941557,
    20.120102023364325,
    0.0,
    0.0,
    0.0,
    0.0,
    0.0],
   ["Electricity grid",
    "Losses",
    6.700227074408621,
    0.0,
    0.0,
    0.0,
    0.7664765806239076,
    4.689373549397822,
    17.427385689023296,
    24.93601626364387,
    33.98526427910119],
   ["Electricity grid",
    "Domestic lighting",
    9.07621517977812,
    9.191824682923045,
    9.177208338159163,
    8.963019354822487,
    8.523821046896533,
    7.832915694066328,
    6.86214837648562,
    5.58167381691214,
    3.959676787832766],
   ["Liquid",
    "Domestic lighting",
    1.4322358964739943,
    1.214594435500418,
    0.9532868864716876,
    0.7112363004626102,
    0.49549387797415556,
    0.3121587892517042,
    0.1662303500238375,
    0.06143196225041487,
    0.0],
   ["Gaseous",
    "Domestic lighting",
    0.0,
    0.0,
    0.0,
    0.0,
    0.0,
    0.0,
    0.0,
    0.0,
    0.0],
   ["Solid", "Domestic lighting", 0.0, 0.0, 0.0, 0.0, 0.0, 0.0, 0.0, 0.0, 0.0],
   ["Electricity grid",
    "Domestic cooling",
    6.637586127443168,
    6.9783930285516895,
    7.346124829581057,
    7.633334990293645,
    7.821251783510487,
    7.888843610150355,
    7.8124682901352305,
    7.56545470418284,
    7.117602521291583],
   ["Liquid", "Domestic cooling", 0.0, 0.0, 0.0, 0.0, 0.0, 0.0, 0.0, 0.0, 0.0],
   ["Gaseous",
    "Domestic cooling",
    0.0,
    0.0,
    0.0,
    0.0,
    0.0,
    0.0,
    0.0,
    0.0,
    0.0],
   ["Solid", "Domestic cooling", 0.0, 0.0, 0.0, 0.0, 0.0, 0.0, 0.0, 0.0, 0.0],
   ["Electricity grid",
    "Domestic cooking",
    31.856931713729637,
    37.62104729783235,
    44.577672654634156,
    51.07984028123975,
    56.926952090587434,
    61.90692328254579,
    65.79439853366144,
    68.34862659923563,
    69.31091568924307],
   ["Liquid",
    "Domestic cooking",
    68.97346540948561,
    63.38313251078583,
    55.90444346473606,
    48.044262379593505,
    39.98335915309485,
    31.90884736789348,
    24.015163021296242,
    16.505240921454,
    9.591916695315659],
   ["Gaseous",
    "Domestic cooking",
    182.27581370514338,
    199.5963771064773,
    219.59814819934994,
    237.21861808495842,
    251.85273422266195,
    262.875359092798,
    269.63814662263235,
    271.4658234462881,
    267.65174606165664],
   ["Solid",
    "Domestic cooking",
    106.08999910524157,
    97.30743289942171,
    85.97209227130047,
    74.50547825215907,
    63.1775697494488,
    52.24086284923816,
    41.92764699633532,
    32.44677804592147,
    23.979791738289148],
   ["Electricity grid",
    "Domestic other appliances",
    22.657413076526403,
    23.93739524489328,
    25.421120610743376,
    26.749491386733357,
    27.893505918152755,
    28.823024603249664,
    29.50659186555704,
    29.911225909877167,
    30.002166430886728],
   ["Liquid",
    "Domestic other appliances",
    3.575362602876687,
    3.163052828763896,
    2.640631009418466,
    2.1226339629536017,
    1.6214631139766509,
    1.1486604495868982,
    0.7147748525271694,
    0.32920327508061725,
    0.0],
   ["Gaseous",
    "Domestic other appliances",
    0.0,
    0.0,
    0.0,
    0.0,
    0.0,
    0.0,
    0.0,
    0.0,
    0.0],
   ["Solid",
    "Domestic other appliances",
    0.0,
    0.0,
    0.0,
    0.0,
    0.0,
    0.0,
    0.0,
    0.0,
    0.0],
   ["Electricity grid",
    "Commercial lighting",
    0.008676324800000001,
    0.010765284845472716,
    0.013809703408780228,
    0.01727348328560936,
    0.020958866616144146,
    0.02447035406041977,
    0.02711751212111868,
    0.027786533767826596,
    0.024775376007998062],
   ["Liquid",
    "Commercial lighting",
    0.0,
    0.0,
    0.0,
    0.0,
    0.0,
    0.0,
    0.0,
    0.0,
    0.0],
   ["Gaseous",
    "Commercial lighting",
    0.0,
    0.0,
    0.0,
    0.0,
    0.0,
    0.0,
    0.0,
    0.0,
    0.0],
   ["Solid",
    "Commercial lighting",
    0.0,
    0.0,
    0.0,
    0.0,
    0.0,
    0.0,
    0.0,
    0.0,
    0.0],
   ["Electricity grid",
    "Commercial cooling",
    0.02169081199999998,
    0.027493572555646457,
    0.03641237191716855,
    0.047392707660428274,
    0.06051014392532114,
    0.07560093494499044,
    0.09210910487994796,
    0.10887815837075382,
    0.12387688003999063],
   ["Liquid",
    "Commercial cooling",
    0.0,
    0.0,
    0.0,
    0.0,
    0.0,
    0.0,
    0.0,
    0.0,
    0.0],
   ["Gaseous",
    "Commercial cooling",
    0.0,
    0.0,
    0.0,
    0.0,
    0.0,
    0.0,
    0.0,
    0.0,
    0.0],
   ["Solid",
    "Commercial cooling",
    0.0,
    0.0,
    0.0,
    0.0,
    0.0,
    0.0,
    0.0,
    0.0,
    0.0],
   ["Electricity grid",
    "Commercial cooking",
    0.1085292992,
    -0.0,
    -0.0,
    -0.0,
    -0.0,
    -0.0,
    -0.0,
    -0.0,
    -0.0],
   ["Liquid",
    "Commercial cooking",
    5.42646496,
    -0.0,
    -0.0,
    -0.0,
    -0.0,
    -0.0,
    -0.0,
    -0.0,
    -0.0],
   ["Gaseous",
    "Commercial cooking",
    1.7364687871999998,
    -0.0,
    -0.0,
    -0.0,
    -0.0,
    -0.0,
    -0.0,
    -0.0,
    -0.0],
   ["Solid",
    "Commercial cooking",
    3.5814668735999993,
    -0.0,
    -0.0,
    -0.0,
    -0.0,
    -0.0,
    -0.0,
    -0.0,
    -0.0],
   ["Electricity grid",
    "Commercial others",
    13.505397976,
    17.519956637386905,
    23.977971476588287,
    32.42058992911805,
    43.28923646488524,
    57.052807839931184,
    74.17477701625282,
    95.06156220590296,
    119.98725743359213],
   ["Liquid",
    "Commercial others",
    0.0,
    0.0,
    0.0,
    0.0,
    0.0,
    0.0,
    0.0,
    0.0,
    0.0],
   ["Gaseous",
    "Commercial others",
    0.0,
    0.0,
    0.0,
    0.0,
    0.0,
    0.0,
    0.0,
    0.0,
    0.0],
   ["Solid", "Commercial others", 0.0, 0.0, 0.0, 0.0, 0.0, 0.0, 0.0, 0.0, 0.0],
   ["Electricity grid",
    "Industrial process",
    34.004882980726244,
    44.596453070122315,
    61.77847906786266,
    84.58367646220199,
    114.70852838540695,
    154.33690873673117,
    206.27560532885113,
    274.126655294503,
    362.5063179339899],
   ["Liquid",
    "Industrial process",
    117.51131484402816,
    139.8470312712231,
    173.82293057071456,
    216.04610422852437,
    268.5168427491556,
    333.72020968779776,
    414.7434407237033,
    515.4217538503351,
    640.5194417581033],
   ["Gaseous",
    "Industrial process",
    243.1804768347128,
    288.50453457853024,
    357.2161730262927,
    442.2908706390506,
    547.6249606150855,
    678.0424726155749,
    839.5159915827614,
    1039.4400920570517,
    1286.9698624681741],
   ["Solid",
    "Industrial process",
    190.93700740893314,
    220.76464104944088,
    264.4602366197635,
    316.4880950378083,
    378.348234494251,
    451.7848107376876,
    538.817852755982,
    641.7763914712402,
    763.3318740534226],
   ["Electricity grid",
    "Freight",
    0.0,
    0.0,
    0.0,
    0.0,
    0.0,
    0.0,
    0.0,
    0.0,
    0.0],
   ["Liquid",
    "Freight",
    152.3397464629242,
    201.01113032449547,
    204.5401013770445,
    210.2296553420094,
    219.61241094056908,
    236.39499834372884,
    259.2567657208674,
    301.85631135666995,
    385.39256236740164],
   ["Gaseous",
    "Freight",
    0.0,
    0.032638711216074284,
    0.10992404683196529,
    0.26230850883947554,
    0.5605151465380349,
    1.1712267548257551,
    2.178642721119941,
    4.234545237395472,
    8.671999172922474],
   ["Solid", "Freight", 0.0, 0.0, 0.0, 0.0, 0.0, 0.0, 0.0, 0.0, 0.0],
   ["Electricity grid",
    "Passenger Urban",
    0.15683526486486465,
    0.2744881837803744,
    0.46260617865380504,
    39.95960544595542,
    124.63341324713949,
    286.9045262988889,
    506.211580836021,
    617.9085526469406,
    721.1037635421862],
   ["Liquid",
    "Passenger Urban",
    254.5761223871535,
    325.9189793805582,
    460.6266904830385,
    608.8827177749627,
    802.5064506392356,
    916.2107600698221,
    917.4818068913387,
    710.8142449249929,
    514.3352175481954],
   ["Gaseous",
    "Passenger Urban",
    1.4725850538409766,
    3.4289997932678635,
    8.200021504302276,
    17.601958015963024,
    35.38937100156101,
    66.73464812238925,
    121.98910051320345,
    217.92766269464605,
    382.4172112973925],
   ["Solid", "Passenger Urban", 0.0, 0.0, 0.0, 0.0, 0.0, 0.0, 0.0, 0.0, 0.0],
   ["Electricity grid",
    "Passenger Intercity",
    0.0,
    0.0,
    0.0,
    0.0,
    0.0,
    0.0,
    0.0,
    0.0,
    0.0],
   ["Liquid",
    "Passenger Intercity",
    -0.0,
    -0.0,
    -0.0,
    -0.0,
    -0.0,
    -0.0,
    -0.0,
    -0.0,
    -0.0],
   ["Gaseous",
    "Passenger Intercity",
    0.0,
    0.05617566483735567,
    0.14780513543661591,
    0.2685747203607292,
    0.4260932272389628,
    0.6291026903687726,
    0.8884497078599651,
    1.217571110206778,
    1.6324939602878805],
   ["Solid",
    "Passenger Intercity",
    0.0,
    0.0,
    0.0,
    0.0,
    0.0,
    0.0,
    0.0,
    0.0,
    0.0],
   ["Electricity grid",
    "Air transport",
    0.0,
    0.0,
    0.0,
    0.0,
    0.0,
    0.0,
    0.0,
    0.0,
    0.0],
   ["Liquid",
    "Air transport",
    34.185687200000004,
    -0.0,
    -0.0,
    -0.0,
    -0.0,
    -0.0,
    -0.0,
    -0.0,
    -0.0],
   ["Gaseous", "Air transport", 0.0, 0.0, 0.0, 0.0, 0.0, 0.0, 0.0, 0.0, 0.0],
   ["Solid", "Air transport", 0.0, 0.0, 0.0, 0.0, 0.0, 0.0, 0.0, 0.0, 0.0],
   ["Electricity grid",
    "ACM energy demand",
    0.0,
    0.0,
    0.0,
    0.0,
    0.0,
    0.0,
    0.0,
    0.0,
    0.0],
   ["Liquid",
    "ACM energy demand",
    40.407039399999995,
    43.54523670900434,
    43.207948756530485,
    37.77545649335171,
    29.099054085734462,
    17.602739954166253,
    10.277342381084788,
    5.286940893841145,
    2.3963550459115917],
   ["Gaseous",
    "ACM energy demand",
    0.0,
    0.0,
    0.0,
    0.0,
    0.0,
    0.0,
    0.0,
    0.0,
    0.0],
   ["Solid", "ACM energy demand", 0.0, 0.0, 0.0, 0.0, 0.0, 0.0, 0.0, 0.0, 0.0],
   ["Gas", "Losses", 0.0, 0.0, 0.0, 0.0, 0.0, 0.0, 0.0, 0.0, 0.0]],
 "ghg"=>
  [["Mt CO2e",
    2010.0,
    2015.0,
    2020.0,
    2025.0,
    2030.0,
    2035.0,
    2040.0,
    2045.0,
    2050.0],
   ["Fuel Combustion",
    :name,
    :name,
    :name,
    :name,
    :name,
    :name,
    :name,
    :name,
    :name],
   [:name, :name, :name, :name, :name, :name, :name, :name, :name, :name],
   [:name, :name, :name, :name, :name, :name, :name, :name, :name, :name],
   [:name, :name, :name, :name, :name, :name, :name, :name, :name, :name],
   [:name, :name, :name, :name, :name, :name, :name, :name, :name, :name],
   [:name, :name, :name, :name, :name, :name, :name, :name, :name, :name],
   [:name, :name, :name, :name, :name, :name, :name, :name, :name, :name],
   [:name, :name, :name, :name, :name, :name, :name, :name, :name, :name],
   [:name, :name, :name, :name, :name, :name, :name, :name, :name, :name],
   [:name, :name, :name, :name, :name, :name, :name, :name, :name, :name],
   ["Total", :name, :name, :name, :name, :name, :name, :name, :name, :name],
   ["Targets", 603.6, 556.4, 508.8, 390.0, nil, nil, nil, nil, 159.917234]],
 "ghg_reduction_from_1990"=>:name,
 "final_energy_demand"=>
  [["Vector",
    "2011",
    2015.0,
    2020.0,
    2025.0,
    2030.0,
    2035.0,
    2040.0,
    2045.0,
    2050.0],
   ["Transport",
    442.73097636878356,
    530.666236393318,
    673.939343589871,
    876.93624508773,
    1182.7021609750432,
    1507.4161595896549,
    1807.1178966825507,
    1852.7413168606447,
    2011.9207539280983],
   ["Domestic",
    432.5750228166986,
    442.3932500351495,
    451.5907282643944,
    457.0279149932165,
    458.2961509563036,
    454.9375957387804,
    446.43756890865427,
    432.21545868120245,
    411.6138159245157],
   ["Commerce",
    24.388695032799998,
    17.558215494788023,
    24.028193551914235,
    32.485256120064086,
    43.37070547542671,
    57.1528791289366,
    74.29400363325388,
    95.19822689804154,
    120.13590968964013],
   ["Industrial process",
    599.8231588308404,
    710.9600576582923,
    879.3028839551782,
    1087.5189303194716,
    1345.075075740175,
    1663.6729293747446,
    2057.7919439373118,
    2545.349579243858,
    3148.518556528751],
   ["ACM",
    40.407039399999995,
    43.545236709004335,
    43.20794875653048,
    37.775456493351705,
    29.09905408573446,
    17.602739954166253,
    10.277342381084788,
    5.286940893841144,
    2.396355045911591],
   ["Total",
    1539.9248924491226,
    1745.1229962905518,
    2072.069098117888,
    2491.7438030138337,
    3058.543147232683,
    3700.7823037862827,
    4395.918755542856,
    4930.791522577588,
    5694.585391116916]],
 "primary_energy_supply"=>
  [["Vector",
    2010.0,
    2015.0,
    2020.0,
    2025.0,
    2030.0,
    2035.0,
    2040.0,
    2045.0,
    2050.0],
   ["Indigenous Gas",
    1013.8113436715662,
    1338.5426684355116,
    1690.9445912292213,
    1901.7318982025245,
    2301.3749896313566,
    2784.891764957054,
    3218.8785879769093,
    3583.1700949237456,
    4212.299605329412],
   ["Imported Gas", 0.0, 0.0, 0.0, 0.0, 0.0, 0.0, 0.0, 0.0, 0.0],
   ["Indigenous Oil",
    511.25480000000005,
    1989.6604000000002,
    4278.76102675,
    6317.511729578849,
    8393.142932491666,
    11096.240848670144,
    13461.771211312227,
    15338.03952651133,
    16820.219467807427],
   ["Imported Oil",
    39851.806315524154,
    38614.715638336376,
    46785.376640481176,
    44895.83027821721,
    53331.34304119169,
    50781.54764077696,
    58741.753844900406,
    56710.01875276037,
    65461.7904305323],
   ["Indigenous Coal",
    2.2564544444444445,
    10.722917339297778,
    14.655059979849515,
    16.180370393496403,
    17.864436340125025,
    19.723781223120493,
    25.87916365610342,
    24.043179252181265,
    26.54561266022986],
   ["Imported Coal",
    763.0971954496002,
    312.52337591625746,
    342.3847883123779,
    383.24625808203683,
    482.7989865241907,
    786.4405332293614,
    1616.112924151853,
    2139.6492095561216,
    2734.044749914568],
   ["Indigenous Bioenergy",
    63.32539242399999,
    119.56158699187502,
    190.38475195377987,
    262.891341825937,
    337.6980575476417,
    415.4191078022414,
    496.8383958078194,
    582.8004583439556,
    673.9491829899437],
   ["Imported Bioenergy", 0.0, 0.0, 0.0, 0.0, 0.0, 0.0, 0.0, 0.0, 0.0],
   ["Nuclear fussion",
    0.0,
    17.699868900000002,
    17.699868900000002,
    17.699868900000002,
    17.699868900000002,
    17.699868900000002,
    17.699868900000002,
    17.699868900000002,
    17.699868900000002],
   ["Geothermal",
    86.71217625,
    192.36986999999993,
    316.2444074999999,
    440.118945,
    563.9934825,
    687.86802,
    811.7425575,
    935.6170949999998,
    1052.9335687499997],
   ["Agriculture",
    63.31913349999999,
    118.99046017687502,
    189.24875724777988,
    261.19047922893697,
    335.43232705964175,
    412.5885094232414,
    493.4429295378194,
    578.8401241829556,
    669.3535680429437],
   ["Hydro",
    19.3842558,
    34.6265766,
    54.0660582,
    73.5055398,
    92.94502139999999,
    112.384503,
    131.8239846,
    151.26346619999998,
    171.0343026],
   ["Solar",
    0.0018408600000000004,
    0.08283869999999999,
    0.07179354000000002,
    0.07179354000000002,
    0.07179354000000002,
    0.07179354000000002,
    0.07179354000000002,
    0.07179354000000002,
    0.07179354000000002],
   ["Wind",
    0.0034424081999999997,
    2.4992067617999996,
    3.0677931900000006,
    3.0677931900000006,
    3.0677931900000006,
    3.0677931900000006,
    3.0677931900000006,
    3.0677931900000006,
    1.1809116899999998],
   ["Wave", 0.0, 0.0, 0.0, 0.0, 0.0, 0.0, 0.0, 0.0, 0.0],
   ["Total used in Indonesia",
    42329.40839092571,
    42636.73451592376,
    53663.78364691246,
    54291.73571470669,
    65589.76948791931,
    66775.56376734882,
    78626.97334123668,
    79607.31141738174,
    91317.062609863]],
 "test1"=>
  [["Vector",
    2010.0,
    2015.0,
    2020.0,
    2025.0,
    2030.0,
    2035.0,
    2040.0,
    2045.0,
    2050.0],
   ["Indigenous Gas",
    1013.8113436715662,
    1338.5426684355116,
    1690.9445912292213,
    1901.7318982025245,
    2301.3749896313566,
    2784.891764957054,
    3218.8785879769093,
    3583.1700949237456,
    4212.299605329412],
   ["Imported Gas", 0.0, 0.0, 0.0, 0.0, 0.0, 0.0, 0.0, 0.0, 0.0],
   ["Indigenous Oil",
    511.25480000000005,
    1989.6604000000002,
    4278.76102675,
    6317.511729578849,
    8393.142932491666,
    11096.240848670144,
    13461.771211312227,
    15338.03952651133,
    16820.219467807427],
   ["Imported Oil",
    39851.806315524154,
    38614.715638336376,
    46785.376640481176,
    44895.83027821721,
    53331.34304119169,
    50781.54764077696,
    58741.753844900406,
    56710.01875276037,
    65461.7904305323],
   ["Indigenous Coal",
    2.2564544444444445,
    10.722917339297778,
    14.655059979849515,
    16.180370393496403,
    17.864436340125025,
    19.723781223120493,
    25.87916365610342,
    24.043179252181265,
    26.54561266022986],
   ["Imported Coal",
    763.0971954496002,
    312.52337591625746,
    342.3847883123779,
    383.24625808203683,
    482.7989865241907,
    786.4405332293614,
    1616.112924151853,
    2139.6492095561216,
    2734.044749914568],
   ["Indigenous Bioenergy",
    63.32539242399999,
    119.56158699187502,
    190.38475195377987,
    262.891341825937,
    337.6980575476417,
    415.4191078022414,
    496.8383958078194,
    582.8004583439556,
    673.9491829899437],
   ["Imported Bioenergy", 0.0, 0.0, 0.0, 0.0, 0.0, 0.0, 0.0, 0.0, 0.0],
   ["Nuclear fussion",
    0.0,
    17.699868900000002,
    17.699868900000002,
    17.699868900000002,
    17.699868900000002,
    17.699868900000002,
    17.699868900000002,
    17.699868900000002,
    17.699868900000002],
   ["Geothermal",
    86.71217625,
    192.36986999999993,
    316.2444074999999,
    440.118945,
    563.9934825,
    687.86802,
    811.7425575,
    935.6170949999998,
    1052.9335687499997],
   ["Agriculture",
    63.31913349999999,
    118.99046017687502,
    189.24875724777988,
    261.19047922893697,
    335.43232705964175,
    412.5885094232414,
    493.4429295378194,
    578.8401241829556,
    669.3535680429437],
   ["Hydro",
    19.3842558,
    34.6265766,
    54.0660582,
    73.5055398,
    92.94502139999999,
    112.384503,
    131.8239846,
    151.26346619999998,
    171.0343026],
   ["Solar",
    0.0018408600000000004,
    0.08283869999999999,
    0.07179354000000002,
    0.07179354000000002,
    0.07179354000000002,
    0.07179354000000002,
    0.07179354000000002,
    0.07179354000000002,
    0.07179354000000002],
   ["Wind",
    0.0034424081999999997,
    2.4992067617999996,
    3.0677931900000006,
    3.0677931900000006,
    3.0677931900000006,
    3.0677931900000006,
    3.0677931900000006,
    3.0677931900000006,
    1.1809116899999998],
   ["Wave", 0.0, 0.0, 0.0, 0.0, 0.0, 0.0, 0.0, 0.0, 0.0],
   ["Total used in Indonesia",
    42329.40839092571,
    42636.73451592376,
    53663.78364691246,
    54291.73571470669,
    65589.76948791931,
    66775.56376734882,
    78626.97334123668,
    79607.31141738174,
    91317.062609863]],
 "electricity"=>
  {"demand"=>
    [["Sector",
      2011.0,
      2015.0,
      2020.0,
      2025.0,
      2030.0,
      2035.0,
      2040.0,
      2045.0,
      2050.0],
     ["Transport",
      0.15683526486486465,
      0.2744881837803744,
      0.46260617865380504,
      39.95960544595542,
      124.63341324713949,
      286.9045262988889,
      506.211580836021,
      617.9085526469406,
      721.1037635421862],
     ["Industry",
      34.004882980726244,
      44.596453070122315,
      61.77847906786266,
      84.58367646220199,
      114.70852838540695,
      154.33690873673117,
      206.27560532885113,
      274.126655294503,
      362.5063179339899],
     ["Domestic",
      70.22814609747732,
      77.72866025420036,
      86.52212643311775,
      94.42568601308923,
      101.16553083914721,
      106.45170719001213,
      109.97560706583933,
      111.40698103020779,
      110.39036142925416],
     ["Commerce",
      13.644294412,
      17.558215494788023,
      24.028193551914235,
      32.485256120064086,
      43.37070547542671,
      57.1528791289366,
      74.29400363325388,
      95.19822689804154,
      120.13590968964013],
     ["Total",
      118.03415875506843,
      140.15781700289108,
      172.79140523154845,
      251.45422404131074,
      383.8781779471203,
      604.8460213545687,
      896.7567968639653,
      1098.640415869693,
      1314.1363525950705]],
   "supply"=>
    [["Sector",
      2011.0,
      2015.0,
      2020.0,
      2025.0,
      2030.0,
      2035.0,
      2040.0,
      2045.0,
      2050.0],
     ["Conventional",
      0.107774612218,
      122.26617822319201,
      156.20909455332003,
      181.960161056784,
      209.678507200656,
      301.2199657176601,
      302.18691679200003,
      303.241159536552,
      304.3537668],
     ["Geothermal",
      9.909963,
      21.985127999999992,
      36.14221799999999,
      50.299307999999996,
      64.456398,
      78.61348799999999,
      92.770578,
      106.92766799999998,
      120.33526499999998],
     ["Biomass",
      12.741380999999999,
      27.494559,
      45.749754,
      64.004949,
      82.260144,
      100.51533899999998,
      118.77053399999998,
      137.02572899999998,
      155.05739099999994],
     ["Hydro",
      18.461195999999997,
      32.977692,
      51.491484,
      70.005276,
      88.51906799999999,
      107.03286,
      125.54665199999998,
      144.060444,
      162.88981199999998],
     ["OTEC",
      0.0017532000000000003,
      0.07889399999999999,
      0.06837480000000001,
      0.06837480000000001,
      0.06837480000000001,
      0.06837480000000001,
      0.06837480000000001,
      0.06837480000000001,
      0.06837480000000001],
     ["Wind",
      0.003278484,
      2.3801969159999996,
      2.9217078000000005,
      2.9217078000000005,
      2.9217078000000005,
      2.9217078000000005,
      2.9217078000000005,
      2.9217078000000005,
      1.1246778],
     ["PV",
      0.005960880000000001,
      0.5439303,
      1.08189972,
      1.6198691400000003,
      2.1578385600000005,
      2.6958079800000005,
      3.2337773999999997,
      3.77174682,
      4.3767761400000005],
     ["Nuclear power generation",
      0.0,
      6.06852648,
      6.06852648,
      6.06852648,
      6.06852648,
      6.06852648,
      6.06852648,
      6.06852648,
      6.06852648],
     ["Steam coal PP as balancing",
      134.0045414881724,
      0.0,
      0.0,
      0.0,
      15.32953161247815,
      93.78747098795645,
      348.547713780466,
      498.7203252728774,
      679.7052855820237],
     ["Total",
      175.2358486643904,
      213.795104919192,
      299.73305935332,
      376.94817227678396,
      471.46009645313416,
      692.9235407656165,
      1000.114781052466,
      1202.8056817094293,
      1433.9798756020236]],
   "ghg"=>
    [["Source",
      2011.0,
      2015.0,
      2020.0,
      2025.0,
      2030.0,
      2035.0,
      2040.0,
      2045.0,
      2050.0],
     ["Fuel combustion", nil, nil, nil, nil, nil, nil, nil, nil, nil],
     ["Bioenergy credit", nil, nil, nil, nil, nil, nil, nil, nil, nil],
     ["Total", 0.0, 0.0, 0.0, 0.0, 0.0, 0.0, 0.0, 0.0, 0.0]],
   "capacity"=>
    [["Sector",
      2011.0,
      2015.0,
      2020.0,
      2025.0,
      2030.0,
      2035.0,
      2040.0,
      2045.0,
      2050.0],
     ["Coal power plant",
      12.05,
      5.13,
      8.65,
      11.07,
      12.65,
      12.7,
      11.22,
      8.83,
      6.35],
     ["Gas combined-cycle power plant",
      8.81,
      10.0199,
      14.229800000000003,
      15.999699999999999,
      17.9996,
      24.9995,
      24.999400000000005,
      24.9993,
      24.999200000000002],
     ["Gas turbine power plant",
      2.9700000000000006,
      7.879900000000001,
      9.1498,
      11.489700000000001,
      13.829600000000001,
      20.9995,
      20.9994,
      20.9993,
      20.999200000000002],
     ["Diesel power plant",
      2.598,
      2.286,
      1.9450000000000003,
      1.6350000000000002,
      1.3530000000000002,
      1.0950000000000002,
      0.8590000000000001,
      0.6420000000000001,
      0.44200000000000006],
     ["Geothermal",
      1.19,
      2.6399999999999997,
      4.34,
      6.04,
      7.74,
      9.44,
      11.139999999999999,
      12.839999999999998,
      14.449999999999998],
     ["Biomass",
      1.71,
      3.69,
      6.140000000000001,
      8.59,
      11.04,
      13.489999999999998,
      15.939999999999998,
      18.389999999999997,
      20.809999999999995],
     ["Hydro",
      3.51,
      6.27,
      9.79,
      13.309999999999999,
      16.83,
      20.349999999999998,
      23.869999999999997,
      27.389999999999997,
      30.97],
     ["OTEC", 0.001, 0.045, 0.039, 0.039, 0.039, 0.039, 0.039, 0.039, 0.039],
     ["Wind",
      0.00187,
      1.35763,
      1.6665,
      1.6665,
      1.6665,
      1.6665,
      1.6665,
      1.6665,
      0.6415],
     ["PV", 0.0, 0.0, 0.0, 0.0, 0.0, 0.0, 0.0, 0.0, 0.0],
     ["Nuclear power generation",
      0.0,
      0.7692,
      0.7692,
      0.7692,
      0.7692,
      0.7692,
      0.7692,
      0.7692,
      0.7692],
     ["Steam coal PP as balancing",
      61.80138952336405,
      0.0,
      0.0,
      0.0,
      6.49228513531333,
      38.70597396176004,
      140.07527371687868,
      196.89627213698958,
      260.99789006838824],
     ["Total generation",
      94.64225952336405,
      40.087630000000004,
      56.7193,
      70.6091,
      90.40918513531332,
      144.25467396176003,
      251.5777737168787,
      313.4615721369896,
      381.46799006838825]]}}
