{"_id"=>"q011111111111111032413l004314110434104103204440410111",
 "choices"=>
  [2.6,
   0.0,
   1.0,
   1.0,
   1.0,
   1.0,
   1.0,
   1.0,
   1.0,
   1.0,
   1.0,
   1.0,
   1.0,
   1.0,
   1.0,
   1.0,
   0.0,
   3.0,
   2.0,
   4.0,
   1.0,
   3.0,
   2.1,
   0.0,
   0.0,
   4.0,
   3.0,
   1.0,
   4.0,
   1.0,
   1.0,
   0.0,
   4.0,
   3.0,
   4.0,
   1.0,
   0.0,
   4.0,
   1.0,
   0.0,
   3.0,
   2.0,
   0.0,
   4.0,
   4.0,
   4.0,
   0.0,
   4.0,
   1.0,
   0.0,
   1.0,
   1.0,
   1.0],
 "sankey"=>
  [["From",
    "To",
    "2011",
    "2015",
    "2020",
    "2025",
    "2030",
    "2035",
    "2040",
    "2045",
    "2050"],
   ["Oil production",
    "Oil",
    511.25480000000005,
    1867.5454000000002,
    3637.3155333211257,
    4936.099168336044,
    5889.281702300769,
    6588.826198058922,
    7102.224717343599,
    7479.0099557408375,
    7755.534157781512],
   ["Oil imports",
    "Oil",
    -0.0,
    -38843.83729953901,
    -47615.41057184909,
    -46625.767053402495,
    -56464.03444924508,
    -56330.03908056347,
    -67072.59471084725,
    -68550.68210201606,
    -83541.81089242548],
   ["Gas production",
    "Natural gas",
    2240.1019357821997,
    3139.761312303,
    6038.229706129135,
    7525.826155608729,
    8349.498005247871,
    8956.124655493879,
    9401.330394204493,
    9728.068676639747,
    9967.863216391035],
   ["Gas imports",
    "Natural gas",
    1226.2905921106335,
    1833.8607132313741,
    4369.390423516754,
    5558.3252906213875,
    5810.837858615976,
    5810.900077390987,
    5227.478781478211,
    4265.013086745379,
    2456.6379037560255],
   ["Coal production",
    "Coal",
    2.2564544444444445,
    10.406537777777778,
    13.008172222222223,
    13.008172222222223,
    13.008172222222223,
    13.008172222222223,
    15.609806666666667,
    13.008172222222223,
    13.008172222222223],
   ["Coal import",
    "Coal",
    -0.0,
    -0.0,
    -0.0,
    -0.0,
    -0.0,
    -0.0,
    -0.0,
    -0.0,
    -0.0],
   ["Agriculture & land-use",
    "Bioenergy production",
    18.724300000000003,
    22.75950367687501,
    29.12461824777987,
    37.17121328449251,
    47.440934170752875,
    60.54798958990812,
    77.27628276004171,
    98.62629490517783,
    125.87492176516618],
   ["Wastes",
    "Bioenergy production",
    -0.0,
    -0.0,
    -0.0,
    -0.0,
    -0.0,
    -0.0,
    -0.0,
    -0.0,
    -0.0],
   ["Marine algae",
    "Bioenergy production",
    0.0,
    0.0,
    0.0,
    0.0019444444444444446,
    0.04200000000000001,
    0.12016666666666669,
    0.23644444444444446,
    0.3126666666666667,
    0.38888888888888895],
   ["Oil",
    "Liquid",
    511.25480000000005,
    -36976.29189953901,
    -43978.095038527965,
    -41689.66788506645,
    -50574.752746944316,
    -49741.212882504544,
    -59970.36999350365,
    -61071.67214627522,
    -75786.27673464397],
   ["Natural gas",
    "Gaseous",
    3466.392527892833,
    4973.622025534374,
    10407.62012964589,
    13084.151446230117,
    14160.335863863847,
    14767.024732884865,
    14628.809175682705,
    13993.081763385126,
    12424.50112014706],
   ["Coal",
    "Solid",
    2.2564544444444445,
    10.406537777777778,
    13.008172222222223,
    13.008172222222223,
    13.008172222222223,
    13.008172222222223,
    15.609806666666667,
    13.008172222222223,
    13.008172222222223],
   ["Liquid",
    "Over supply/exports",
    0.0,
    0.0,
    0.0,
    0.0,
    0.0,
    0.0,
    0.0,
    0.0,
    0.0],
   ["Gaseous",
    "Over supply/exports",
    1226.2905921106335,
    1833.8607132313741,
    4369.390423516754,
    5558.3252906213875,
    5810.837858615976,
    5810.900077390987,
    5227.478781478211,
    4265.013086745379,
    2456.6379037560255],
   ["Solid",
    "Over supply/exports",
    0.0,
    0.0,
    0.0,
    0.0,
    0.0,
    0.0,
    0.0,
    0.0,
    0.0],
   ["Liquid",
    "Thermal generation",
    0.22682192297954626,
    122.19904702237969,
    110.35251559928956,
    98.50635911502806,
    86.6385392489839,
    74.79313301657015,
    62.948101722985086,
    51.08140817018868,
    39.303237600000024],
   ["Gaseous",
    "Thermal generation",
    0.15874564659333332,
    172.12483945980003,
    184.415386833,
    196.7054950296,
    209.0209781664,
    221.3102075715,
    233.5989978,
    245.91316165380005,
    258.123636],
   ["Solid",
    "Thermal generation",
    -0.0,
    -0.0,
    -0.0,
    -0.0,
    -0.0,
    -0.0,
    -0.0,
    -0.0,
    -0.0],
   ["Nuclear power generation",
    "Thermal generation",
    0.0,
    0.0,
    0.0,
    0.0,
    0.0,
    0.0,
    0.0,
    0.0,
    0.0],
   ["Electricity import",
    "Electricity grid",
    0.0,
    0.0,
    0.0,
    0.0,
    0.0,
    0.0,
    0.0,
    0.0,
    0.0],
   ["Thermal generation",
    "Electricity grid",
    0.107774612218,
    85.085339998392,
    85.26901231332,
    85.452667061184,
    85.63733680665601,
    85.82095640286,
    86.00455843200002,
    86.18917540615203,
    86.36964480000002],
   ["Thermal generation",
    "Losses",
    0.2777929573548796,
    209.23854648378767,
    209.49889011896957,
    209.7591870834441,
    210.0221806087279,
    210.28238418521016,
    210.54254109098508,
    210.8053944178367,
    211.0572288],
   ["Geothermal",
    "Electricity grid",
    9.909963,
    14.406921,
    19.320263999999998,
    24.233606999999996,
    29.146949999999997,
    34.060292999999994,
    38.973636,
    43.88697899999999,
    48.21738299999999],
   ["Biomass",
    "Electricity grid",
    12.741380999999999,
    16.913997,
    21.384657000000004,
    25.855317,
    30.325977000000005,
    34.796637,
    39.267297,
    43.737956999999994,
    47.61252899999999],
   ["Hydro",
    "Electricity grid",
    18.461195999999997,
    20.775419999999997,
    23.457815999999998,
    26.140212,
    28.822608,
    31.505003999999996,
    34.1874,
    36.869795999999994,
    39.39440399999999],
   ["OTEC",
    "Electricity grid",
    0.0017532000000000003,
    0.0,
    0.0,
    0.0,
    0.0,
    0.0,
    0.0,
    0.0,
    0.0],
   ["Wind",
    "Electricity grid",
    0.003278484,
    0.0,
    0.0,
    0.0,
    0.0,
    0.0,
    0.0,
    0.0,
    0.0],
   ["PV",
    "Electricity grid",
    0.005960880000000001,
    0.041726160000000005,
    0.07749144000000001,
    0.11325672000000003,
    0.14902200000000002,
    0.18478728000000003,
    0.22055256000000004,
    0.25631784,
    0.29208312000000003],
   ["Electricity grid",
    "Over generation/exports",
    0.0,
    0.0,
    0.0,
    0.0,
    0.0,
    0.0,
    0.0,
    0.0,
    0.0],
   ["Electricity grid",
    "Losses",
    6.700227074408621,
    3.4815064128432773,
    6.284140171317887,
    11.469861756055378,
    21.400263916219668,
    37.16168727705491,
    60.62298375265462,
    84.29099198760534,
    118.04246912712205],
   ["Electricity grid",
    "Domestic lighting",
    9.07621517977812,
    9.191824682923045,
    9.177208338159163,
    8.963019354822487,
    8.523821046896533,
    7.832915694066328,
    6.86214837648562,
    5.58167381691214,
    3.959676787832766],
   ["Liquid",
    "Domestic lighting",
    1.4322358964739943,
    1.214594435500418,
    0.9532868864716876,
    0.7112363004626102,
    0.49549387797415556,
    0.3121587892517042,
    0.1662303500238375,
    0.06143196225041487,
    0.0],
   ["Gaseous",
    "Domestic lighting",
    0.0,
    0.0,
    0.0,
    0.0,
    0.0,
    0.0,
    0.0,
    0.0,
    0.0],
   ["Solid", "Domestic lighting", 0.0, 0.0, 0.0, 0.0, 0.0, 0.0, 0.0, 0.0, 0.0],
   ["Electricity grid",
    "Domestic cooling",
    6.637586127443168,
    7.13092620950364,
    7.739667231165757,
    8.331810087444698,
    8.89809079718222,
    9.42813016822847,
    9.910260701375247,
    10.331319864851835,
    10.676403781937369],
   ["Liquid", "Domestic cooling", 0.0, 0.0, 0.0, 0.0, 0.0, 0.0, 0.0, 0.0, 0.0],
   ["Gaseous",
    "Domestic cooling",
    0.0,
    0.0,
    0.0,
    0.0,
    0.0,
    0.0,
    0.0,
    0.0,
    0.0],
   ["Solid", "Domestic cooling", 0.0, 0.0, 0.0, 0.0, 0.0, 0.0, 0.0, 0.0, 0.0],
   ["Electricity grid",
    "Domestic cooking",
    31.856931713729637,
    39.18757001765753,
    49.07084767538934,
    59.74594125368334,
    71.20619122587733,
    83.44745063249704,
    96.46847321876129,
    110.27137706670152,
    124.86220446607172],
   ["Liquid",
    "Domestic cooking",
    68.97346540948561,
    66.0223763453815,
    61.53929234684475,
    56.195353429129284,
    50.0125619439048,
    43.01153771314794,
    35.211297046493094,
    26.629000987808592,
    17.279642776641406],
   ["Gaseous",
    "Domestic cooking",
    182.27581370514338,
    207.90747639770055,
    241.7323883993223,
    277.4646424567851,
    315.02606929107196,
    354.3428971631831,
    395.3464262297938,
    437.97383601418306,
    482.1691750876454],
   ["Solid",
    "Domestic cooking",
    106.08999910524157,
    101.35926865077762,
    94.63758857184163,
    87.14592493285373,
    79.02467895359673,
    70.41808238013249,
    61.47477872789308,
    52.34854121474612,
    43.19910694160351],
   ["Electricity grid",
    "Domestic other appliances",
    22.657413076526403,
    24.800477374745213,
    27.607679227224665,
    30.558005813036917,
    33.65248828904605,
    36.8927697751881,
    40.281198661969256,
    43.820942050174466,
    47.516121453993186],
   ["Liquid",
    "Domestic other appliances",
    3.575362602876687,
    3.27709925463248,
    2.867760826982507,
    2.4248483846334126,
    1.9562355701836793,
    1.4702574105181048,
    0.9757815461851251,
    0.482293760994653,
    0.0],
   ["Gaseous",
    "Domestic other appliances",
    0.0,
    0.0,
    0.0,
    0.0,
    0.0,
    0.0,
    0.0,
    0.0,
    0.0],
   ["Solid",
    "Domestic other appliances",
    0.0,
    0.0,
    0.0,
    0.0,
    0.0,
    0.0,
    0.0,
    0.0,
    0.0],
   ["Electricity grid",
    "Commercial lighting",
    0.008676324800000001,
    0.011577789464223292,
    0.016453062162085443,
    0.023166082510576242,
    0.03231703495508929,
    0.04466542377193723,
    0.06115896652913047,
    0.0829630872994888,
    0.11148919203599153],
   ["Liquid",
    "Commercial lighting",
    0.0,
    0.0,
    0.0,
    0.0,
    0.0,
    0.0,
    0.0,
    0.0,
    0.0],
   ["Gaseous",
    "Commercial lighting",
    0.0,
    0.0,
    0.0,
    0.0,
    0.0,
    0.0,
    0.0,
    0.0,
    0.0],
   ["Solid",
    "Commercial lighting",
    0.0,
    0.0,
    0.0,
    0.0,
    0.0,
    0.0,
    0.0,
    0.0,
    0.0],
   ["Electricity grid",
    "Commercial cooling",
    0.02169081199999998,
    0.0289444736605582,
    0.04113265540521359,
    0.0579152062764406,
    0.08079258738772327,
    0.11166355942984321,
    0.1528974163228264,
    0.20740771824872242,
    0.2787229800899796],
   ["Liquid",
    "Commercial cooling",
    0.0,
    0.0,
    0.0,
    0.0,
    0.0,
    0.0,
    0.0,
    0.0,
    0.0],
   ["Gaseous",
    "Commercial cooling",
    0.0,
    0.0,
    0.0,
    0.0,
    0.0,
    0.0,
    0.0,
    0.0,
    0.0],
   ["Solid",
    "Commercial cooling",
    0.0,
    0.0,
    0.0,
    0.0,
    0.0,
    0.0,
    0.0,
    0.0,
    0.0],
   ["Electricity grid",
    "Commercial cooking",
    0.1085292992,
    -0.0,
    -0.0,
    -0.0,
    -0.0,
    -0.0,
    -0.0,
    -0.0,
    -0.0],
   ["Liquid",
    "Commercial cooking",
    5.42646496,
    -0.0,
    -0.0,
    -0.0,
    -0.0,
    -0.0,
    -0.0,
    -0.0,
    -0.0],
   ["Gaseous",
    "Commercial cooking",
    1.7364687871999998,
    -0.0,
    -0.0,
    -0.0,
    -0.0,
    -0.0,
    -0.0,
    -0.0,
    -0.0],
   ["Solid",
    "Commercial cooking",
    3.5814668735999993,
    -0.0,
    -0.0,
    -0.0,
    -0.0,
    -0.0,
    -0.0,
    -0.0,
    -0.0],
   ["Electricity grid",
    "Commercial others",
    13.505397976,
    17.519956637386905,
    23.977971476588287,
    32.42058992911805,
    43.28923646488524,
    57.052807839931184,
    74.17477701625282,
    95.06156220590296,
    119.98725743359213],
   ["Liquid",
    "Commercial others",
    0.0,
    0.0,
    0.0,
    0.0,
    0.0,
    0.0,
    0.0,
    0.0,
    0.0],
   ["Gaseous",
    "Commercial others",
    0.0,
    0.0,
    0.0,
    0.0,
    0.0,
    0.0,
    0.0,
    0.0,
    0.0],
   ["Solid", "Commercial others", 0.0, 0.0, 0.0, 0.0, 0.0, 0.0, 0.0, 0.0, 0.0],
   ["Electricity grid",
    "Industrial process",
    34.004882980726244,
    51.3531810904873,
    84.8570705502022,
    138.58657798064928,
    224.18890293166575,
    359.80897442090867,
    573.6326396628743,
    909.3290007014905,
    1434.396263817748],
   ["Liquid",
    "Industrial process",
    117.51131484402816,
    161.0350022802489,
    238.75797697251937,
    353.98189725722887,
    524.7952985008059,
    778.0091448904334,
    1153.3616605119955,
    1709.7496333036588,
    2534.4625699123762],
   ["Gaseous",
    "Industrial process",
    243.1804768347128,
    332.21533529454257,
    490.6614480241213,
    724.6738472208556,
    1070.2904210033562,
    1580.7350858749237,
    2334.613312723405,
    3448.0157326687304,
    5092.393348869962],
   ["Solid",
    "Industrial process",
    190.93700740893314,
    254.21229290056786,
    363.2546688615466,
    518.5516153640422,
    739.4522169477123,
    1053.2557036487046,
    1498.4006794266593,
    2128.8914210235653,
    3020.417394200029],
   ["Electricity grid",
    "Freight",
    0.0,
    0.0,
    0.0,
    0.0,
    0.0,
    0.0,
    0.0,
    0.0,
    0.0],
   ["Liquid",
    "Freight",
    152.3397464629242,
    202.16931649330144,
    205.61206470501435,
    211.1397761167491,
    220.22458740075265,
    236.43655453940207,
    258.422246271331,
    299.39122227295263,
    379.76890456444266],
   ["Gaseous", "Freight", 0.0, 0.0, 0.0, 0.0, 0.0, 0.0, 0.0, 0.0, 0.0],
   ["Solid", "Freight", 0.0, 0.0, 0.0, 0.0, 0.0, 0.0, 0.0, 0.0, 0.0],
   ["Electricity grid",
    "Passenger Urban",
    0.15683526486486465,
    0.2744881837803744,
    0.46260617865380504,
    39.95960544595542,
    124.63341324713949,
    286.9045262988889,
    506.211580836021,
    617.9085526469406,
    721.1037635421862],
   ["Liquid",
    "Passenger Urban",
    254.5761223871535,
    325.9189793805582,
    460.6266904830385,
    608.8827177749627,
    802.5064506392356,
    916.2107600698221,
    917.4818068913387,
    710.8142449249929,
    514.3352175481954],
   ["Gaseous",
    "Passenger Urban",
    1.4725850538409766,
    3.4289997932678635,
    8.200021504302276,
    17.601958015963024,
    35.38937100156101,
    66.73464812238925,
    121.98910051320345,
    217.92766269464605,
    382.4172112973925],
   ["Solid", "Passenger Urban", 0.0, 0.0, 0.0, 0.0, 0.0, 0.0, 0.0, 0.0, 0.0],
   ["Electricity grid",
    "Passenger Intercity",
    0.0,
    0.0,
    0.0,
    0.0,
    0.0,
    0.0,
    0.0,
    0.0,
    0.0],
   ["Liquid",
    "Passenger Intercity",
    -0.0,
    -0.0,
    -0.0,
    -0.0,
    -0.0,
    -0.0,
    -0.0,
    -0.0,
    -0.0],
   ["Gaseous",
    "Passenger Intercity",
    0.0,
    0.05617566483735567,
    0.14780513543661591,
    0.2685747203607292,
    0.4260932272389628,
    0.6291026903687726,
    0.8884497078599651,
    1.217571110206778,
    1.6324939602878805],
   ["Solid",
    "Passenger Intercity",
    0.0,
    0.0,
    0.0,
    0.0,
    0.0,
    0.0,
    0.0,
    0.0,
    0.0],
   ["Electricity grid",
    "Air transport",
    0.0,
    0.0,
    0.0,
    0.0,
    0.0,
    0.0,
    0.0,
    0.0,
    0.0],
   ["Liquid",
    "Air transport",
    34.185687200000004,
    -0.0,
    -0.0,
    -0.0,
    -0.0,
    -0.0,
    -0.0,
    -0.0,
    -0.0],
   ["Gaseous", "Air transport", 0.0, 0.0, 0.0, 0.0, 0.0, 0.0, 0.0, 0.0, 0.0],
   ["Solid", "Air transport", 0.0, 0.0, 0.0, 0.0, 0.0, 0.0, 0.0, 0.0, 0.0],
   ["Electricity grid",
    "ACM energy demand",
    0.0,
    0.0,
    0.0,
    0.0,
    0.0,
    0.0,
    0.0,
    0.0,
    0.0],
   ["Liquid",
    "ACM energy demand",
    40.407039399999995,
    53.56988048100685,
    82.48992758868037,
    140.24326891525922,
    263.24733828426,
    464.7934777678119,
    1028.5998543814358,
    2513.2387699182823,
    6779.878351792601],
   ["Gaseous",
    "ACM energy demand",
    0.0,
    0.0,
    0.0,
    0.0,
    0.0,
    0.0,
    0.0,
    0.0,
    0.0],
   ["Solid", "ACM energy demand", 0.0, 0.0, 0.0, 0.0, 0.0, 0.0, 0.0, 0.0, 0.0],
   ["Gas", "Losses", 0.0, 0.0, 0.0, 0.0, 0.0, 0.0, 0.0, 0.0, 0.0]],
 "ghg"=>
  [["Mt CO2e",
    2010.0,
    2015.0,
    2020.0,
    2025.0,
    2030.0,
    2035.0,
    2040.0,
    2045.0,
    2050.0],
   ["Fuel Combustion",
    :name,
    :name,
    :name,
    :name,
    :name,
    :name,
    :name,
    :name,
    :name],
   [:name, :name, :name, :name, :name, :name, :name, :name, :name, :name],
   [:name, :name, :name, :name, :name, :name, :name, :name, :name, :name],
   [:name, :name, :name, :name, :name, :name, :name, :name, :name, :name],
   [:name, :name, :name, :name, :name, :name, :name, :name, :name, :name],
   [:name, :name, :name, :name, :name, :name, :name, :name, :name, :name],
   [:name, :name, :name, :name, :name, :name, :name, :name, :name, :name],
   [:name, :name, :name, :name, :name, :name, :name, :name, :name, :name],
   [:name, :name, :name, :name, :name, :name, :name, :name, :name, :name],
   [:name, :name, :name, :name, :name, :name, :name, :name, :name, :name],
   ["Total", :name, :name, :name, :name, :name, :name, :name, :name, :name],
   ["Targets", 603.6, 556.4, 508.8, 390.0, nil, nil, nil, nil, 159.917234]],
 "ghg_reduction_from_1990"=>:name,
 "final_energy_demand"=>
  [["Vector",
    "2011",
    2015.0,
    2020.0,
    2025.0,
    2030.0,
    2035.0,
    2040.0,
    2045.0,
    2050.0],
   ["Transport",
    442.73097636878356,
    531.7917838509079,
    674.901382871009,
    877.5840573536302,
    1182.7538222886888,
    1506.2864890305023,
    1804.1047345118943,
    1846.0416825395318,
    1997.6250969522168],
   ["Domestic",
    432.5750228166986,
    460.091613368822,
    495.32571950340184,
    531.5407820128517,
    568.7956309957335,
    607.1561997262132,
    646.6965948589803,
    687.5004167386228,
    729.6623312957253],
   ["Commerce",
    24.388695032799998,
    17.560478900511686,
    24.035557194155587,
    32.50167121790507,
    43.402346087228054,
    57.209136823132965,
    74.38883339910477,
    95.35193301145117,
    120.3774696057181],
   ["Industrial process",
    599.8231588308404,
    816.0632092548224,
    1199.5562290789342,
    1763.9041217746621,
    2594.603348879816,
    3817.5974364319236,
    5618.447345870948,
    8270.570474268174,
    12176.860637115176],
   ["ACM",
    40.407039399999995,
    53.56988048100684,
    82.48992758868036,
    140.2432689152592,
    263.24733828426,
    464.79347776781185,
    1028.5998543814358,
    2513.238769918282,
    6779.878351792601],
   ["Total",
    1539.9248924491226,
    1879.0769658560707,
    2476.3088162361814,
    3345.7739012743086,
    4652.8024865357265,
    6453.042739779584,
    9172.237363022363,
    13412.70327647606,
    21804.403886761436]],
 "primary_energy_supply"=>
  [["Vector",
    2010.0,
    2015.0,
    2020.0,
    2025.0,
    2030.0,
    2035.0,
    2040.0,
    2045.0,
    2050.0],
   ["Indigenous Gas",
    1013.8113436715662,
    1305.900599071626,
    1668.8392826123809,
    1967.5008649873416,
    2538.6601466318953,
    3145.2245781028923,
    4173.851612726282,
    5463.055589894368,
    7511.22531263501],
   ["Imported Gas", 0.0, 0.0, 0.0, 0.0, 0.0, 0.0, 0.0, 0.0, 0.0],
   ["Indigenous Oil",
    511.25480000000005,
    1867.5454000000002,
    3637.3155333211257,
    4936.099168336044,
    5889.281702300769,
    6588.826198058922,
    7102.224717343599,
    7479.0099557408375,
    7755.534157781512],
   ["Imported Oil",
    39943.2406585241,
    38843.83729953901,
    47615.41057184909,
    46625.767053402495,
    56464.03444924508,
    56330.03908056347,
    67072.59471084725,
    68550.68210201606,
    83541.81089242548],
   ["Indigenous Coal",
    2.2564544444444445,
    10.406537777777778,
    13.008172222222223,
    13.008172222222223,
    13.008172222222223,
    13.008172222222223,
    15.609806666666667,
    13.008172222222223,
    13.008172222222223],
   ["Imported Coal",
    763.0971954496002,
    589.6136838174892,
    883.383420022904,
    1385.765238844937,
    2280.204276251179,
    3666.5994153569573,
    5708.960574267381,
    7930.057468597888,
    11116.784681215238],
   ["Indigenous Bioenergy",
    63.32539242399999,
    82.00230564487501,
    104.05228375977988,
    127.78568678493694,
    153.7803267707529,
    182.65041240057477,
    215.17984689248618,
    252.29094480384447,
    293.21434943005505],
   ["Imported Bioenergy", 0.0, 0.0, 0.0, 0.0, 0.0, 0.0, 0.0, 0.0, 0.0],
   ["Nuclear fussion", 0.0, 0.0, 0.0, 0.0, 0.0, 0.0, 0.0, 0.0, 0.0],
   ["Geothermal",
    86.71217625,
    126.06055875000001,
    169.05230999999998,
    212.04406124999997,
    255.0358125,
    298.02756374999996,
    341.019315,
    384.01106624999994,
    421.90210125],
   ["Agriculture",
    63.31913349999999,
    81.95849317687501,
    103.97091774777988,
    127.66676722893695,
    153.6238536707529,
    182.45638575657478,
    214.94826670448617,
    252.02181107184447,
    292.90766215405506],
   ["Hydro",
    19.3842558,
    21.814190999999997,
    24.6307068,
    27.447222599999996,
    30.263738399999998,
    33.0802542,
    35.89677,
    38.713285799999994,
    41.364124199999985],
   ["Solar", 0.0018408600000000004, 0.0, 0.0, 0.0, 0.0, 0.0, 0.0, 0.0, 0.0],
   ["Wind", 0.0034424081999999997, 0.0, 0.0, 0.0, 0.0, 0.0, 0.0, 0.0, 0.0],
   ["Wave", 0.0, 0.0, 0.0, 0.0, 0.0, 0.0, 0.0, 0.0, 0.0],
   ["Total used in Indonesia",
    42420.84273392565,
    42868.139303554744,
    54143.5751749317,
    55335.053692140544,
    67685.27305145413,
    70351.64436511388,
    84808.31357285393,
    90303.01132318846,
    110956.53064053677]],
 "test1"=>
  [["Vector",
    2010.0,
    2015.0,
    2020.0,
    2025.0,
    2030.0,
    2035.0,
    2040.0,
    2045.0,
    2050.0],
   ["Indigenous Gas",
    1013.8113436715662,
    1305.900599071626,
    1668.8392826123809,
    1967.5008649873416,
    2538.6601466318953,
    3145.2245781028923,
    4173.851612726282,
    5463.055589894368,
    7511.22531263501],
   ["Imported Gas", 0.0, 0.0, 0.0, 0.0, 0.0, 0.0, 0.0, 0.0, 0.0],
   ["Indigenous Oil",
    511.25480000000005,
    1867.5454000000002,
    3637.3155333211257,
    4936.099168336044,
    5889.281702300769,
    6588.826198058922,
    7102.224717343599,
    7479.0099557408375,
    7755.534157781512],
   ["Imported Oil",
    39943.2406585241,
    38843.83729953901,
    47615.41057184909,
    46625.767053402495,
    56464.03444924508,
    56330.03908056347,
    67072.59471084725,
    68550.68210201606,
    83541.81089242548],
   ["Indigenous Coal",
    2.2564544444444445,
    10.406537777777778,
    13.008172222222223,
    13.008172222222223,
    13.008172222222223,
    13.008172222222223,
    15.609806666666667,
    13.008172222222223,
    13.008172222222223],
   ["Imported Coal",
    763.0971954496002,
    589.6136838174892,
    883.383420022904,
    1385.765238844937,
    2280.204276251179,
    3666.5994153569573,
    5708.960574267381,
    7930.057468597888,
    11116.784681215238],
   ["Indigenous Bioenergy",
    63.32539242399999,
    82.00230564487501,
    104.05228375977988,
    127.78568678493694,
    153.7803267707529,
    182.65041240057477,
    215.17984689248618,
    252.29094480384447,
    293.21434943005505],
   ["Imported Bioenergy", 0.0, 0.0, 0.0, 0.0, 0.0, 0.0, 0.0, 0.0, 0.0],
   ["Nuclear fussion", 0.0, 0.0, 0.0, 0.0, 0.0, 0.0, 0.0, 0.0, 0.0],
   ["Geothermal",
    86.71217625,
    126.06055875000001,
    169.05230999999998,
    212.04406124999997,
    255.0358125,
    298.02756374999996,
    341.019315,
    384.01106624999994,
    421.90210125],
   ["Agriculture",
    63.31913349999999,
    81.95849317687501,
    103.97091774777988,
    127.66676722893695,
    153.6238536707529,
    182.45638575657478,
    214.94826670448617,
    252.02181107184447,
    292.90766215405506],
   ["Hydro",
    19.3842558,
    21.814190999999997,
    24.6307068,
    27.447222599999996,
    30.263738399999998,
    33.0802542,
    35.89677,
    38.713285799999994,
    41.364124199999985],
   ["Solar", 0.0018408600000000004, 0.0, 0.0, 0.0, 0.0, 0.0, 0.0, 0.0, 0.0],
   ["Wind", 0.0034424081999999997, 0.0, 0.0, 0.0, 0.0, 0.0, 0.0, 0.0, 0.0],
   ["Wave", 0.0, 0.0, 0.0, 0.0, 0.0, 0.0, 0.0, 0.0, 0.0],
   ["Total used in Indonesia",
    42420.84273392565,
    42868.139303554744,
    54143.5751749317,
    55335.053692140544,
    67685.27305145413,
    70351.64436511388,
    84808.31357285393,
    90303.01132318846,
    110956.53064053677]],
 "electricity"=>
  {"demand"=>
    [["Sector",
      2011.0,
      2015.0,
      2020.0,
      2025.0,
      2030.0,
      2035.0,
      2040.0,
      2045.0,
      2050.0],
     ["Transport",
      0.15683526486486465,
      0.2744881837803744,
      0.46260617865380504,
      39.95960544595542,
      124.63341324713949,
      286.9045262988889,
      506.211580836021,
      617.9085526469406,
      721.1037635421862],
     ["Industry",
      34.004882980726244,
      51.3531810904873,
      84.8570705502022,
      138.58657798064928,
      224.18890293166575,
      359.80897442090867,
      573.6326396628743,
      909.3290007014905,
      1434.396263817748],
     ["Domestic",
      70.22814609747732,
      80.31079828482942,
      93.59540247193893,
      107.59877650898744,
      122.28059135900213,
      137.60126626997993,
      153.5220809585914,
      170.00531279863998,
      187.01440648983504],
     ["Commerce",
      13.644294412,
      17.560478900511686,
      24.035557194155587,
      32.50167121790507,
      43.402346087228054,
      57.209136823132965,
      74.38883339910477,
      95.35193301145117,
      120.3774696057181],
     ["Total",
      118.03415875506843,
      149.4989464596088,
      202.95063639495052,
      318.64663115349725,
      514.5052536250354,
      841.5239038129106,
      1307.7551348565914,
      1792.5947991585222,
      2462.8919034554874]],
   "supply"=>
    [["Sector",
      2011.0,
      2015.0,
      2020.0,
      2025.0,
      2030.0,
      2035.0,
      2040.0,
      2045.0,
      2050.0],
     ["Conventional",
      0.107774612218,
      85.085339998392,
      85.26901231332,
      85.452667061184,
      85.63733680665601,
      85.82095640286,
      86.00455843200002,
      86.18917540615203,
      86.36964480000002],
     ["Geothermal",
      9.909963,
      14.406921,
      19.320263999999998,
      24.233606999999996,
      29.146949999999997,
      34.060292999999994,
      38.973636,
      43.88697899999999,
      48.21738299999999],
     ["Biomass",
      12.741380999999999,
      16.913997,
      21.384657000000004,
      25.855317,
      30.325977000000005,
      34.796637,
      39.267297,
      43.737956999999994,
      47.61252899999999],
     ["Hydro",
      18.461195999999997,
      20.775419999999997,
      23.457815999999998,
      26.140212,
      28.822608,
      31.505003999999996,
      34.1874,
      36.869795999999994,
      39.39440399999999],
     ["OTEC", 0.0017532000000000003, 0.0, 0.0, 0.0, 0.0, 0.0, 0.0, 0.0, 0.0],
     ["Wind", 0.003278484, 0.0, 0.0, 0.0, 0.0, 0.0, 0.0, 0.0, 0.0],
     ["PV",
      0.005960880000000001,
      0.041726160000000005,
      0.07749144000000001,
      0.11325672000000003,
      0.14902200000000002,
      0.18478728000000003,
      0.22055256000000004,
      0.25631784,
      0.29208312000000003],
     ["Nuclear power generation", 0.0, 0.0, 0.0, 0.0, 0.0, 0.0, 0.0, 0.0, 0.0],
     ["Steam coal PP as balancing",
      134.0045414881724,
      69.63012825686553,
      125.68280342635774,
      229.39723512110754,
      428.0052783243933,
      743.2337455410982,
      1212.4596750530923,
      1685.8198397521066,
      2360.8493825424407],
     ["Total",
      175.2358486643904,
      206.85353241525752,
      275.19204417967774,
      391.19229490229156,
      602.0871721310493,
      929.6014232239581,
      1411.1131190450924,
      1896.7600649982587,
      2582.7354264624405]],
   "ghg"=>
    [["Source",
      2011.0,
      2015.0,
      2020.0,
      2025.0,
      2030.0,
      2035.0,
      2040.0,
      2045.0,
      2050.0],
     ["Fuel combustion", nil, nil, nil, nil, nil, nil, nil, nil, nil],
     ["Bioenergy credit", nil, nil, nil, nil, nil, nil, nil, nil, nil],
     ["Total", 0.0, 0.0, 0.0, 0.0, 0.0, 0.0, 0.0, 0.0, 0.0]],
   "capacity"=>
    [["Sector",
      2011.0,
      2015.0,
      2020.0,
      2025.0,
      2030.0,
      2035.0,
      2040.0,
      2045.0,
      2050.0],
     ["Coal power plant",
      12.05,
      12.6,
      24.61,
      24.97,
      15.3,
      6.68,
      2.48,
      0.87,
      0.29],
     ["Gas combined-cycle power plant",
      8.81,
      8.8099,
      8.809800000000003,
      8.809700000000001,
      8.809600000000001,
      8.809500000000002,
      8.809400000000004,
      8.809300000000004,
      8.809200000000002],
     ["Gas turbine power plant",
      2.9700000000000006,
      2.9699,
      2.9697999999999998,
      2.9696999999999996,
      2.9696,
      2.969499999999999,
      2.969399999999999,
      2.9692999999999987,
      2.9691999999999985],
     ["Diesel power plant",
      2.598,
      2.528,
      2.458,
      2.3880000000000003,
      2.3180000000000005,
      2.2480000000000007,
      2.178000000000001,
      2.108000000000001,
      2.038000000000001],
     ["Geothermal",
      1.19,
      1.73,
      2.32,
      2.9099999999999997,
      3.4999999999999996,
      4.09,
      4.68,
      5.27,
      5.789999999999999],
     ["Biomass",
      1.71,
      2.27,
      2.87,
      3.47,
      4.07,
      4.67,
      5.27,
      5.869999999999999,
      6.389999999999999],
     ["Hydro",
      3.51,
      3.9499999999999997,
      4.46,
      4.97,
      5.4799999999999995,
      5.989999999999999,
      6.499999999999999,
      7.009999999999999,
      7.489999999999998],
     ["OTEC", 0.001, 0.0, 0.0, 0.0, 0.0, 0.0, 0.0, 0.0, 0.0],
     ["Wind", 0.00187, 0.0, 0.0, 0.0, 0.0, 0.0, 0.0, 0.0, 0.0],
     ["PV", 0.0, 0.0, 0.0, 0.0, 0.0, 0.0, 0.0, 0.0, 0.0],
     ["Nuclear power generation", 0.0, 0.0, 0.0, 0.0, 0.0, 0.0, 0.0, 0.0, 0.0],
     ["Steam coal PP as balancing",
      61.80138952336405,
      32.11263313299094,
      57.96349739106639,
      105.30563481696628,
      196.47737914176554,
      341.18415311447393,
      556.5840220525413,
      770.2822767927664,
      1078.7157646792166],
     ["Total generation",
      94.64225952336405,
      66.97043313299093,
      106.46109739106639,
      155.79303481696627,
      238.92457914176555,
      376.6411531144739,
      589.4708220525413,
      803.1888767927665,
      1112.4921646792166]]}}
