{"_id"=>"11111111111111111111111104444444404440440444404444400",
 "choices"=>
  [1.0,
   1.0,
   1.0,
   1.0,
   1.0,
   1.0,
   1.0,
   1.0,
   1.0,
   1.0,
   1.0,
   1.0,
   1.0,
   1.0,
   1.0,
   1.0,
   1.0,
   1.0,
   1.0,
   1.0,
   1.0,
   1.0,
   1.0,
   1.0,
   0.0,
   4.0,
   4.0,
   4.0,
   4.0,
   4.0,
   4.0,
   4.0,
   4.0,
   0.0,
   4.0,
   4.0,
   4.0,
   0.0,
   4.0,
   4.0,
   0.0,
   4.0,
   4.0,
   4.0,
   4.0,
   0.0,
   4.0,
   4.0,
   4.0,
   4.0,
   4.0,
   0.0,
   0.0],
 "sankey"=>
  [["From",
    "To",
    "2011",
    "2015",
    "2020",
    "2025",
    "2030",
    "2035",
    "2040",
    "2045",
    "2050"],
   ["Oil production",
    "Oil",
    43.96,
    36.540000000000006,
    26.740000000000002,
    19.6,
    14.420000000000002,
    10.64,
    7.840000000000001,
    5.74,
    4.2],
   ["Oil imports",
    "Oil",
    -0.0,
    -46.8954925867931,
    -68.95985261697334,
    -91.82979798975467,
    -123.81953291597108,
    -156.80270102077154,
    -185.28247572656986,
    -220.08644642811242,
    -264.0668112410973],
   ["Gas production",
    "Natural gas",
    70.30240153999999,
    65.17925819999999,
    36.90809024,
    19.68789116,
    12.49939684,
    9.17337708,
    6.73250774,
    4.93538416,
    3.6210698999999997],
   ["Gas imports",
    "Natural gas",
    33.586763267413694,
    6.779914064832994,
    -0.0,
    -0.0,
    -0.0,
    -0.0,
    -0.0,
    -0.0,
    -0.0],
   ["Coal production",
    "Coal",
    0.19402015859367538,
    0.20189638769465942,
    0.2121964946976211,
    0.22301875226903603,
    0.23439613833954334,
    0.248818486672399,
    0.2589207260915258,
    0.272128387312506,
    0.28601209611158884],
   ["Coal import",
    "Coal",
    -0.0,
    -0.0,
    -0.0,
    -0.0,
    -0.0,
    -0.0,
    -0.0,
    -0.0,
    -0.0],
   ["Agriculture & land-use",
    "Bioenergy production",
    1.6100000000000005,
    1.956965062500001,
    2.497638427725412,
    3.1876898750974325,
    4.0683898145547825,
    5.192410909379063,
    6.626978308564359,
    8.457890230308127,
    10.794649358591142],
   ["Wastes",
    "Bioenergy production",
    -0.0,
    -0.0,
    -0.0,
    -0.0,
    -0.0,
    -0.0,
    -0.0,
    -0.0,
    -0.0],
   ["Marine algae",
    "Bioenergy production",
    0.0,
    0.0,
    0.0,
    0.0,
    0.0,
    0.0,
    0.0,
    0.0,
    0.0],
   ["Oil",
    "Liquid",
    43.96,
    -10.35549258679309,
    -42.219852616973334,
    -72.22979798975467,
    -109.39953291597108,
    -146.16270102077152,
    -177.44247572656985,
    -214.34644642811242,
    -259.8668112410973],
   ["Natural gas",
    "Gaseous",
    103.88916480741369,
    71.95917226483299,
    36.90809024,
    19.68789116,
    12.49939684,
    9.17337708,
    6.73250774,
    4.93538416,
    3.6210698999999997],
   ["Coal",
    "Solid",
    0.19402015859367538,
    0.20189638769465942,
    0.2121964946976211,
    0.22301875226903603,
    0.23439613833954334,
    0.248818486672399,
    0.2589207260915258,
    0.272128387312506,
    0.28601209611158884],
   ["Liquid",
    "Over supply/exports",
    0.0,
    0.0,
    0.0,
    0.0,
    0.0,
    0.0,
    0.0,
    0.0,
    0.0],
   ["Gaseous",
    "Over supply/exports",
    33.586763267413694,
    6.779914064832994,
    0.0,
    0.0,
    0.0,
    0.0,
    0.0,
    0.0,
    0.0],
   ["Solid",
    "Over supply/exports",
    0.0,
    0.0,
    0.0,
    0.0,
    0.0,
    0.0,
    0.0,
    0.0,
    0.0],
   ["Liquid",
    "Thermal generation",
    0.01950317480477612,
    10.507226743110891,
    9.488608392028336,
    8.470022279882034,
    7.44957345219122,
    6.431051850092017,
    5.41256248692907,
    4.392210504745371,
    3.379470128976786],
   ["Gaseous",
    "Thermal generation",
    0.013649668666666667,
    14.8000721805503,
    15.85686903121238,
    16.91362811948409,
    17.97256905987962,
    19.029252585683572,
    20.085898349097164,
    21.14472585157352,
    22.194637661220977],
   ["Solid",
    "Thermal generation",
    35.92582257828499,
    63.666070432580305,
    117.2972162842179,
    171.47378987805826,
    205.00242939771744,
    219.09322365336504,
    224.5279312356366,
    225.38127817525202,
    226.013832474869],
   ["Pembangkit listrik tenaga nuklir",
    "Thermal generation",
    0.0,
    0.0,
    0.0,
    0.0,
    0.0,
    0.0,
    0.0,
    0.0,
    0.0],
   ["Impor listrik",
    "Electricity grid",
    0.0,
    0.0,
    0.0,
    0.0,
    0.0,
    0.0,
    0.0,
    0.0,
    0.0],
   ["Thermal generation",
    "Electricity grid",
    10.463871402598278,
    25.843185709234046,
    41.465925891085114,
    57.47947892185588,
    67.2977506110624,
    71.43310681022011,
    73.03777835184863,
    73.6110435258944,
    73.81235809114355],
   ["Thermal generation",
    "Losses",
    25.49510401915816,
    63.130183647007456,
    101.1767678163735,
    139.3779613555685,
    163.12682129872587,
    173.1204212789206,
    176.9886137198142,
    177.3071710056765,
    177.77558217392317],
   ["Pembangkit panas bumi",
    "Electricity grid",
    0.8657084522785896,
    0.8657084522785896,
    1.6820092261392945,
    1.6820092261392945,
    2.498309999999999,
    2.498309999999999,
    3.3146107738607036,
    3.3146107738607036,
    4.130911547721409],
   ["Pembangkit listrik biomasa",
    "Electricity grid",
    1.0955615649183146,
    1.4543419604471193,
    1.8387495270851246,
    2.2231570937231293,
    2.607564660361135,
    2.9919722269991396,
    3.3763797936371445,
    3.76078736027515,
    4.093940584694754],
   ["Pembangkit listrik hidro",
    "Electricity grid",
    1.783651109200344,
    1.9925879277730005,
    2.2865466552020632,
    2.6216596044711946,
    3.0024492175408417,
    3.4338901805674973,
    3.9214094239036967,
    4.470886122098022,
    5.087747205503009],
   ["Pembangkit listrik tenaga laut (OTEC)",
    "Electricity grid",
    1.5074806534823732e-06,
    0.0,
    0.11487002579535684,
    0.0,
    0.11487002579535684,
    0.0,
    0.11487002579535684,
    0.0,
    0.11502077386070507],
   ["Pembangkit listrik tenaga bayu",
    "Electricity grid",
    0.0001401957007738607,
    0.00016883783319002579,
    0.0005185733447979363,
    0.0013914046431642304,
    0.003729507136715391,
    0.00999158177128117,
    0.026726124505588995,
    0.07119981874462597,
    0.18763159449699052],
   ["Pembangkit listrik tenaga matahari",
    "Electricity grid",
    0.000148637592433362,
    0.0003523736027515047,
    0.0010379004299226138,
    0.003053477437661221,
    0.008982323473774721,
    0.026398548959587275,
    0.0773850872398968,
    0.22511419645743766,
    0.6406805590885639],
   ["Electricity grid",
    "Over generation/exports",
    0.0,
    11.150870685581822,
    24.63967064901414,
    36.73923027445916,
    44.45559397420082,
    45.81388530034957,
    44.37623890166026,
    41.09834846941628,
    39.22421468189704],
   ["Electricity grid", "Losses", 0.0, 0.0, 0.0, 0.0, 0.0, 0.0, 0.0, 0.0, 0.0],
   ["Electricity grid",
    "Rumah tangga - Penerangan",
    0.9184338228111901,
    0.9346037436386424,
    0.9475903178048847,
    0.9514181453897079,
    0.7837171499052,
    0.5729243124465001,
    0.611237356974318,
    0.6400714837694872,
    0.6556066429388001],
   ["Liquid",
    "Rumah tangga - Penerangan",
    0.14492978019051,
    0.1234971853826577,
    0.0984313937324654,
    0.0754972290546923,
    0.0455578598664,
    0.022832284576500002,
    0.020263104873415386,
    0.012585975511846164,
    0.0],
   ["Gaseous",
    "Rumah tangga - Penerangan",
    0.0,
    0.0,
    0.0,
    0.0,
    0.0,
    0.0,
    0.0,
    0.0,
    0.0],
   ["Solid",
    "Rumah tangga - Penerangan",
    0.0,
    0.0,
    0.0,
    0.0,
    0.0,
    0.0,
    0.0,
    0.0,
    0.0],
   ["Electricity grid",
    "Rumah tangga - Pendinginan",
    0.6716658353035174,
    0.7191013986076688,
    0.7811370718355565,
    0.8462776868546,
    0.778665783042,
    0.6820007198760001,
    0.681593439153481,
    0.6712136425781665,
    0.6487828682737334],
   ["Liquid",
    "Rumah tangga - Pendinginan",
    0.0,
    0.0,
    0.0,
    0.0,
    0.0,
    0.0,
    0.0,
    0.0,
    0.0],
   ["Gaseous",
    "Rumah tangga - Pendinginan",
    0.0,
    0.0,
    0.0,
    0.0,
    0.0,
    0.0,
    0.0,
    0.0,
    0.0],
   ["Solid",
    "Rumah tangga - Pendinginan",
    0.0,
    0.0,
    0.0,
    0.0,
    0.0,
    0.0,
    0.0,
    0.0,
    0.0],
   ["Electricity grid",
    "Rumah tangga - Memasak",
    3.22364369271,
    3.7873221878437384,
    4.483919736733327,
    5.1660722989996435,
    5.277226215139739,
    5.160855642706615,
    5.600022026503017,
    5.989391388168159,
    6.317820421569196],
   ["Liquid",
    "Rumah tangga - Memasak",
    6.97951312144002,
    6.3807989041048385,
    5.623241819343115,
    4.859062454048331,
    3.706526014378493,
    2.6600733264185763,
    2.0440257308751155,
    1.44635454659584,
    0.8743212513741299],
   ["Gaseous",
    "Rumah tangga - Memasak",
    18.44472283736334,
    20.093427492034266,
    22.088646889224037,
    23.991628104345374,
    23.34718095748877,
    21.914540543154807,
    22.949971320177383,
    23.78855504172,
    24.39696043490265],
   ["Solid",
    "Rumah tangga - Memasak",
    10.735382550170039,
    9.795968273860153,
    8.64764643488452,
    7.535275904847649,
    5.8566691148210035,
    4.3550468729250005,
    3.5686282718211846,
    2.8433117122984,
    2.1858031284353245],
   ["Electricity grid",
    "Rumah tangga - Lainnya",
    2.2927326087695405,
    2.4044522505597925,
    2.5425386559809997,
    2.6780658907265846,
    2.6027149793148,
    2.4826720206015,
    2.57527531270118,
    2.6598235863051283,
    2.7347539381617],
   ["Liquid",
    "Rumah tangga - Lainnya",
    0.3617955096726601,
    0.31772083875360774,
    0.2641074088923,
    0.21251071882061534,
    0.15129709017360002,
    0.09893989983150002,
    0.06238409602232052,
    0.02927404674607182,
    0.0],
   ["Gaseous",
    "Rumah tangga - Lainnya",
    0.0,
    0.0,
    0.0,
    0.0,
    0.0,
    0.0,
    0.0,
    0.0,
    0.0],
   ["Solid",
    "Rumah tangga - Lainnya",
    0.0,
    0.0,
    0.0,
    0.0,
    0.0,
    0.0,
    0.0,
    0.0,
    0.0],
   ["Electricity grid",
    "Komersial - Penerangan",
    0.7460296474634568,
    0.925647880092237,
    1.1874207574187645,
    1.4852522171633156,
    1.8021381441224542,
    2.104071716287168,
    2.3316863388752087,
    2.389211845900824,
    2.130298882888914],
   ["Liquid",
    "Komersial - Penerangan",
    0.0,
    0.0,
    0.0,
    0.0,
    0.0,
    0.0,
    0.0,
    0.0,
    0.0],
   ["Gaseous",
    "Komersial - Penerangan",
    0.0,
    0.0,
    0.0,
    0.0,
    0.0,
    0.0,
    0.0,
    0.0,
    0.0],
   ["Solid",
    "Komersial - Penerangan",
    0.0,
    0.0,
    0.0,
    0.0,
    0.0,
    0.0,
    0.0,
    0.0,
    0.0],
   ["Electricity grid",
    "Komersial - Pendinginan",
    1.86507411865864,
    2.3640217158767376,
    3.130900422800391,
    4.0750393517135235,
    5.202935849124777,
    6.500510313412765,
    7.9199574273386055,
    9.361836489316754,
    10.651494414444597],
   ["Liquid",
    "Komersial - Pendinginan",
    0.0,
    0.0,
    0.0,
    0.0,
    0.0,
    0.0,
    0.0,
    0.0,
    0.0],
   ["Gaseous",
    "Komersial - Pendinginan",
    0.0,
    0.0,
    0.0,
    0.0,
    0.0,
    0.0,
    0.0,
    0.0,
    0.0],
   ["Solid",
    "Komersial - Pendinginan",
    0.0,
    0.0,
    0.0,
    0.0,
    0.0,
    0.0,
    0.0,
    0.0,
    0.0],
   ["Electricity grid",
    "Komersial - Memasak",
    0.009331840000000001,
    0.016889668622853543,
    0.031051660280112116,
    0.05228093191166365,
    0.0828639104828314,
    0.12532061447857124,
    0.1821372434959394,
    0.2552861480353458,
    0.3454488748372069],
   ["Liquid",
    "Komersial - Memasak",
    0.466592,
    0.5558236401339075,
    0.6769261941064442,
    0.8034753746424098,
    0.925914130177725,
    1.0304139412682523,
    1.0986988559271185,
    1.1086712714677875,
    1.0363466245116206],
   ["Gaseous",
    "Komersial - Memasak",
    0.14930944000000002,
    0.2561087932992701,
    0.4539752732952391,
    0.7478924891363252,
    1.1683811378079227,
    1.7489187976120606,
    2.5223070526711866,
    3.5141961749551314,
    4.732649585269734],
   ["Solid",
    "Komersial - Memasak",
    0.30795071999999996,
    0.368808945746311,
    0.45273320688403457,
    0.5426210406831617,
    0.6330082205144989,
    0.7157199537998402,
    0.7796649100616504,
    0.8110805617580122,
    0.794532412125575],
   ["Electricity grid",
    "Komersial - Lainnya",
    1.1612552,
    1.5064451106953485,
    2.0617344347883306,
    2.7876689534925236,
    3.722204339199075,
    4.905658455712054,
    6.377882804492933,
    8.173823061556575,
    10.317047070816177],
   ["Liquid",
    "Komersial - Lainnya",
    0.0,
    0.0,
    0.0,
    0.0,
    0.0,
    0.0,
    0.0,
    0.0,
    0.0],
   ["Gaseous",
    "Komersial - Lainnya",
    0.0,
    0.0,
    0.0,
    0.0,
    0.0,
    0.0,
    0.0,
    0.0,
    0.0],
   ["Solid",
    "Komersial - Lainnya",
    0.0,
    0.0,
    0.0,
    0.0,
    0.0,
    0.0,
    0.0,
    0.0,
    0.0],
   ["Electricity grid",
    "Industri",
    2.923893635488069,
    4.496050784563883,
    5.350382944698335,
    5.658747947787998,
    5.818136130310003,
    5.859615726761044,
    5.808972947045333,
    5.687528837444699,
    5.512836563514546],
   ["Liquid",
    "Industri",
    10.104154328807237,
    12.7359439637242,
    12.491995863637701,
    11.335013721333215,
    10.276557135514192,
    9.309553564641083,
    8.427219401084098,
    7.623091253399033,
    6.89104570439318],
   ["Gaseous",
    "Industri",
    20.909757251480038,
    26.56332414721254,
    26.295016692749684,
    24.0652049365857,
    21.9938965193768,
    20.074923582577235,
    18.301344080211198,
    16.665713089940215,
    15.160300549664996],
   ["Solid",
    "Industri",
    16.41762746422469,
    18.114540366637353,
    14.774995701057447,
    10.848487568004165,
    7.646844540504951,
    5.053201344320669,
    2.968235961439163,
    1.3076499612492347,
    0.0],
   ["Electricity grid",
    "Transportasi barang",
    0.0,
    0.0,
    0.0,
    0.0,
    0.0,
    0.0,
    0.0,
    0.0,
    0.0],
   ["Liquid",
    "Transportasi barang",
    13.098860400939314,
    16.899924460610453,
    23.192447311974142,
    31.752137648744664,
    46.01278134774661,
    66.48880593335294,
    84.27882894952387,
    106.46018606232327,
    133.95462293943018],
   ["Gaseous",
    "Transportasi barang",
    0.0,
    0.011507618833253989,
    0.03911260052966998,
    0.09169503347862527,
    0.2009909526552824,
    0.40926343128766784,
    0.7085036295272862,
    1.1881427115561496,
    1.9464663733438383],
   ["Solid",
    "Transportasi barang",
    0.0,
    0.0,
    0.0,
    0.0,
    0.0,
    0.0,
    0.0,
    0.0,
    0.0],
   ["Electricity grid",
    "Transportasi penumpang perkotaan",
    0.013485405405405387,
    0.023601735492723507,
    0.03977697150935556,
    0.9350344596410046,
    1.9870116417169508,
    2.800958136536106,
    3.5113797757309246,
    4.117618312923724,
    4.617773910135106],
   ["Liquid",
    "Transportasi penumpang perkotaan",
    21.889606396143897,
    23.297488930093696,
    26.065207938156117,
    29.016669391854887,
    34.213193444780636,
    31.78051347420985,
    30.631994032626388,
    30.325919150378493,
    30.26025522891618],
   ["Gaseous",
    "Transportasi penumpang perkotaan",
    0.12661952311616312,
    0.3167260913669953,
    0.7745534718116204,
    1.652599131710989,
    3.2727129433586795,
    6.07874069397147,
    10.959660339557816,
    19.356761573916646,
    33.664931220306144],
   ["Solid",
    "Transportasi penumpang perkotaan",
    0.0,
    0.0,
    0.0,
    0.0,
    0.0,
    0.0,
    0.0,
    0.0,
    0.0],
   ["Electricity grid",
    "Transportasi penumpang antar-kota",
    0.0,
    0.0,
    0.0,
    0.0,
    0.0,
    0.0,
    0.0,
    0.0,
    0.0],
   ["Liquid",
    "Transportasi penumpang antar-kota",
    0.8689564763760673,
    0.9644763583515037,
    1.0970116902344749,
    1.2404408604341062,
    1.4104513555368854,
    1.6023125035739,
    1.819516800077912,
    2.065057013949605,
    2.3544627060072694],
   ["Gaseous",
    "Transportasi penumpang antar-kota",
    0.0,
    0.004830237733220608,
    0.01270895403582252,
    0.023093269162573454,
    0.03663742280644565,
    0.05409309461468381,
    0.07639292414961008,
    0.1046922708690265,
    0.14036921412621503],
   ["Solid",
    "Transportasi penumpang antar-kota",
    0.0,
    0.0,
    0.0,
    0.0,
    0.0,
    0.0,
    0.0,
    0.0,
    0.0],
   ["Electricity grid",
    "Transportasi udara",
    0.0,
    0.0,
    0.0,
    0.0,
    0.0,
    0.0,
    0.0,
    0.0,
    0.0],
   ["Liquid",
    "Transportasi udara",
    2.9394400000000003,
    4.886830710959442,
    8.507684959977915,
    14.820421066957863,
    23.59105473978353,
    37.54803812925649,
    47.35819923031777,
    59.71631229047182,
    75.29164000684254],
   ["Gaseous",
    "Transportasi udara",
    0.0,
    0.0,
    0.0,
    0.0,
    0.0,
    0.0,
    0.0,
    0.0,
    0.0],
   ["Solid",
    "Transportasi udara",
    0.0,
    0.0,
    0.0,
    0.0,
    0.0,
    0.0,
    0.0,
    0.0,
    0.0],
   ["Electricity grid",
    "Pertanian, kontruksi & pertambangan",
    0.0,
    0.0,
    0.0,
    0.0,
    0.0,
    0.0,
    0.0,
    0.0,
    0.0],
   ["Liquid",
    "Pertanian, kontruksi & pertambangan",
    3.47438,
    3.9664851631016846,
    4.680586114214756,
    5.523017005414264,
    6.516794354678898,
    6.845385366446855,
    7.883193142486441,
    9.077937348677658,
    10.45328244716259],
   ["Gaseous",
    "Pertanian, kontruksi & pertambangan",
    0.0,
    0.0,
    0.0,
    0.0,
    0.0,
    0.0,
    0.0,
    0.0,
    0.0],
   ["Solid",
    "Pertanian, kontruksi & pertambangan",
    0.0,
    0.0,
    0.0,
    0.0,
    0.0,
    0.0,
    0.0,
    0.0,
    0.0],
   ["Gas", "Losses", 0.0, 0.0, 0.0, 0.0, 0.0, 0.0, 0.0, 0.0, 0.0]],
 "ghg"=>
  [["Mt CO2e",
    2010.0,
    2015.0,
    2020.0,
    2025.0,
    2030.0,
    2035.0,
    2040.0,
    2045.0,
    2050.0],
   ["Fuel Combustion",
    :name,
    :name,
    :name,
    :name,
    :name,
    :name,
    :name,
    :name,
    :name],
   [:name, :name, :name, :name, :name, :name, :name, :name, :name, :name],
   [:name, :name, :name, :name, :name, :name, :name, :name, :name, :name],
   [:name, :name, :name, :name, :name, :name, :name, :name, :name, :name],
   [:name, :name, :name, :name, :name, :name, :name, :name, :name, :name],
   [:name, :name, :name, :name, :name, :name, :name, :name, :name, :name],
   [:name, :name, :name, :name, :name, :name, :name, :name, :name, :name],
   [:name, :name, :name, :name, :name, :name, :name, :name, :name, :name],
   [:name, :name, :name, :name, :name, :name, :name, :name, :name, :name],
   [:name, :name, :name, :name, :name, :name, :name, :name, :name, :name],
   ["Total", :name, :name, :name, :name, :name, :name, :name, :name, :name],
   ["Targets", 603.6, 556.4, 508.8, 390.0, nil, nil, nil, nil, 159.917234]],
 "ghg_reduction_from_1990"=>:name,
 "final_energy_demand"=>
  [["Vector",
    "2011",
    2015.0,
    2020.0,
    2025.0,
    2030.0,
    2035.0,
    2040.0,
    2045.0,
    2050.0],
   ["Transport",
    38.93696820198085,
    46.40538614344129,
    59.728503898229114,
    79.53209086198471,
    110.72483384838502,
    146.76272539680312,
    179.3444756815116,
    223.33468938638873,
    282.2305215991075],
   ["Domestic",
    43.77281975843081,
    44.55689227478537,
    45.47725972843121,
    46.3158084330872,
    42.54955516413001,
    37.949885622536996,
    38.113400659101416,
    38.0805814236931,
    37.814048685655536],
   ["Commerce",
    4.705542966122097,
    5.993745754466665,
    7.994741949573317,
    10.494230358742923,
    13.537445731429285,
    17.130613792570713,
    21.212334632862643,
    25.61410555299043,
    30.007817864893827],
   ["Industri",
    51.57550806800003,
    63.39286852172315,
    60.8051285771685,
    54.32311998811056,
    48.818504065785554,
    44.23215928346531,
    40.527768123375594,
    37.693463703775166,
    35.74448468372616],
   ["Pertanian, Kontruksi & Pertambangan",
    3.47438,
    3.9664851631016846,
    4.680586114214756,
    5.523017005414263,
    6.516794354678899,
    6.845385366446855,
    7.883193142486441,
    9.077937348677658,
    10.45328244716259],
   ["Total",
    142.46521899453379,
    164.31537785751814,
    178.68622026761687,
    196.18826664733965,
    222.14713316440876,
    252.920769461823,
    287.0811722393377,
    333.8007774155251,
    396.2501552805456]],
 "primary_energy_supply"=>
  [["Vector",
    2010.0,
    2015.0,
    2020.0,
    2025.0,
    2030.0,
    2035.0,
    2040.0,
    2045.0,
    2050.0],
   ["Indigenous Gas",
    36.7156382725863,
    58.399344135167,
    36.90809024,
    19.68789116,
    12.49939684,
    9.17337708,
    6.73250774,
    4.93538416,
    3.6210698999999997],
   ["Imported Gas",
    0.0,
    0.0,
    23.848100145343338,
    41.95560529472872,
    48.65840654446356,
    52.12531814813977,
    59.5962350639073,
    70.23139149489344,
    86.70219668831987],
   ["Indigenous Oil",
    43.96,
    36.540000000000006,
    26.740000000000002,
    19.6,
    14.420000000000002,
    10.64,
    7.840000000000001,
    5.74,
    4.2],
   ["Imported Oil",
    19.282940387774488,
    46.8954925867931,
    68.95985261697334,
    91.82979798975467,
    123.81953291597108,
    156.80270102077154,
    185.28247572656986,
    220.08644642811242,
    264.0668112410973],
   ["Indigenous Coal",
    0.19402015859367538,
    0.20189638769465942,
    0.2121964946976211,
    0.22301875226903603,
    0.23439613833954334,
    0.248818486672399,
    0.2589207260915258,
    0.272128387312506,
    0.28601209611158884],
   ["Imported Coal",
    49.90416840161245,
    74.76438488456557,
    119.39246662595713,
    164.05436547028998,
    188.27024594943086,
    193.87786255501905,
    192.1094278762198,
    186.2995855005845,
    180.75605559352377],
   ["Indigenous Bioenergy",
    5.444621546686157,
    7.047531916347808,
    8.934351567974767,
    10.97194585443793,
    13.204297565466218,
    15.692032180283618,
    18.525561927896256,
    21.857015897551463,
    25.796155992065774],
   ["Imported Bioenergy", 0.0, 0.0, 0.0, 0.0, 0.0, 0.0, 0.0, 0.0, 0.0],
   ["Fusi nuklir", 0.0, 0.0, 0.0, 0.0, 0.0, 0.0, 0.0, 0.0, 0.0],
   ["Panas bumi",
    7.574948957437659,
    7.574948957437659,
    14.717580728718827,
    14.717580728718827,
    21.860212499999996,
    21.860212499999996,
    29.002844271281155,
    29.002844271281155,
    36.14547604256233],
   ["Pertanian",
    5.444465477214102,
    7.047161924064919,
    8.933261772523348,
    10.968739703128385,
    13.194866125818756,
    15.664313703876052,
    18.444307586294364,
    21.620645991271154,
    25.12344140502278],
   ["Hidro",
    1.8728336646603612,
    2.0922173241616506,
    2.4008739879621666,
    2.7527425846947544,
    3.1525716784178837,
    3.6055846895958723,
    4.117479895098882,
    4.694430428202923,
    5.342134565778159],
   ["Solar",
    1.5828546861564917e-06,
    0.0,
    0.12061352708512468,
    0.0,
    0.12061352708512468,
    0.0,
    0.12061352708512468,
    0.0,
    0.12077181255374032],
   ["Bayu",
    0.00014720548581255373,
    0.00017727972484952707,
    0.0005445020120378332,
    0.001460974875322442,
    0.003915982493551161,
    0.010491160859845229,
    0.028062430730868445,
    0.07475980968185728,
    0.19701317422184003],
   ["Gelombang laut", 0.0, 0.0, 0.0, 0.0, 0.0, 0.0, 0.0, 0.0, 0.0],
   ["Total used in Indonesia",
    166.03895267319731,
    222.36512278631045,
    277.59499978771015,
    329.0551785353101,
    381.787995667467,
    418.2225125209925,
    459.23789028322057,
    502.0956379082039,
    568.0094824243372]],
 "dummy"=>0,
 "dummy1"=>
  [["Code",
    "Vector",
    2010.0,
    2015.0,
    2020.0,
    2025.0,
    2030.0,
    2035.0,
    2040.0,
    2045.0,
    2050.0],
   [nil,
    "Production",
    204.9929035191338,
    278.94911104145433,
    367.5657329129233,
    443.1590713743506,
    556.68676879166,
    670.3186438449352,
    788.7288431749455,
    906.9433178636912,
    1070.8047156971106],
   [nil,
    "Demand",
    142.46521899453379,
    177.16870505511812,
    210.0976012582557,
    247.94218557870036,
    301.76891002632783,
    364.0115004392786,
    430.6007170952204,
    518.590143547141,
    635.0704573740459],
   [nil,
    "Selisih",
    62.527684524600005,
    101.7804059863362,
    157.4681316546676,
    195.21688579565026,
    254.9178587653322,
    306.3071434056566,
    358.1281260797251,
    388.35317431655017,
    435.73425832306475]],
 "dummy3"=>
  [["Vector",
    2010.0,
    2015.0,
    2020.0,
    2025.0,
    2030.0,
    2035.0,
    2040.0,
    2045.0,
    2050.0],
   ["Production",
    204.9929035191338,
    278.94911104145433,
    367.5657329129233,
    443.1590713743506,
    556.68676879166,
    670.3186438449352,
    788.7288431749455,
    906.9433178636912,
    1070.8047156971106],
   ["Demand",
    142.46521899453379,
    177.16870505511812,
    210.0976012582557,
    247.94218557870036,
    301.76891002632783,
    364.0115004392786,
    430.6007170952204,
    518.590143547141,
    635.0704573740459],
   ["Selisih",
    62.527684524600005,
    101.7804059863362,
    157.4681316546676,
    195.21688579565026,
    254.9178587653322,
    306.3071434056566,
    358.1281260797251,
    388.35317431655017,
    435.73425832306475]],
 "electricity"=>
  {"demand"=>
    [["Sector",
      2011.0,
      2015.0,
      2020.0,
      2025.0,
      2030.0,
      2035.0,
      2040.0,
      2045.0,
      2050.0],
     ["Transport",
      0.013485405405405387,
      0.023601735492723507,
      0.03977697150935556,
      0.9350344596410046,
      1.9870116417169508,
      2.800958136536106,
      3.5113797757309246,
      4.117618312923724,
      4.617773910135106],
     ["Industry",
      2.923893635488069,
      4.496050784563883,
      5.350382944698335,
      5.658747947787998,
      5.818136130310003,
      5.859615726761044,
      5.808972947045333,
      5.687528837444699,
      5.512836563514546],
     ["Domestic",
      7.106475959594248,
      7.845479580649842,
      8.755185782354769,
      9.641834021970537,
      9.442324127401738,
      8.898452695630615,
      9.468128135331996,
      9.96050010082094,
      10.356963870943428],
     ["Commerce",
      3.781690806122097,
      4.813004375287177,
      6.411107275287598,
      8.400241454281026,
      10.810142242929137,
      13.635561099890559,
      16.811663814202685,
      20.1801575448095,
      23.444289242986894],
     ["Total",
      13.825545806609817,
      17.178136475993625,
      20.556452973850057,
      24.635857883680565,
      28.057614142357828,
      31.194587658818325,
      35.60014467231093,
      39.94580479599887,
      43.93186358757997]],
   "supply"=>
    [["Sector",
      2011.0,
      2015.0,
      2020.0,
      2025.0,
      2030.0,
      2035.0,
      2040.0,
      2045.0,
      2050.0],
     ["Conventional",
      10.463871402598278,
      25.843185709234046,
      41.465925891085114,
      57.47947892185588,
      67.2977506110624,
      71.43310681022011,
      73.03777835184863,
      73.6110435258944,
      73.81235809114355],
     ["Pembangkit panas bumi",
      0.8657084522785896,
      0.8657084522785896,
      1.6820092261392945,
      1.6820092261392945,
      2.498309999999999,
      2.498309999999999,
      3.3146107738607036,
      3.3146107738607036,
      4.130911547721409],
     ["Pembangkit listrik biomasa",
      1.0955615649183146,
      1.4543419604471193,
      1.8387495270851246,
      2.2231570937231293,
      2.607564660361135,
      2.9919722269991396,
      3.3763797936371445,
      3.76078736027515,
      4.093940584694754],
     ["Pembangkit listrik hidro",
      1.783651109200344,
      1.9925879277730005,
      2.2865466552020632,
      2.6216596044711946,
      3.0024492175408417,
      3.4338901805674973,
      3.9214094239036967,
      4.470886122098022,
      5.087747205503009],
     ["Pembangkit listrik tenaga laut (OTEC)",
      1.5074806534823732e-06,
      0.0,
      0.11487002579535684,
      0.0,
      0.11487002579535684,
      0.0,
      0.11487002579535684,
      0.0,
      0.11502077386070507],
     ["Pembangkit listrik tenaga bayu",
      0.0001401957007738607,
      0.00016883783319002579,
      0.0005185733447979363,
      0.0013914046431642304,
      0.003729507136715391,
      0.00999158177128117,
      0.026726124505588995,
      0.07119981874462597,
      0.18763159449699052],
     ["Pembangkit listrik tenaga matahari",
      0.000148637592433362,
      0.0003523736027515047,
      0.0010379004299226138,
      0.003053477437661221,
      0.008982323473774721,
      0.026398548959587275,
      0.0773850872398968,
      0.22511419645743766,
      0.6406805590885639],
     ["Pembangkit listrik tenaga nuklir",
      0.0,
      0.0,
      0.0,
      0.0,
      0.0,
      0.0,
      0.0,
      0.0,
      0.0],
     ["Penyeimbang listrik", 0.0, 0.0, 0.0, 0.0, 0.0, 0.0, 0.0, 0.0, 0.0],
     ["Total",
      14.209082869769388,
      30.1563452611687,
      47.389657799081675,
      64.01074972827031,
      75.53365634537022,
      80.39366934851762,
      83.86915958079102,
      85.45364179733035,
      88.06829035650898]],
   "ghg"=>
    [["Source",
      2011.0,
      2015.0,
      2020.0,
      2025.0,
      2030.0,
      2035.0,
      2040.0,
      2045.0,
      2050.0],
     ["Fuel combustion", nil, nil, nil, nil, nil, nil, nil, nil, nil],
     ["Bioenergy credit", nil, nil, nil, nil, nil, nil, nil, nil, nil],
     ["Total", 0.0, 0.0, 0.0, 0.0, 0.0, 0.0, 0.0, 0.0, 0.0]],
   "capacity"=>
    [["Sector",
      2011.0,
      2015.0,
      2020.0,
      2025.0,
      2030.0,
      2035.0,
      2040.0,
      2045.0,
      2050.0],
     ["Pembangkit listrik batubara",
      16.318,
      12.6,
      24.61,
      24.97,
      15.3,
      6.68,
      2.48,
      0.87,
      0.29],
     ["Pembangkit listrik gas combined-cycle",
      8.81,
      8.8099,
      8.809800000000003,
      8.809700000000001,
      8.809600000000001,
      8.809500000000002,
      8.809400000000004,
      8.809300000000004,
      8.809200000000002],
     ["Pembangkit listrik gas turbin",
      2.9700000000000006,
      2.9699,
      2.9697999999999998,
      2.9696999999999996,
      2.9696,
      2.969499999999999,
      2.969399999999999,
      2.9692999999999987,
      2.9691999999999985],
     ["Pembangkit listrik diesel",
      2.598,
      2.528,
      2.458,
      2.3880000000000003,
      2.3180000000000005,
      2.2480000000000007,
      2.178000000000001,
      2.108000000000001,
      2.038000000000001],
     ["Pembangkit panas bumi",
      1.209,
      1.209,
      2.349,
      2.349,
      3.489,
      3.489,
      4.629,
      4.629,
      5.768999999999999],
     ["Pembangkit listrik biomasa",
      1.71,
      2.27,
      2.87,
      3.47,
      4.07,
      4.67,
      5.27,
      5.869999999999999,
      6.389999999999999],
     ["Pembangkit listrik hidro",
      3.944,
      4.406,
      5.056,
      5.797,
      6.638999999999999,
      7.592999999999999,
      8.671,
      9.886,
      11.25],
     ["Pembangkit listrik tenaga laut (OTEC)",
      1.0e-05,
      0.0,
      0.762,
      0.0,
      0.762,
      0.0,
      0.762,
      0.0,
      0.763],
     ["Pembangkit listrik tenaga bayu",
      0.00093,
      0.00112,
      0.00344,
      0.00923,
      0.02474,
      0.06628,
      0.17729,
      0.47231,
      1.24467],
     ["Pembangkit listrik tenaga matahari",
      0.0,
      0.0,
      0.0,
      0.0,
      0.0,
      0.0,
      0.0,
      0.0,
      0.0],
     ["Pembangkit listrik tenaga nuklir",
      0.0,
      0.0,
      0.0,
      0.0,
      0.0,
      0.0,
      0.0,
      0.0,
      0.0],
     ["Penyeimbang listrik", 0.0, 0.0, 0.0, 0.0, 0.0, 0.0, 0.0, 0.0, 0.0],
     ["Total generation",
      37.55994,
      34.79392,
      49.88804,
      50.76262999999999,
      44.38194000000001,
      36.525279999999995,
      35.94609,
      35.61391,
      39.52307]]},
 "heating"=>
  [["2050 Split of heating technology", "Residential", "Commercial"],
   [:ref, :ref, :ref],
   [:ref, :ref, :ref],
   [:ref, :ref, :ref],
   [:ref, :ref, :ref],
   [:ref, :ref, :ref],
   [:ref, :ref, :ref],
   [:ref, :ref, :ref],
   [:ref, :ref, :ref],
   [:ref, :ref, :ref],
   [:ref, :ref, :ref],
   [:ref, :ref, :ref],
   [:ref, :ref, :ref],
   [:ref, :ref, :ref],
   [:ref, :ref, :ref]],
 "costs"=>
  [["name",
    "low",
    "point",
    "high",
    "range",
    "finance_low",
    "finance_point",
    "finance_high",
    "finance_range"],
   ["Conventional thermal plant",
    :name,
    :name,
    :name,
    :name,
    0.0,
    :name,
    :name,
    :name],
   ["Combustion + CCS", :name, :name, :name, :name, 0.0, :name, :name, :name],
   ["Nuclear power", :name, :name, :name, :name, 0.0, :name, :name, :name],
   ["Onshore wind", :name, :name, :name, :name, 0.0, :name, :name, :name],
   ["Offshore wind", :name, :name, :name, :name, 0.0, :name, :name, :name],
   ["Hydroelectric", :name, :name, :name, :name, 0.0, :name, :name, :name],
   ["Wave and Tidal", :name, :name, :name, :name, 0.0, :name, :name, :name],
   ["Geothermal", :name, :name, :name, :name, 0.0, :name, :name, :name],
   ["Distributed solar PV",
    :name,
    :name,
    :name,
    :name,
    0.0,
    :name,
    :name,
    :name],
   ["Distributed solar thermal",
    :name,
    :name,
    :name,
    :name,
    0.0,
    :name,
    :name,
    :name],
   ["Micro wind", :name, :name, :name, :name, 0.0, :name, :name, :name],
   ["Biomatter to fuel conversion",
    :name,
    :name,
    :name,
    :name,
    0.0,
    :name,
    :name,
    :name],
   ["Bioenergy imports", :name, :name, :name, :name, 0.0, :name, :name, :name],
   ["Agriculture and land use",
    :name,
    :name,
    :name,
    :name,
    0.0,
    :name,
    :name,
    :name],
   ["Energy from waste", :name, :name, :name, :name, 0.0, :name, :name, :name],
   ["Waste arising", :name, :name, :name, :name, 0.0, :name, :name, :name],
   ["Marine algae", :name, :name, :name, :name, 0.0, :name, :name, :name],
   ["Electricity imports",
    :name,
    :name,
    :name,
    :name,
    0.0,
    :name,
    :name,
    :name],
   ["Electricity Exports",
    :name,
    :name,
    :name,
    :name,
    0.0,
    :name,
    :name,
    :name],
   ["Electricity grid distribution",
    :name,
    :name,
    :name,
    :name,
    0.0,
    :name,
    :name,
    :name],
   ["Storage, demand shifting, backup",
    :name,
    :name,
    :name,
    :name,
    0.0,
    :name,
    :name,
    :name],
   ["H2 Production", :name, :name, :name, :name, 0.0, :name, :name, :name],
   ["Domestic heating", :name, :name, :name, :name, 0.0, :name, :name, :name],
   ["Domestic insulation",
    :name,
    :name,
    :name,
    :name,
    0.0,
    :name,
    :name,
    :name],
   ["Commercial heating and cooling",
    :name,
    :name,
    :name,
    :name,
    0.0,
    :name,
    :name,
    :name],
   ["Domestic lighting, appliances, and cooking",
    :name,
    :name,
    :name,
    :name,
    0.0,
    :name,
    :name,
    :name],
   ["Commercial lighting, appliances, and catering",
    :name,
    :name,
    :name,
    :name,
    0.0,
    :name,
    :name,
    :name],
   ["Industrial processes",
    :name,
    :name,
    :name,
    :name,
    0.0,
    :name,
    :name,
    :name],
   ["Conventional cars and buses",
    :name,
    :name,
    :name,
    :name,
    0.0,
    :name,
    :name,
    :name],
   ["Hybrid cars and buses",
    :name,
    :name,
    :name,
    :name,
    0.0,
    :name,
    :name,
    :name],
   ["Electric cars and buses",
    :name,
    :name,
    :name,
    :name,
    0.0,
    :name,
    :name,
    :name],
   ["Fuel cell cars and buses",
    :name,
    :name,
    :name,
    :name,
    0.0,
    :name,
    :name,
    :name],
   ["Bikes", :name, :name, :name, :name, 0.0, :name, :name, :name],
   ["Rail", :name, :name, :name, :name, 0.0, :name, :name, :name],
   ["Domestic aviation", :name, :name, :name, :name, 0.0, :name, :name, :name],
   ["Domestic freight", :name, :name, :name, :name, 0.0, :name, :name, :name],
   ["International aviation",
    :name,
    :name,
    :name,
    :name,
    0.0,
    :name,
    :name,
    :name],
   ["International shipping (maritime bunkers)",
    :name,
    :name,
    :name,
    :name,
    0.0,
    :name,
    :name,
    :name],
   ["Geosequestration", :name, :name, :name, :name, 0.0, :name, :name, :name],
   ["Petroleum refineries",
    :name,
    :name,
    :name,
    :name,
    0.0,
    :name,
    :name,
    :name],
   ["Fossil fuel transfers",
    :name,
    :name,
    :name,
    :name,
    0.0,
    :name,
    :name,
    :name],
   ["District heating effective demand",
    :name,
    :name,
    :name,
    :name,
    0.0,
    :name,
    :name,
    :name],
   ["Storage of captured CO2",
    :name,
    :name,
    :name,
    :name,
    0.0,
    :name,
    :name,
    :name],
   ["Coal", :name, :name, :name, :name, 0.0, :name, :name, :name],
   ["Oil", :name, :name, :name, :name, 0.0, :name, :name, :name],
   ["Gas", :name, :name, :name, :name, 0.0, :name, :name, :name],
   ["Finance cost", 0.0, :name, :name, :name, 0.0, 0.0, 0.0, 0.0]],
 "map"=>
  [["Vector",
    2007.0,
    2010.0,
    2015.0,
    2020.0,
    2025.0,
    2030.0,
    2035.0,
    2040.0,
    2045.0,
    2050.0],
   ["III.a.1", :ref, :ref, :ref, :ref, :ref, :ref, :ref, :ref, :ref, :ref],
   ["III.b", :ref, :ref, :ref, :ref, :ref, :ref, :ref, :ref, :ref, :ref],
   ["IV.a", :ref, :ref, :ref, :ref, :ref, :ref, :ref, :ref, :ref, :ref],
   ["IV.b", :ref, :ref, :ref, :ref, :ref, :ref, :ref, :ref, :ref, :ref],
   ["IV.c", :ref, :ref, :ref, :ref, :ref, :ref, :ref, :ref, :ref, :ref],
   ["VI.a.Biocrop",
    :ref,
    :ref,
    :ref,
    :ref,
    :ref,
    :ref,
    :ref,
    :ref,
    :ref,
    :ref],
   ["VI.a.Forestry",
    :ref,
    :ref,
    :ref,
    :ref,
    :ref,
    :ref,
    :ref,
    :ref,
    :ref,
    :ref],
   ["III.a.2", :ref, :ref, :ref, :ref, :ref, :ref, :ref, :ref, :ref, :ref],
   ["III.c.TidalStream",
    :ref,
    :ref,
    :ref,
    :ref,
    :ref,
    :ref,
    :ref,
    :ref,
    :ref,
    :ref],
   ["III.c.TidalRange",
    :ref,
    :ref,
    :ref,
    :ref,
    :ref,
    :ref,
    :ref,
    :ref,
    :ref,
    :ref],
   ["VI.c", :ref, :ref, :ref, :ref, :ref, :ref, :ref, :ref, :ref, :ref],
   ["V.b", :ref, :ref, :na, :na, :na, :na, :na, :na, :na, :na],
   ["VII.a", :ref, :ref, :ref, :ref, :ref, :ref, :ref, :ref, :ref, :ref],
   ["III.c.Wave", :ref, :ref, :ref, :ref, :ref, :ref, :ref, :ref, :ref, :ref],
   ["I.a", :ref, :ref, 12.6, 24.61, 24.97, 15.3, 6.68, 2.48, 0.87, 0.29],
   ["I.b",
    :ref,
    :ref,
    8.8099,
    8.809800000000003,
    8.809700000000001,
    8.809600000000001,
    8.809500000000002,
    8.809400000000004,
    8.809300000000004,
    8.809200000000002],
   ["II.a",
    :ref,
    :ref,
    1.209,
    2.349,
    2.349,
    3.489,
    3.489,
    4.629,
    4.629,
    5.768999999999999],
   ["III.d", :ref, :ref, :ref, :ref, :ref, :ref, :ref, :ref, :ref, :ref],
   ["VII.c", :ref, :ref, :ref, :ref, :ref, :ref, :ref, :ref, :ref, :ref],
   ["VI.b", :ref, :ref, :ref, :ref, :ref, :ref, :ref, :ref, :ref, :ref]],
 "imports"=>
  {"proportion"=>
    [["Vector",
      2007.0,
      2010.0,
      2015.0,
      2020.0,
      2025.0,
      2030.0,
      2035.0,
      2040.0,
      2045.0,
      2050.0],
     ["Uranium",
      :name,
      :name,
      :name,
      :name,
      :name,
      :name,
      :name,
      :name,
      :name,
      :name],
     ["Electricity",
      :name,
      :name,
      :name,
      :name,
      :name,
      :name,
      :name,
      :name,
      :name,
      :name],
     ["Bioenergy",
      :name,
      :name,
      :name,
      :name,
      :name,
      :name,
      :name,
      :name,
      :name,
      :name],
     ["Coal",
      :name,
      :name,
      :name,
      :name,
      :name,
      :name,
      :name,
      :name,
      :name,
      :name],
     ["Oil",
      :name,
      :name,
      :name,
      :name,
      :name,
      :name,
      :name,
      :name,
      :name,
      :name],
     ["Gas",
      :name,
      :name,
      :name,
      :name,
      :name,
      :name,
      :name,
      :name,
      :name,
      :name],
     ["Total",
      :name,
      :name,
      :name,
      :name,
      :name,
      :name,
      :name,
      :name,
      :name,
      :name]],
   "quantity"=>
    [["Vector",
      2007.0,
      2010.0,
      2015.0,
      2020.0,
      2025.0,
      2030.0,
      2035.0,
      2040.0,
      2045.0,
      2050.0],
     ["Uranium", :name, :name, 0.0, 0.0, 0.0, 0.0, 0.0, 0.0, 0.0, 0.0],
     ["Electricity", :name, :name, :na, :na, :na, :na, :na, :na, :na, :na],
     ["Bioenergy", :name, :name, :na, :na, :na, :na, :na, :na, :na, :na],
     ["Coal", :name, :name, :na, :na, :na, :na, :na, :na, :na, :na],
     ["Oil", :name, :name, :na, :na, :na, :na, :na, :na, :na, :na],
     ["Gas", :name, :name, :na, :na, :na, :na, :na, :na, :na, :na],
     ["Total", :name, :name, :na, :na, :na, :na, :na, :na, :na, :na]]},
 "diversity"=>
  [["Vector",
    2007.0,
    2010.0,
    2015.0,
    2020.0,
    2025.0,
    2030.0,
    2035.0,
    2040.0,
    2045.0,
    2050.0],
   [0.0, :div0, :div0, :div0, :div0, :div0, :div0, :div0, :div0, :div0, :div0],
   [0.0, :div0, :div0, :div0, :div0, :div0, :div0, :div0, :div0, :div0, :div0],
   [0.0, :div0, :div0, :div0, :div0, :div0, :div0, :div0, :div0, :div0, :div0],
   [0.0, :div0, :div0, :div0, :div0, :div0, :div0, :div0, :div0, :div0, :div0],
   [0.0, :div0, :div0, :div0, :div0, :div0, :div0, :div0, :div0, :div0, :div0],
   [0.0, :div0, :div0, :div0, :div0, :div0, :div0, :div0, :div0, :div0, :div0],
   [0.0, :div0, :div0, :div0, :div0, :div0, :div0, :div0, :div0, :div0, :div0],
   ["Electricity imports",
    :div0,
    :div0,
    :div0,
    :div0,
    :div0,
    :div0,
    :div0,
    :div0,
    :div0,
    :div0],
   [0.0, :div0, :div0, :div0, :div0, :div0, :div0, :div0, :div0, :div0, :div0],
   [0.0, :div0, :div0, :div0, :div0, :div0, :div0, :div0, :div0, :div0, :div0],
   [0.0, :div0, :div0, :div0, :div0, :div0, :div0, :div0, :div0, :div0, :div0],
   ["Biomass imports",
    :div0,
    :div0,
    :div0,
    :div0,
    :div0,
    :div0,
    :div0,
    :div0,
    :div0,
    :div0],
   [0.0, :div0, :div0, :div0, :div0, :div0, :div0, :div0, :div0, :div0, :div0],
   ["Coal imports",
    :div0,
    :div0,
    :div0,
    :div0,
    :div0,
    :div0,
    :div0,
    :div0,
    :div0,
    :div0],
   [0.0, :div0, :div0, :div0, :div0, :div0, :div0, :div0, :div0, :div0, :div0],
   ["Oil imports",
    :div0,
    :div0,
    :div0,
    :div0,
    :div0,
    :div0,
    :div0,
    :div0,
    :div0,
    :div0],
   [0.0, :div0, :div0, :div0, :div0, :div0, :div0, :div0, :div0, :div0, :div0],
   ["Gas imports",
    :div0,
    :div0,
    :div0,
    :div0,
    :div0,
    :div0,
    :div0,
    :div0,
    :div0,
    :div0]],
 "balancing"=>
  [["GW installed capacity",
    2007.0,
    2010.0,
    2015.0,
    2020.0,
    2025.0,
    2030.0,
    2035.0,
    2040.0,
    2045.0,
    2050.0],
   ["Automatically built CCGT gas",
    :name,
    :name,
    :name,
    :name,
    :name,
    :name,
    :name,
    :name,
    :name,
    :name],
   ["Automatically built peaking gas",
    :name,
    :name,
    :name,
    :name,
    :name,
    :name,
    :name,
    :name,
    :name,
    :name]],
 "air_quality"=>[["High", :name], ["Low", :name]]}
