{"_id"=>"11111111111111111111111101111111101110110111101111100",
 "choices"=>
  [1.0,
   1.0,
   1.0,
   1.0,
   1.0,
   1.0,
   1.0,
   1.0,
   1.0,
   1.0,
   1.0,
   1.0,
   1.0,
   1.0,
   1.0,
   1.0,
   1.0,
   1.0,
   1.0,
   1.0,
   1.0,
   1.0,
   1.0,
   1.0,
   0.0,
   1.0,
   1.0,
   1.0,
   1.0,
   1.0,
   1.0,
   1.0,
   1.0,
   0.0,
   1.0,
   1.0,
   1.0,
   0.0,
   1.0,
   1.0,
   0.0,
   1.0,
   1.0,
   1.0,
   1.0,
   0.0,
   1.0,
   1.0,
   1.0,
   1.0,
   1.0,
   0.0,
   0.0],
 "sankey"=>
  [["From",
    "To",
    "2011",
    "2015",
    "2020",
    "2025",
    "2030",
    "2035",
    "2040",
    "2045",
    "2050"],
   ["Oil production",
    "Oil",
    511.25480000000005,
    1867.5454000000002,
    3637.3155333211257,
    4936.099168336044,
    5889.281702300769,
    6588.826198058922,
    7102.224717343599,
    7479.0099557408375,
    7755.534157781512],
   ["Oil imports",
    "Oil",
    -0.0,
    -38900.84828561812,
    -47715.79873581487,
    -46805.24746565579,
    -56755.120676256716,
    -56794.34669105022,
    -67660.42873261299,
    -69293.21910732111,
    -84478.64209976676],
   ["Gas production",
    "Natural gas",
    2240.1019357821997,
    3139.761312303,
    6038.229706129135,
    7525.826155608729,
    8349.498005247871,
    8956.124655493879,
    9401.330394204493,
    9728.068676639747,
    9967.863216391035],
   ["Gas imports",
    "Natural gas",
    1274.8248433039903,
    1892.5382115824605,
    4441.950520418536,
    5643.106592295044,
    5905.370190552158,
    5912.492527280344,
    5331.676081026719,
    4365.051709178958,
    2543.018390269085],
   ["Coal production",
    "Coal",
    2.2564544444444445,
    10.406537777777778,
    13.008172222222223,
    13.008172222222223,
    13.008172222222223,
    13.008172222222223,
    15.609806666666667,
    13.008172222222223,
    13.008172222222223],
   ["Coal import",
    "Coal",
    -0.0,
    -0.0,
    -0.0,
    -0.0,
    -0.0,
    -0.0,
    -0.0,
    -0.0,
    -0.0],
   ["Agriculture & land-use",
    "Bioenergy production",
    18.724300000000003,
    22.75950367687501,
    29.047534914446537,
    37.07283324738314,
    47.315373543272116,
    60.387738876078494,
    77.0717577286035,
    98.3652633784835,
    125.54177204041498],
   ["Wastes",
    "Bioenergy production",
    -0.0,
    -0.0,
    -0.0,
    -0.0,
    -0.0,
    -0.0,
    -0.0,
    -0.0,
    -0.0],
   ["Marine algae",
    "Bioenergy production",
    0.0,
    0.0,
    0.0,
    0.0,
    0.0,
    0.0,
    0.0,
    0.0,
    0.0],
   ["Oil",
    "Liquid",
    511.25480000000005,
    -37033.30288561812,
    -44078.48320249374,
    -41869.14829731974,
    -50865.83897395595,
    -50205.520492991294,
    -60558.20401526939,
    -61814.209151580275,
    -76723.10794198525],
   ["Natural gas",
    "Gaseous",
    3514.92677908619,
    5032.29952388546,
    10480.18022654767,
    13168.932747903773,
    14254.86819580003,
    14868.617182774222,
    14733.006475231212,
    14093.120385818704,
    12510.881606660121],
   ["Coal",
    "Solid",
    2.2564544444444445,
    10.406537777777778,
    13.008172222222223,
    13.008172222222223,
    13.008172222222223,
    13.008172222222223,
    15.609806666666667,
    13.008172222222223,
    13.008172222222223],
   ["Liquid",
    "Over supply/exports",
    0.0,
    0.0,
    0.0,
    0.0,
    0.0,
    0.0,
    0.0,
    0.0,
    0.0],
   ["Gaseous",
    "Over supply/exports",
    1274.8248433039903,
    1892.5382115824605,
    4441.950520418536,
    5643.106592295044,
    5905.370190552158,
    5912.492527280344,
    5331.676081026719,
    4365.051709178958,
    2543.018390269085],
   ["Solid",
    "Over supply/exports",
    0.0,
    0.0,
    0.0,
    0.0,
    0.0,
    0.0,
    0.0,
    0.0,
    0.0],
   ["Liquid",
    "Thermal generation",
    0.22682192297954626,
    122.19904702237969,
    110.35251559928956,
    98.50635911502806,
    86.6385392489839,
    74.79313301657015,
    62.948101722985086,
    51.08140817018868,
    39.303237600000024],
   ["Gaseous",
    "Thermal generation",
    0.15874564659333332,
    172.12483945980003,
    184.415386833,
    196.7054950296,
    209.0209781664,
    221.3102075715,
    233.5989978,
    245.91316165380005,
    258.123636],
   ["Solid",
    "Thermal generation",
    308.5365035454546,
    631.155586090909,
    1254.8858123454545,
    1885.4652929318177,
    2275.4033705454544,
    2439.279307738636,
    2502.4849569204544,
    2512.915311518181,
    2520.271918022727],
   ["Nuclear power generation",
    "Thermal generation",
    0.0,
    0.0,
    0.0,
    0.0,
    0.0,
    0.0,
    0.0,
    0.0,
    0.0],
   ["Electricity import",
    "Electricity grid",
    0.0,
    0.0,
    0.0,
    0.0,
    0.0,
    0.0,
    0.0,
    0.0,
    0.0],
   ["Thermal generation",
    "Electricity grid",
    89.89352961221802,
    268.75495499839195,
    450.44742331332,
    636.6850450611839,
    750.871544806656,
    798.9657374028598,
    817.6280674319997,
    824.295141406152,
    826.6364297999999],
   ["Thermal generation",
    "Losses",
    219.02854150280945,
    656.7245175746967,
    1099.206291464424,
    1543.992102015262,
    1820.1913431541825,
    1936.416910923846,
    1981.4039890114398,
    1985.6147399360182,
    1991.0623618227269],
   ["Geothermal",
    "Electricity grid",
    9.909963,
    14.406921,
    19.320263999999998,
    24.233606999999996,
    29.146949999999997,
    34.060292999999994,
    38.973636,
    43.88697899999999,
    48.21738299999999],
   ["Biomass",
    "Electricity grid",
    12.741380999999999,
    16.913997,
    21.384657000000004,
    25.855317,
    30.325977000000005,
    34.796637,
    39.267297,
    43.737956999999994,
    47.61252899999999],
   ["Hydro",
    "Electricity grid",
    18.461195999999997,
    20.775419999999997,
    23.457815999999998,
    26.140212,
    28.822608,
    31.505003999999996,
    34.1874,
    36.869795999999994,
    39.39440399999999],
   ["OTEC",
    "Electricity grid",
    0.0017532000000000003,
    0.0,
    0.0,
    0.0,
    0.0,
    0.0,
    0.0,
    0.0,
    0.0],
   ["Wind",
    "Electricity grid",
    0.003278484,
    0.0,
    0.0,
    0.0,
    0.0,
    0.0,
    0.0,
    0.0,
    0.0],
   ["PV",
    "Electricity grid",
    0.005960880000000001,
    0.041726160000000005,
    0.07749144000000001,
    0.11325672000000003,
    0.14902200000000002,
    0.18478728000000003,
    0.22055256000000004,
    0.25631784,
    0.29208312000000003],
   ["Electricity grid",
    "Over generation/exports",
    0.0,
    91.11212578136536,
    206.22681600716066,
    274.7265655021004,
    166.4849706851686,
    0.0,
    0.0,
    0.0,
    0.0],
   ["Electricity grid",
    "Losses",
    2.2109393244086197,
    0.0,
    0.0,
    0.0,
    0.0,
    2.325497568672091,
    25.518936382273115,
    49.897091799610344,
    85.09015378199726],
   ["Electricity grid",
    "Domestic lighting",
    9.07621517977812,
    9.889795448803302,
    10.945468784530991,
    12.042948412615804,
    13.181085051184155,
    14.358883528764364,
    15.575526046627669,
    16.830400782543872,
    18.12313606738843],
   ["Liquid",
    "Domestic lighting",
    1.4322358964739943,
    1.306823284246316,
    1.1369657824147819,
    0.9556357892993267,
    0.7662229077763613,
    0.5722328533091151,
    0.3773053283733147,
    0.18523557259828735,
    0.0],
   ["Gaseous",
    "Domestic lighting",
    0.0,
    0.0,
    0.0,
    0.0,
    0.0,
    0.0,
    0.0,
    0.0,
    0.0],
   ["Solid", "Domestic lighting", 0.0, 0.0, 0.0, 0.0, 0.0, 0.0, 0.0, 0.0, 0.0],
   ["Electricity grid",
    "Domestic cooling",
    6.637586127443168,
    7.359725980931568,
    8.329980833542814,
    9.37952273317129,
    10.51334931768984,
    11.737060005345677,
    13.056949318235308,
    14.480117605855378,
    16.014605672906118],
   ["Liquid", "Domestic cooling", 0.0, 0.0, 0.0, 0.0, 0.0, 0.0, 0.0, 0.0, 0.0],
   ["Gaseous",
    "Domestic cooling",
    0.0,
    0.0,
    0.0,
    0.0,
    0.0,
    0.0,
    0.0,
    0.0,
    0.0],
   ["Solid", "Domestic cooling", 0.0, 0.0, 0.0, 0.0, 0.0, 0.0, 0.0, 0.0, 0.0],
   ["Electricity grid",
    "Domestic cooking",
    31.856931713729637,
    39.18757001765753,
    49.07084767538934,
    59.74594125368334,
    71.20619122587733,
    83.44745063249704,
    96.46847321876129,
    110.27137706670152,
    124.86220446607172],
   ["Liquid",
    "Domestic cooking",
    68.97346540948561,
    66.0223763453815,
    61.53929234684475,
    56.195353429129284,
    50.0125619439048,
    43.01153771314794,
    35.211297046493094,
    26.629000987808592,
    17.279642776641406],
   ["Gaseous",
    "Domestic cooking",
    182.27581370514338,
    207.90747639770055,
    241.7323883993223,
    277.4646424567851,
    315.02606929107196,
    354.3428971631831,
    395.3464262297938,
    437.97383601418306,
    482.1691750876454],
   ["Solid",
    "Domestic cooking",
    106.08999910524157,
    101.35926865077762,
    94.63758857184163,
    87.14592493285373,
    79.02467895359673,
    70.41808238013249,
    61.47477872789308,
    52.34854121474612,
    43.19910694160351],
   ["Electricity grid",
    "Domestic other appliances",
    22.657413076526403,
    24.800477374745213,
    27.607679227224665,
    30.558005813036917,
    33.65248828904605,
    36.8927697751881,
    40.281198661969256,
    43.820942050174466,
    47.516121453993186],
   ["Liquid",
    "Domestic other appliances",
    3.575362602876687,
    3.27709925463248,
    2.867760826982507,
    2.4248483846334126,
    1.9562355701836793,
    1.4702574105181048,
    0.9757815461851251,
    0.482293760994653,
    0.0],
   ["Gaseous",
    "Domestic other appliances",
    0.0,
    0.0,
    0.0,
    0.0,
    0.0,
    0.0,
    0.0,
    0.0,
    0.0],
   ["Solid",
    "Domestic other appliances",
    0.0,
    0.0,
    0.0,
    0.0,
    0.0,
    0.0,
    0.0,
    0.0,
    0.0],
   ["Electricity grid",
    "Commercial lighting",
    0.008676324800000001,
    0.011577789464223292,
    0.016453062162085443,
    0.023166082510576242,
    0.03231703495508929,
    0.04466542377193723,
    0.06115896652913047,
    0.0829630872994888,
    0.11148919203599153],
   ["Liquid",
    "Commercial lighting",
    0.0,
    0.0,
    0.0,
    0.0,
    0.0,
    0.0,
    0.0,
    0.0,
    0.0],
   ["Gaseous",
    "Commercial lighting",
    0.0,
    0.0,
    0.0,
    0.0,
    0.0,
    0.0,
    0.0,
    0.0,
    0.0],
   ["Solid",
    "Commercial lighting",
    0.0,
    0.0,
    0.0,
    0.0,
    0.0,
    0.0,
    0.0,
    0.0,
    0.0],
   ["Electricity grid",
    "Commercial cooling",
    0.02169081199999998,
    0.0289444736605582,
    0.04113265540521359,
    0.0579152062764406,
    0.08079258738772327,
    0.11166355942984321,
    0.1528974163228264,
    0.20740771824872242,
    0.2787229800899796],
   ["Liquid",
    "Commercial cooling",
    0.0,
    0.0,
    0.0,
    0.0,
    0.0,
    0.0,
    0.0,
    0.0,
    0.0],
   ["Gaseous",
    "Commercial cooling",
    0.0,
    0.0,
    0.0,
    0.0,
    0.0,
    0.0,
    0.0,
    0.0,
    0.0],
   ["Solid",
    "Commercial cooling",
    0.0,
    0.0,
    0.0,
    0.0,
    0.0,
    0.0,
    0.0,
    0.0,
    0.0],
   ["Electricity grid",
    "Commercial cooking",
    0.1085292992,
    0.20492097996849098,
    0.3988140239158991,
    0.7144320048058617,
    1.2119844083986004,
    1.9756934117673957,
    3.121185580451661,
    4.804346059035371,
    7.2316267458420915],
   ["Liquid",
    "Commercial cooking",
    5.42646496,
    6.743763158963068,
    8.6941457213666,
    10.979691863332189,
    13.542608389497406,
    16.244590274531916,
    18.827796888530994,
    20.86458859923933,
    21.694880237526274],
   ["Gaseous",
    "Commercial cooking",
    1.7364687871999998,
    3.107347223522209,
    5.830661029650444,
    10.220137837170167,
    17.088980158420267,
    27.571899168664988,
    43.22338611896446,
    66.13525517837833,
    99.07328641803664],
   ["Solid",
    "Commercial cooking",
    3.5814668735999993,
    4.474729035311958,
    5.814708468693808,
    7.4150521761955765,
    9.25850698067974,
    11.283404596093794,
    13.360687952449533,
    15.264093764706653,
    16.63274151543679],
   ["Electricity grid",
    "Commercial others",
    13.505397976,
    18.175783891192832,
    26.111604531708434,
    37.176904020515614,
    52.45717985633388,
    73.35361007991155,
    101.65192981606914,
    139.5982783574875,
    189.97982426985436],
   ["Liquid",
    "Commercial others",
    0.0,
    0.0,
    0.0,
    0.0,
    0.0,
    0.0,
    0.0,
    0.0,
    0.0],
   ["Gaseous",
    "Commercial others",
    0.0,
    0.0,
    0.0,
    0.0,
    0.0,
    0.0,
    0.0,
    0.0,
    0.0],
   ["Solid", "Commercial others", 0.0, 0.0, 0.0, 0.0, 0.0, 0.0, 0.0, 0.0, 0.0],
   ["Electricity grid",
    "Industrial process",
    34.004882980726244,
    51.3531810904873,
    84.8570705502022,
    138.58657798064928,
    224.18890293166575,
    359.80897442090867,
    573.6326396628743,
    909.3290007014905,
    1434.396263817748],
   ["Liquid",
    "Industrial process",
    117.51131484402816,
    161.0350022802489,
    238.75797697251937,
    353.98189725722887,
    524.7952985008059,
    778.0091448904334,
    1153.3616605119955,
    1709.7496333036588,
    2534.4625699123762],
   ["Gaseous",
    "Industrial process",
    243.1804768347128,
    332.21533529454257,
    490.6614480241213,
    724.6738472208556,
    1070.2904210033562,
    1580.7350858749237,
    2334.613312723405,
    3448.0157326687304,
    5092.393348869962],
   ["Solid",
    "Industrial process",
    190.93700740893314,
    254.21229290056786,
    363.2546688615466,
    518.5516153640422,
    739.4522169477123,
    1053.2557036487046,
    1498.4006794266593,
    2128.8914210235653,
    3020.417394200029],
   ["Electricity grid",
    "Freight",
    0.0,
    0.0,
    0.0,
    0.0,
    0.0,
    0.0,
    0.0,
    0.0,
    0.0],
   ["Liquid",
    "Freight",
    152.3397464629242,
    202.16931649330144,
    205.61206470501435,
    211.1397761167491,
    220.22458740075265,
    236.43655453940207,
    258.422246271331,
    299.39122227295263,
    379.76890456444266],
   ["Gaseous", "Freight", 0.0, 0.0, 0.0, 0.0, 0.0, 0.0, 0.0, 0.0, 0.0],
   ["Solid", "Freight", 0.0, 0.0, 0.0, 0.0, 0.0, 0.0, 0.0, 0.0, 0.0],
   ["Electricity grid",
    "Passenger Urban",
    0.15683526486486465,
    0.2744881837803744,
    0.46260617865380504,
    37.146914299869344,
    116.82547827071568,
    276.21542215212344,
    493.2973999193356,
    603.4000493516692,
    705.6010943676467],
   ["Liquid",
    "Passenger Urban",
    254.5761223871535,
    325.9189793805582,
    460.6266904830385,
    611.963716277094,
    810.670436481699,
    926.9013632223888,
    929.8596325198073,
    724.1639398126824,
    528.0510403960511],
   ["Gaseous",
    "Passenger Urban",
    1.4725850538409766,
    3.4289997932678635,
    8.200021504302276,
    17.601958015963024,
    35.38937100156101,
    66.73464812238925,
    121.98910051320345,
    217.92766269464605,
    382.4172112973925],
   ["Solid", "Passenger Urban", 0.0, 0.0, 0.0, 0.0, 0.0, 0.0, 0.0, 0.0, 0.0],
   ["Electricity grid",
    "Passenger Intercity",
    0.0,
    0.0,
    0.0,
    0.0,
    0.0,
    0.0,
    0.0,
    0.0,
    0.0],
   ["Liquid",
    "Passenger Intercity",
    -0.0,
    -0.0,
    -0.0,
    -0.0,
    -0.0,
    -0.0,
    -0.0,
    -0.0,
    -0.0],
   ["Gaseous",
    "Passenger Intercity",
    0.0,
    0.0,
    0.0,
    0.0,
    0.0,
    0.0,
    0.0,
    0.0,
    0.0],
   ["Solid",
    "Passenger Intercity",
    0.0,
    0.0,
    0.0,
    0.0,
    0.0,
    0.0,
    0.0,
    0.0,
    0.0],
   ["Electricity grid",
    "Air transport",
    0.0,
    0.0,
    0.0,
    0.0,
    0.0,
    0.0,
    0.0,
    0.0,
    0.0],
   ["Liquid",
    "Air transport",
    34.185687200000004,
    57.23044021129655,
    100.51567270875651,
    176.6686428302874,
    283.77759054351935,
    455.83368410303564,
    580.310984131872,
    738.6939013550369,
    940.3406195728371],
   ["Gaseous", "Air transport", 0.0, 0.0, 0.0, 0.0, 0.0, 0.0, 0.0, 0.0, 0.0],
   ["Solid", "Air transport", 0.0, 0.0, 0.0, 0.0, 0.0, 0.0, 0.0, 0.0, 0.0],
   ["Electricity grid",
    "ACM energy demand",
    0.0,
    0.0,
    0.0,
    0.0,
    0.0,
    0.0,
    0.0,
    0.0,
    0.0],
   ["Liquid",
    "ACM energy demand",
    40.407039399999995,
    53.56988048100685,
    82.48992758868037,
    140.24326891525922,
    263.24733828426,
    464.7934777678119,
    1028.5998543814358,
    2513.2387699182823,
    6779.878351792601],
   ["Gaseous",
    "ACM energy demand",
    0.0,
    0.0,
    0.0,
    0.0,
    0.0,
    0.0,
    0.0,
    0.0,
    0.0],
   ["Solid", "ACM energy demand", 0.0, 0.0, 0.0, 0.0, 0.0, 0.0, 0.0, 0.0, 0.0],
   ["Gas", "Losses", 0.0, 0.0, 0.0, 0.0, 0.0, 0.0, 0.0, 0.0, 0.0]],
 "ghg"=>
  [["Mt CO2e",
    2010.0,
    2015.0,
    2020.0,
    2025.0,
    2030.0,
    2035.0,
    2040.0,
    2045.0,
    2050.0],
   ["Fuel Combustion",
    :name,
    :name,
    :name,
    :name,
    :name,
    :name,
    :name,
    :name,
    :name],
   [:name, :name, :name, :name, :name, :name, :name, :name, :name, :name],
   [:name, :name, :name, :name, :name, :name, :name, :name, :name, :name],
   [:name, :name, :name, :name, :name, :name, :name, :name, :name, :name],
   [:name, :name, :name, :name, :name, :name, :name, :name, :name, :name],
   [:name, :name, :name, :name, :name, :name, :name, :name, :name, :name],
   [:name, :name, :name, :name, :name, :name, :name, :name, :name, :name],
   [:name, :name, :name, :name, :name, :name, :name, :name, :name, :name],
   [:name, :name, :name, :name, :name, :name, :name, :name, :name, :name],
   [:name, :name, :name, :name, :name, :name, :name, :name, :name, :name],
   ["Total", :name, :name, :name, :name, :name, :name, :name, :name, :name],
   ["Targets", 603.6, 556.4, 508.8, 390.0, nil, nil, nil, nil, 159.917234]],
 "ghg_reduction_from_1990"=>:name,
 "final_energy_demand"=>
  [["Vector",
    "2011",
    2015.0,
    2020.0,
    2025.0,
    2030.0,
    2035.0,
    2040.0,
    2045.0,
    2050.0],
   ["Transport",
    442.73097636878356,
    589.0222240622045,
    775.4170555797655,
    1054.521007539963,
    1466.8874636982478,
    1962.1216721393394,
    2383.8793633555492,
    2583.576775486987,
    2936.17887019837],
   ["Domestic",
    432.5750228166986,
    461.11061275487606,
    497.86797244809384,
    535.9128232052083,
    575.3388825503309,
    616.251171462086,
    658.7677361243319,
    703.0217450556061,
    749.1639924662496],
   ["Commerce",
    24.388695032799998,
    32.74706655208334,
    46.90751949290248,
    66.58729919080642,
    93.6723694156727,
    130.58552651417142,
    180.39904273931774,
    246.9569327643954,
    335.00257135882214],
   ["Industrial process",
    599.8231588308404,
    816.0632092548224,
    1199.543700079934,
    1763.888131244242,
    2594.582940460666,
    3817.571389542843,
    5618.4141027066535,
    8270.528046630505,
    12176.80648750348],
   ["ACM",
    40.407039399999995,
    53.56988048100684,
    82.48992758868036,
    140.2432689152592,
    263.24733828426,
    464.79347776781185,
    1028.5998543814358,
    2513.238769918282,
    6779.878351792601],
   ["Total",
    1539.9248924491226,
    1952.512993104993,
    2602.2261751893766,
    3561.152530095479,
    4993.728994409177,
    6991.323237426252,
    9870.060099307288,
    14317.322269855775,
    22977.030273319524]],
 "primary_energy_supply"=>
  [["Vector",
    2010.0,
    2015.0,
    2020.0,
    2025.0,
    2030.0,
    2035.0,
    2040.0,
    2045.0,
    2050.0],
   ["Indigenous Gas",
    965.2770924782094,
    1247.2231007205396,
    1596.2791857105985,
    1882.7195633136853,
    2444.127814695713,
    3043.632128213535,
    4069.6543131777744,
    5363.016967460789,
    7424.84482612195],
   ["Imported Gas", 0.0, 0.0, 0.0, 0.0, 0.0, 0.0, 0.0, 0.0, 0.0],
   ["Indigenous Oil",
    511.25480000000005,
    1867.5454000000002,
    3637.3155333211257,
    4936.099168336044,
    5889.281702300769,
    6588.826198058922,
    7102.224717343599,
    7479.0099557408375,
    7755.534157781512],
   ["Imported Oil",
    39937.43612552411,
    38900.84828561812,
    47715.79873581487,
    46805.24746565579,
    56755.120676256716,
    56794.34669105022,
    67660.42873261299,
    69293.21910732111,
    84478.64209976676],
   ["Indigenous Coal",
    2.2564544444444445,
    10.406537777777778,
    13.008172222222223,
    13.008172222222223,
    13.008172222222223,
    13.008172222222223,
    15.609806666666667,
    13.008172222222223,
    13.008172222222223],
   ["Imported Coal",
    604.2939954496002,
    783.3283274372506,
    1454.7495974960086,
    2181.761663516819,
    2733.8535853745125,
    3312.2108603224806,
    5346.731355276611,
    7584.885753068447,
    10823.695987370033],
   ["Indigenous Bioenergy",
    63.32539242399999,
    82.00230564487501,
    103.97520042644656,
    127.68536230338312,
    153.61276614327213,
    182.36999502007848,
    214.73887741660351,
    251.71724661048347,
    292.49231081641494],
   ["Imported Bioenergy", 0.0, 0.0, 0.0, 0.0, 0.0, 0.0, 0.0, 0.0, 0.0],
   ["Nuclear fussion", 0.0, 0.0, 0.0, 0.0, 0.0, 0.0, 0.0, 0.0, 0.0],
   ["Geothermal",
    86.71217625,
    126.06055875000001,
    169.05230999999998,
    212.04406124999997,
    255.0358125,
    298.02756374999996,
    341.019315,
    384.01106624999994,
    421.90210125],
   ["Agriculture",
    63.31913349999999,
    81.95849317687501,
    103.89383441444656,
    127.56644274738312,
    153.45629304327213,
    182.1759683760785,
    214.5072972286035,
    251.44811287848347,
    292.18562354041495],
   ["Hydro",
    19.3842558,
    21.814190999999997,
    24.6307068,
    27.447222599999996,
    30.263738399999998,
    33.0802542,
    35.89677,
    38.713285799999994,
    41.364124199999985],
   ["Solar", 0.0018408600000000004, 0.0, 0.0, 0.0, 0.0, 0.0, 0.0, 0.0, 0.0],
   ["Wind", 0.0034424081999999997, 0.0, 0.0, 0.0, 0.0, 0.0, 0.0, 0.0, 0.0],
   ["Wave", 0.0, 0.0, 0.0, 0.0, 0.0, 0.0, 0.0, 0.0, 0.0],
   ["Total used in Indonesia",
    42207.700749732314,
    42948.1165811672,
    54508.58262578411,
    55911.28611369584,
    68107.81929720804,
    70361.35435372422,
    84932.27340579672,
    90604.853469128,
    111521.40001655479]],
 "test1"=>
  [["Vector",
    2010.0,
    2015.0,
    2020.0,
    2025.0,
    2030.0,
    2035.0,
    2040.0,
    2045.0,
    2050.0],
   ["Indigenous Gas",
    965.2770924782094,
    1247.2231007205396,
    1596.2791857105985,
    1882.7195633136853,
    2444.127814695713,
    3043.632128213535,
    4069.6543131777744,
    5363.016967460789,
    7424.84482612195],
   ["Imported Gas", 0.0, 0.0, 0.0, 0.0, 0.0, 0.0, 0.0, 0.0, 0.0],
   ["Indigenous Oil",
    511.25480000000005,
    1867.5454000000002,
    3637.3155333211257,
    4936.099168336044,
    5889.281702300769,
    6588.826198058922,
    7102.224717343599,
    7479.0099557408375,
    7755.534157781512],
   ["Imported Oil",
    39937.43612552411,
    38900.84828561812,
    47715.79873581487,
    46805.24746565579,
    56755.120676256716,
    56794.34669105022,
    67660.42873261299,
    69293.21910732111,
    84478.64209976676],
   ["Indigenous Coal",
    2.2564544444444445,
    10.406537777777778,
    13.008172222222223,
    13.008172222222223,
    13.008172222222223,
    13.008172222222223,
    15.609806666666667,
    13.008172222222223,
    13.008172222222223],
   ["Imported Coal",
    604.2939954496002,
    783.3283274372506,
    1454.7495974960086,
    2181.761663516819,
    2733.8535853745125,
    3312.2108603224806,
    5346.731355276611,
    7584.885753068447,
    10823.695987370033],
   ["Indigenous Bioenergy",
    63.32539242399999,
    82.00230564487501,
    103.97520042644656,
    127.68536230338312,
    153.61276614327213,
    182.36999502007848,
    214.73887741660351,
    251.71724661048347,
    292.49231081641494],
   ["Imported Bioenergy", 0.0, 0.0, 0.0, 0.0, 0.0, 0.0, 0.0, 0.0, 0.0],
   ["Nuclear fussion", 0.0, 0.0, 0.0, 0.0, 0.0, 0.0, 0.0, 0.0, 0.0],
   ["Geothermal",
    86.71217625,
    126.06055875000001,
    169.05230999999998,
    212.04406124999997,
    255.0358125,
    298.02756374999996,
    341.019315,
    384.01106624999994,
    421.90210125],
   ["Agriculture",
    63.31913349999999,
    81.95849317687501,
    103.89383441444656,
    127.56644274738312,
    153.45629304327213,
    182.1759683760785,
    214.5072972286035,
    251.44811287848347,
    292.18562354041495],
   ["Hydro",
    19.3842558,
    21.814190999999997,
    24.6307068,
    27.447222599999996,
    30.263738399999998,
    33.0802542,
    35.89677,
    38.713285799999994,
    41.364124199999985],
   ["Solar", 0.0018408600000000004, 0.0, 0.0, 0.0, 0.0, 0.0, 0.0, 0.0, 0.0],
   ["Wind", 0.0034424081999999997, 0.0, 0.0, 0.0, 0.0, 0.0, 0.0, 0.0, 0.0],
   ["Wave", 0.0, 0.0, 0.0, 0.0, 0.0, 0.0, 0.0, 0.0, 0.0],
   ["Total used in Indonesia",
    42207.700749732314,
    42948.1165811672,
    54508.58262578411,
    55911.28611369584,
    68107.81929720804,
    70361.35435372422,
    84932.27340579672,
    90604.853469128,
    111521.40001655479]],
 "electricity"=>
  {"demand"=>
    [["Sector",
      2011.0,
      2015.0,
      2020.0,
      2025.0,
      2030.0,
      2035.0,
      2040.0,
      2045.0,
      2050.0],
     ["Transport",
      0.15683526486486465,
      0.2744881837803744,
      0.46260617865380504,
      37.146914299869344,
      116.82547827071568,
      276.21542215212344,
      493.2973999193356,
      603.4000493516692,
      705.6010943676467],
     ["Industry",
      34.004882980726244,
      51.3531810904873,
      84.8570705502022,
      138.58657798064928,
      224.18890293166575,
      359.80897442090867,
      573.6326396628743,
      909.3290007014905,
      1434.396263817748],
     ["Domestic",
      70.22814609747732,
      81.2375688221376,
      95.95397652068782,
      111.72641821250735,
      128.55311388379738,
      146.43616394179517,
      165.38214724559353,
      185.40283750527524,
      206.51606766035943],
     ["Commerce",
      13.644294412,
      18.421227134286106,
      26.568004273191633,
      37.97241731410849,
      53.78227388707529,
      75.48563247488072,
      104.98717177937276,
      144.69299522207106,
      197.60166318782242],
     ["Total",
      118.03415875506843,
      151.2864652306914,
      207.84165752273546,
      325.43232780713447,
      523.3497689732541,
      857.946192989708,
      1337.2993586071764,
      1842.824882780506,
      2544.1150890335766]],
   "supply"=>
    [["Sector",
      2011.0,
      2015.0,
      2020.0,
      2025.0,
      2030.0,
      2035.0,
      2040.0,
      2045.0,
      2050.0],
     ["Conventional",
      89.89352961221802,
      268.75495499839195,
      450.44742331332,
      636.6850450611839,
      750.871544806656,
      798.9657374028598,
      817.6280674319997,
      824.295141406152,
      826.6364297999999],
     ["Geothermal",
      9.909963,
      14.406921,
      19.320263999999998,
      24.233606999999996,
      29.146949999999997,
      34.060292999999994,
      38.973636,
      43.88697899999999,
      48.21738299999999],
     ["Biomass",
      12.741380999999999,
      16.913997,
      21.384657000000004,
      25.855317,
      30.325977000000005,
      34.796637,
      39.267297,
      43.737956999999994,
      47.61252899999999],
     ["Hydro",
      18.461195999999997,
      20.775419999999997,
      23.457815999999998,
      26.140212,
      28.822608,
      31.505003999999996,
      34.1874,
      36.869795999999994,
      39.39440399999999],
     ["OTEC", 0.0017532000000000003, 0.0, 0.0, 0.0, 0.0, 0.0, 0.0, 0.0, 0.0],
     ["Wind", 0.003278484, 0.0, 0.0, 0.0, 0.0, 0.0, 0.0, 0.0, 0.0],
     ["PV",
      0.005960880000000001,
      0.041726160000000005,
      0.07749144000000001,
      0.11325672000000003,
      0.14902200000000002,
      0.18478728000000003,
      0.22055256000000004,
      0.25631784,
      0.29208312000000003],
     ["Nuclear power generation", 0.0, 0.0, 0.0, 0.0, 0.0, 0.0, 0.0, 0.0, 0.0],
     ["Steam coal PP as balancing",
      44.218786488172384,
      0.0,
      0.0,
      0.0,
      0.0,
      46.50995137344182,
      510.3787276454623,
      997.941835992207,
      1701.803075639945],
     ["Total",
      175.2358486643904,
      320.89301915839195,
      514.68765175332,
      713.027437781184,
      839.3161018066558,
      946.0224100563016,
      1440.655680637462,
      1946.9880272383589,
      2663.955904559945]],
   "ghg"=>
    [["Source",
      2011.0,
      2015.0,
      2020.0,
      2025.0,
      2030.0,
      2035.0,
      2040.0,
      2045.0,
      2050.0],
     ["Fuel combustion", nil, nil, nil, nil, nil, nil, nil, nil, nil],
     ["Bioenergy credit", nil, nil, nil, nil, nil, nil, nil, nil, nil],
     ["Total", 0.0, 0.0, 0.0, 0.0, 0.0, 0.0, 0.0, 0.0, 0.0]],
   "capacity"=>
    [["Sector",
      2011.0,
      2015.0,
      2020.0,
      2025.0,
      2030.0,
      2035.0,
      2040.0,
      2045.0,
      2050.0],
     ["Coal power plant",
      12.05,
      12.6,
      24.61,
      24.97,
      15.3,
      6.68,
      2.48,
      0.87,
      0.29],
     ["Gas combined-cycle power plant",
      8.81,
      8.8099,
      8.809800000000003,
      8.809700000000001,
      8.809600000000001,
      8.809500000000002,
      8.809400000000004,
      8.809300000000004,
      8.809200000000002],
     ["Gas turbine power plant",
      2.9700000000000006,
      2.9699,
      2.9697999999999998,
      2.9696999999999996,
      2.9696,
      2.969499999999999,
      2.969399999999999,
      2.9692999999999987,
      2.9691999999999985],
     ["Diesel power plant",
      2.598,
      2.528,
      2.458,
      2.3880000000000003,
      2.3180000000000005,
      2.2480000000000007,
      2.178000000000001,
      2.108000000000001,
      2.038000000000001],
     ["Geothermal",
      1.19,
      1.73,
      2.32,
      2.9099999999999997,
      3.4999999999999996,
      4.09,
      4.68,
      5.27,
      5.789999999999999],
     ["Biomass",
      1.71,
      2.27,
      2.87,
      3.47,
      4.07,
      4.67,
      5.27,
      5.869999999999999,
      6.389999999999999],
     ["Hydro",
      3.51,
      3.9499999999999997,
      4.46,
      4.97,
      5.4799999999999995,
      5.989999999999999,
      6.499999999999999,
      7.009999999999999,
      7.489999999999998],
     ["OTEC", 0.001, 0.0, 0.0, 0.0, 0.0, 0.0, 0.0, 0.0, 0.0],
     ["Wind", 0.00187, 0.0, 0.0, 0.0, 0.0, 0.0, 0.0, 0.0, 0.0],
     ["PV", 0.0, 0.0, 0.0, 0.0, 0.0, 0.0, 0.0, 0.0, 0.0],
     ["Nuclear power generation", 0.0, 0.0, 0.0, 0.0, 0.0, 0.0, 0.0, 0.0, 0.0],
     ["Steam coal PP as balancing",
      20.393207705182228,
      0.0,
      0.0,
      0.0,
      0.0,
      21.35056227726899,
      234.29121054317204,
      455.97808935969374,
      777.5853130009596],
     ["Total generation",
      53.23407770518223,
      34.8578,
      48.4976,
      50.48739999999999,
      42.447199999999995,
      56.807562277268985,
      267.17801054317204,
      488.88468935969377,
      811.3617130009595]]}}
