{"_id"=>"12p24z12fpgz22fl344112.3412012341234022p02.251.340112201212100",
 "choices"=>
  [1.0,
   2.0,
   2.5,
   2.0,
   4.0,
   3.5,
   1.0,
   2.0,
   1.5,
   2.5,
   1.6,
   3.5,
   2.0,
   2.0,
   1.5,
   2.1,
   3.0,
   4.0,
   4.0,
   1.0,
   1.0,
   2.0,
   0.0,
   3.0,
   4.0,
   1.0,
   2.0,
   0.0,
   1.0,
   2.0,
   3.0,
   4.0,
   1.0,
   2.0,
   3.0,
   4.0,
   0.0,
   2.0,
   2.0,
   2.5,
   0.0,
   2.0,
   0.0,
   2.0,
   0.0,
   1.0,
   0.0,
   3.0,
   4.0,
   0.0,
   1.0,
   1.0,
   2.0,
   2.0,
   0.0,
   1.0,
   2.0,
   1.0,
   2.0,
   1.0,
   0.0,
   0.0],
 "sankey"=>
  [["From",
    "To",
    "2011",
    "2015",
    "2020",
    "2025",
    "2030",
    "2035",
    "2040",
    "2045",
    "2050"],
   ["Oil production",
    "Oil",
    511.25480000000005,
    1928.6029000000003,
    3958.038280035563,
    5617.11913338301,
    7004.134344830109,
    8121.479093447157,
    8948.610590400982,
    9555.645723069134,
    10001.1512486724],
   ["Oil imports",
    "Oil",
    -0.0,
    -38716.908212146955,
    -47197.618788760505,
    -45760.3542566438,
    -55007.42472194822,
    -54203.09732695017,
    -64123.42874665547,
    -64294.10198584781,
    -76473.81157101691],
   ["Gas production",
    "Natural gas",
    2240.1019357821997,
    3203.3987994077997,
    6964.661279890384,
    9659.129414502697,
    11234.000466242233,
    12329.535919112186,
    13133.553794655272,
    13723.625747597813,
    14156.681927367783],
   ["Gas imports",
    "Natural gas",
    1226.2905921106335,
    2100.0711929931877,
    5559.869079329344,
    8121.560117075887,
    9392.52399414704,
    10289.742979639283,
    10687.301188573103,
    10933.176925006406,
    10748.680155228789],
   ["Coal production",
    "Coal",
    2.2564544444444445,
    10.485108438817223,
    13.40898817882296,
    13.761207579232533,
    14.131393708903179,
    14.520463051594689,
    17.865535368579962,
    15.35915344520544,
    15.810850873556468],
   ["Coal import",
    "Coal",
    -0.0,
    -0.0,
    -0.0,
    -0.0,
    -0.0,
    -0.0,
    -0.0,
    -0.0,
    -0.0],
   ["Agriculture & land-use",
    "Bioenergy production",
    18.724300000000003,
    22.75950367687501,
    29.047534914446537,
    37.07283324738314,
    47.315373543272116,
    60.387738876078494,
    77.0717577286035,
    98.3652633784835,
    125.54177204041498],
   ["Wastes",
    "Bioenergy production",
    -0.0,
    -0.0,
    -0.0,
    -0.0,
    -0.0,
    -0.0,
    -0.0,
    -0.0,
    -0.0],
   ["Marine algae",
    "Bioenergy production",
    0.0,
    0.0,
    0.0,
    0.0019444444444444446,
    0.01088888888888889,
    0.026833333333333334,
    0.04977777777777778,
    0.06377777777777778,
    0.07777777777777778],
   ["Oil",
    "Liquid",
    511.25480000000005,
    -36788.30531214696,
    -43239.58050872494,
    -40143.23512326079,
    -48003.290377118115,
    -46081.61823350302,
    -55174.818156254485,
    -54738.45626277868,
    -66472.66032234451],
   ["Natural gas",
    "Gaseous",
    3466.392527892833,
    5303.469992400987,
    12524.530359219727,
    17780.689531578584,
    20626.52446038927,
    22619.27889875147,
    23820.854983228375,
    24656.80267260422,
    24905.36208259657],
   ["Coal",
    "Solid",
    2.2564544444444445,
    10.485108438817223,
    13.40898817882296,
    13.761207579232533,
    14.131393708903179,
    14.520463051594689,
    17.865535368579962,
    15.35915344520544,
    15.810850873556468],
   ["Liquid",
    "Over supply/exports",
    0.0,
    0.0,
    0.0,
    0.0,
    0.0,
    0.0,
    0.0,
    0.0,
    0.0],
   ["Gaseous",
    "Over supply/exports",
    1226.2905921106335,
    2100.0711929931877,
    5559.869079329344,
    8121.560117075887,
    9392.52399414704,
    10289.742979639283,
    10687.301188573103,
    10933.176925006406,
    10748.680155228789],
   ["Solid",
    "Over supply/exports",
    0.0,
    0.0,
    0.0,
    0.0,
    0.0,
    0.0,
    0.0,
    0.0,
    0.0],
   ["Liquid",
    "Thermal generation",
    0.22682192297954626,
    144.7962930271558,
    146.8919825521254,
    128.4364037630579,
    107.06884693158091,
    85.86349193025671,
    64.76458046776119,
    43.73564094953194,
    22.9590306],
   ["Gaseous",
    "Thermal generation",
    0.15874564659333332,
    220.5232403598,
    293.320226133,
    322.8381322146,
    343.7622218214,
    364.64315027400005,
    385.52363955000004,
    406.4464098738001,
    427.1978610000001],
   ["Solid",
    "Thermal generation",
    308.5365035454546,
    465.69526517583733,
    743.0606801160286,
    1097.4624564498806,
    1473.2418709544859,
    1776.5204603296652,
    2002.1103739184214,
    2161.2277320513163,
    2245.6616275227275],
   ["Nuclear power generation",
    "Thermal generation",
    0.0,
    5.158484190000001,
    5.158484190000001,
    5.158484190000001,
    5.158484190000001,
    5.158484190000001,
    5.158484190000001,
    5.158484190000001,
    5.158484190000001],
   ["Electricity import",
    "Electricity grid",
    0.0,
    0.0,
    0.0,
    0.0,
    0.0,
    0.0,
    0.0,
    0.0,
    0.0],
   ["Thermal generation",
    "Electricity grid",
    89.89352961221802,
    243.632440534392,
    347.98990688531995,
    457.273987048584,
    568.372942052856,
    663.85135011096,
    738.0064456020001,
    789.3497173349522,
    822.8276027999999],
   ["Thermal generation",
    "Losses",
    219.02854150280945,
    587.3823580284011,
    835.282981915834,
    1091.4630053789544,
    1355.6999976546106,
    1563.1757524229618,
    1714.3921483341828,
    1822.0600655396963,
    1872.9909163227276],
   ["Geothermal",
    "Electricity grid",
    9.909963,
    20.153033999999998,
    32.7694995,
    45.385965000000006,
    58.0024305,
    70.61889599999999,
    83.23536150000001,
    95.85182700000001,
    108.30173850000001],
   ["Biomass",
    "Electricity grid",
    12.741380999999999,
    16.913997,
    21.384657000000004,
    25.855317,
    30.325977000000005,
    34.796637,
    39.267297,
    43.737956999999994,
    47.61252899999999],
   ["Hydro",
    "Electricity grid",
    18.461195999999997,
    23.510412,
    29.927124,
    36.34383599999999,
    42.760548,
    49.17726,
    55.593972,
    62.01068400000001,
    68.479992],
   ["OTEC",
    "Electricity grid",
    0.0017532000000000003,
    0.004383,
    0.007012800000000001,
    0.007012800000000001,
    0.007012800000000001,
    0.0078894,
    0.007012800000000001,
    0.007012800000000001,
    0.007012800000000001],
   ["Wind",
    "Electricity grid",
    0.003278484,
    0.719478216,
    1.0444689,
    1.0444689,
    1.0444689,
    1.0444689,
    1.0444689,
    1.0444689,
    1.1628099],
   ["PV",
    "Electricity grid",
    0.005960880000000001,
    0.10073887200000001,
    0.19551686400000004,
    0.2902948560000001,
    0.3850728480000001,
    0.47985084000000006,
    0.574628832,
    0.669406824,
    0.683712936],
   ["Electricity grid",
    "Over generation/exports",
    0.0,
    158.4193219969557,
    240.14245488293545,
    291.5675889845483,
    267.5848064466959,
    139.99933824196,
    0.0,
    0.0,
    0.0],
   ["Electricity grid",
    "Losses",
    2.2109393244086197,
    0.0,
    0.0,
    0.0,
    0.0,
    0.0,
    0.7719982411761408,
    8.046355689987916,
    18.249980292318355],
   ["Electricity grid",
    "Domestic lighting",
    9.07621517977812,
    9.889795448803302,
    10.945468784530991,
    12.042948412615804,
    13.181085051184155,
    14.358883528764364,
    15.575526046627669,
    16.830400782543872,
    18.12313606738843],
   ["Liquid",
    "Domestic lighting",
    1.4322358964739943,
    1.306823284246316,
    1.1369657824147819,
    0.9556357892993267,
    0.7662229077763613,
    0.5722328533091151,
    0.3773053283733147,
    0.18523557259828735,
    0.0],
   ["Gaseous",
    "Domestic lighting",
    0.0,
    0.0,
    0.0,
    0.0,
    0.0,
    0.0,
    0.0,
    0.0,
    0.0],
   ["Solid", "Domestic lighting", 0.0, 0.0, 0.0, 0.0, 0.0, 0.0, 0.0, 0.0, 0.0],
   ["Electricity grid",
    "Domestic cooling",
    6.637586127443168,
    7.283459390455591,
    8.133209632750459,
    9.030285184595757,
    9.974929810853963,
    10.967416726306602,
    12.008053112615281,
    13.097185025520853,
    14.235205042583187],
   ["Liquid", "Domestic cooling", 0.0, 0.0, 0.0, 0.0, 0.0, 0.0, 0.0, 0.0, 0.0],
   ["Gaseous",
    "Domestic cooling",
    0.0,
    0.0,
    0.0,
    0.0,
    0.0,
    0.0,
    0.0,
    0.0,
    0.0],
   ["Solid", "Domestic cooling", 0.0, 0.0, 0.0, 0.0, 0.0, 0.0, 0.0, 0.0, 0.0],
   ["Electricity grid",
    "Domestic cooking",
    31.856931713729637,
    -0.0,
    -0.0,
    -0.0,
    -0.0,
    -0.0,
    -0.0,
    -0.0,
    -0.0],
   ["Liquid",
    "Domestic cooking",
    68.97346540948561,
    -0.0,
    -0.0,
    -0.0,
    -0.0,
    -0.0,
    -0.0,
    -0.0,
    -0.0],
   ["Gaseous",
    "Domestic cooking",
    182.27581370514338,
    -0.0,
    -0.0,
    -0.0,
    -0.0,
    -0.0,
    -0.0,
    -0.0,
    -0.0],
   ["Solid",
    "Domestic cooking",
    106.08999910524157,
    -0.0,
    -0.0,
    -0.0,
    -0.0,
    -0.0,
    -0.0,
    -0.0,
    -0.0],
   ["Electricity grid",
    "Domestic other appliances",
    22.657413076526403,
    -0.0,
    -0.0,
    -0.0,
    -0.0,
    -0.0,
    -0.0,
    -0.0,
    -0.0],
   ["Liquid",
    "Domestic other appliances",
    3.575362602876687,
    -0.0,
    -0.0,
    -0.0,
    -0.0,
    -0.0,
    -0.0,
    -0.0,
    0.0],
   ["Gaseous",
    "Domestic other appliances",
    0.0,
    0.0,
    0.0,
    0.0,
    0.0,
    0.0,
    0.0,
    0.0,
    0.0],
   ["Solid",
    "Domestic other appliances",
    0.0,
    0.0,
    0.0,
    0.0,
    0.0,
    0.0,
    0.0,
    0.0,
    0.0],
   ["Electricity grid",
    "Commercial lighting",
    0.008676324800000001,
    0.01140368133163388,
    0.015886628143520043,
    0.021903382676654766,
    0.029883141739601046,
    0.04033790883375492,
    0.05386436915598508,
    0.07113954011413261,
    0.09290766002999293],
   ["Liquid",
    "Commercial lighting",
    0.0,
    0.0,
    0.0,
    0.0,
    0.0,
    0.0,
    0.0,
    0.0,
    0.0],
   ["Gaseous",
    "Commercial lighting",
    0.0,
    0.0,
    0.0,
    0.0,
    0.0,
    0.0,
    0.0,
    0.0,
    0.0],
   ["Solid",
    "Commercial lighting",
    0.0,
    0.0,
    0.0,
    0.0,
    0.0,
    0.0,
    0.0,
    0.0,
    0.0],
   ["Electricity grid",
    "Commercial cooling",
    0.02169081199999998,
    0.02807393299761115,
    0.038300485312386556,
    0.051601707106833185,
    0.06862312131028195,
    0.09002598473893147,
    0.11642442945709922,
    0.14828998232194104,
    0.18581532005998586],
   ["Liquid",
    "Commercial cooling",
    0.0,
    0.0,
    0.0,
    0.0,
    0.0,
    0.0,
    0.0,
    0.0,
    0.0],
   ["Gaseous",
    "Commercial cooling",
    0.0,
    0.0,
    0.0,
    0.0,
    0.0,
    0.0,
    0.0,
    0.0,
    0.0],
   ["Solid",
    "Commercial cooling",
    0.0,
    0.0,
    0.0,
    0.0,
    0.0,
    0.0,
    0.0,
    0.0,
    0.0],
   ["Electricity grid",
    "Commercial cooking",
    0.1085292992,
    0.1964268460837867,
    0.3611308090577039,
    0.6080272381326481,
    0.963707278915329,
    1.457478746385783,
    2.118256141857775,
    2.968977901651071,
    4.017570414356715],
   ["Liquid",
    "Commercial cooking",
    5.42646496,
    6.464228934757345,
    7.8726516374579445,
    9.344418607091223,
    10.76838133396694,
    11.98371413694977,
    12.777867694432388,
    12.893846887170367,
    12.052711243070146],
   ["Gaseous",
    "Commercial cooking",
    1.7364687871999998,
    2.978545266070511,
    5.279732428423631,
    8.69798964865546,
    13.58827263270614,
    20.33992561622826,
    29.3344310225659,
    40.87010151472817,
    55.040714676687],
   ["Solid",
    "Commercial cooking",
    3.5814668735999993,
    4.289248039029596,
    5.265287196061322,
    6.31068270314517,
    7.36188560458362,
    8.32382306269214,
    9.067502904016992,
    9.43286693324568,
    9.240411953020436],
   ["Electricity grid",
    "Commercial others",
    13.505397976,
    18.175783891192832,
    26.111604531708434,
    37.176904020515614,
    52.45717985633388,
    73.35361007991155,
    101.65192981606914,
    139.5982783574875,
    189.97982426985436],
   ["Liquid",
    "Commercial others",
    0.0,
    0.0,
    0.0,
    0.0,
    0.0,
    0.0,
    0.0,
    0.0,
    0.0],
   ["Gaseous",
    "Commercial others",
    0.0,
    0.0,
    0.0,
    0.0,
    0.0,
    0.0,
    0.0,
    0.0,
    0.0],
   ["Solid", "Commercial others", 0.0, 0.0, 0.0, 0.0, 0.0, 0.0, 0.0, 0.0, 0.0],
   ["Electricity grid",
    "Industrial process",
    34.004882980726244,
    44.596453070122315,
    61.77847906786266,
    84.58367646220199,
    114.70852838540695,
    154.33690873673117,
    206.27560532885113,
    274.126655294503,
    362.5063179339899],
   ["Liquid",
    "Industrial process",
    117.51131484402816,
    139.8470312712231,
    173.82293057071456,
    216.04610422852437,
    268.5168427491556,
    333.72020968779776,
    414.7434407237033,
    515.4217538503351,
    640.5194417581033],
   ["Gaseous",
    "Industrial process",
    243.1804768347128,
    288.50453457853024,
    357.2161730262927,
    442.2908706390506,
    547.6249606150855,
    678.0424726155749,
    839.5159915827614,
    1039.4400920570517,
    1286.9698624681741],
   ["Solid",
    "Industrial process",
    190.93700740893314,
    220.76464104944088,
    264.4602366197635,
    316.4880950378083,
    378.348234494251,
    451.7848107376876,
    538.817852755982,
    641.7763914712402,
    763.3318740534226],
   ["Electricity grid",
    "Freight",
    0.0,
    0.0,
    0.0,
    0.0,
    0.0,
    0.0,
    0.0,
    0.0,
    0.0],
   ["Liquid",
    "Freight",
    152.3397464629242,
    201.01113032449547,
    204.5401013770445,
    210.2296553420094,
    219.61241094056908,
    236.39499834372884,
    259.2567657208674,
    301.85631135666995,
    385.39256236740164],
   ["Gaseous",
    "Freight",
    0.0,
    0.032638711216074284,
    0.10992404683196529,
    0.26230850883947554,
    0.5605151465380349,
    1.1712267548257551,
    2.178642721119941,
    4.234545237395472,
    8.671999172922474],
   ["Solid", "Freight", 0.0, 0.0, 0.0, 0.0, 0.0, 0.0, 0.0, 0.0, 0.0],
   ["Electricity grid",
    "Passenger Urban",
    0.15683526486486465,
    0.2744881837803744,
    0.46260617865380504,
    37.99072271339376,
    119.16785916769685,
    279.42215358642613,
    497.17165437260286,
    607.7526005067153,
    710.2518957377364],
   ["Liquid",
    "Passenger Urban",
    254.5761223871535,
    325.9189793805582,
    460.6266904830385,
    611.0394178980996,
    808.2212403064806,
    923.6941820865336,
    926.1462846604086,
    720.1590311934038,
    523.9362929951662],
   ["Gaseous",
    "Passenger Urban",
    1.4725850538409766,
    3.4289997932678635,
    8.200021504302276,
    17.601958015963024,
    35.38937100156101,
    66.73464812238925,
    121.98910051320345,
    217.92766269464605,
    382.4172112973925],
   ["Solid", "Passenger Urban", 0.0, 0.0, 0.0, 0.0, 0.0, 0.0, 0.0, 0.0, 0.0],
   ["Electricity grid",
    "Passenger Intercity",
    0.0,
    0.0,
    0.0,
    0.0,
    0.0,
    0.0,
    0.0,
    0.0,
    0.0],
   ["Liquid",
    "Passenger Intercity",
    -0.0,
    -0.0,
    -0.0,
    -0.0,
    -0.0,
    -0.0,
    -0.0,
    -0.0,
    -0.0],
   ["Gaseous",
    "Passenger Intercity",
    -0.0,
    -0.0,
    -0.0,
    -0.0,
    -0.0,
    -0.0,
    -0.0,
    -0.0,
    -0.0],
   ["Solid",
    "Passenger Intercity",
    0.0,
    0.0,
    0.0,
    0.0,
    0.0,
    0.0,
    0.0,
    0.0,
    0.0],
   ["Electricity grid",
    "Air transport",
    0.0,
    0.0,
    0.0,
    0.0,
    0.0,
    0.0,
    0.0,
    0.0,
    0.0],
   ["Liquid",
    "Air transport",
    34.185687200000004,
    -0.0,
    -0.0,
    -0.0,
    -0.0,
    -0.0,
    -0.0,
    -0.0,
    -0.0],
   ["Gaseous", "Air transport", 0.0, 0.0, 0.0, 0.0, 0.0, 0.0, 0.0, 0.0, 0.0],
   ["Solid", "Air transport", 0.0, 0.0, 0.0, 0.0, 0.0, 0.0, 0.0, 0.0, 0.0],
   ["Electricity grid",
    "ACM energy demand",
    0.0,
    0.0,
    0.0,
    0.0,
    0.0,
    0.0,
    0.0,
    0.0,
    0.0],
   ["Liquid",
    "ACM energy demand",
    40.407039399999995,
    50.19022207869851,
    71.23975416883415,
    111.64173207837038,
    193.16639652419414,
    328.52047898925815,
    676.3220579576388,
    1537.2535881512536,
    3857.7878206973173],
   ["Gaseous",
    "ACM energy demand",
    0.0,
    0.0,
    0.0,
    0.0,
    0.0,
    0.0,
    0.0,
    0.0,
    0.0],
   ["Solid", "ACM energy demand", 0.0, 0.0, 0.0, 0.0, 0.0, 0.0, 0.0, 0.0, 0.0],
   ["Gas", "Losses", 0.0, 0.0, 0.0, 0.0, 0.0, 0.0, 0.0, 0.0, 0.0]],
 "ghg"=>
  [["Mt CO2e",
    2010.0,
    2015.0,
    2020.0,
    2025.0,
    2030.0,
    2035.0,
    2040.0,
    2045.0,
    2050.0],
   ["Fuel Combustion",
    :name,
    :name,
    :name,
    :name,
    :name,
    :name,
    :name,
    :name,
    :name],
   [:name, :name, :name, :name, :name, :name, :name, :name, :name, :name],
   [:name, :name, :name, :name, :name, :name, :name, :name, :name, :name],
   [:name, :name, :name, :name, :name, :name, :name, :name, :name, :name],
   [:name, :name, :name, :name, :name, :name, :name, :name, :name, :name],
   [:name, :name, :name, :name, :name, :name, :name, :name, :name, :name],
   [:name, :name, :name, :name, :name, :name, :name, :name, :name, :name],
   [:name, :name, :name, :name, :name, :name, :name, :name, :name, :name],
   [:name, :name, :name, :name, :name, :name, :name, :name, :name, :name],
   [:name, :name, :name, :name, :name, :name, :name, :name, :name, :name],
   ["Total", :name, :name, :name, :name, :name, :name, :name, :name, :name],
   ["Targets", 603.6, 556.4, 508.8, 390.0, nil, nil, nil, nil, 159.917234]],
 "ghg_reduction_from_1990"=>:name,
 "final_energy_demand"=>
  [["Vector",
    "2011",
    2015.0,
    2020.0,
    2025.0,
    2030.0,
    2035.0,
    2040.0,
    2045.0,
    2050.0],
   ["Transport",
    442.73097636878356,
    530.666236393318,
    673.939343589871,
    877.1240624783054,
    1182.9513965628455,
    1507.4172088939038,
    1806.7424479882025,
    1851.9301509888305,
    2010.6699615706193],
   ["Domestic",
    432.5750228166986,
    18.48007812350521,
    20.21564419969623,
    22.028869386510884,
    23.92223776981448,
    25.898533108380082,
    27.960884487616262,
    30.112821380663014,
    32.35834110997162],
   ["Commerce",
    24.388695032799998,
    32.14371059146332,
    44.944593716164945,
    62.21152730732361,
    85.2379329695558,
    115.58891553574018,
    155.12027637755529,
    205.98350111671886,
    270.60995553707863],
   ["Industrial process",
    599.8231588308404,
    710.9600576582923,
    879.2903549561782,
    1087.5029397890514,
    1345.054667321025,
    1663.6468824856636,
    2057.758700773017,
    2545.3071516061896,
    3148.4644069170545],
   ["ACM",
    40.407039399999995,
    50.19022207869851,
    71.23975416883415,
    111.64173207837037,
    193.1663965241941,
    328.5204789892581,
    676.3220579576387,
    1537.2535881512533,
    3857.787820697317],
   ["Total",
    1539.9248924491226,
    1342.4403048452773,
    1689.6296906307448,
    2160.509131039562,
    2830.3326311474348,
    3641.0720190129455,
    4723.904367584029,
    6170.587213243655,
    9319.89048583204]],
 "primary_energy_supply"=>
  [["Vector",
    2010.0,
    2015.0,
    2020.0,
    2025.0,
    2030.0,
    2035.0,
    2040.0,
    2045.0,
    2050.0],
   ["Indigenous Gas",
    1013.8113436715662,
    1103.327606414612,
    1404.7922005610408,
    1537.5692974268095,
    1841.4764720951916,
    2039.7929394729035,
    2446.252606082169,
    2790.4488225914065,
    3408.001772138994],
   ["Imported Gas", 0.0, 0.0, 0.0, 0.0, 0.0, 0.0, 0.0, 0.0, 0.0],
   ["Indigenous Oil",
    511.25480000000005,
    1928.6029000000003,
    3958.038280035563,
    5617.11913338301,
    7004.134344830109,
    8121.479093447157,
    8948.610590400982,
    9555.645723069134,
    10001.1512486724],
   ["Imported Oil",
    39943.2406585241,
    38716.908212146955,
    47197.618788760505,
    45760.3542566438,
    55007.42472194822,
    54203.09732695017,
    64123.42874665547,
    64294.10198584781,
    76473.81157101691],
   ["Indigenous Coal",
    2.2564544444444445,
    10.485108438817223,
    13.40898817882296,
    13.761207579232533,
    14.131393708903179,
    14.520463051594689,
    17.865535368579962,
    15.35915344520544,
    15.810850873556468],
   ["Imported Coal",
    763.0971954496001,
    685.4382651321833,
    1005.9809764544939,
    1414.9282846380413,
    1855.577427667555,
    2235.837375290812,
    2600.75711275877,
    3349.53750749168,
    4219.832469263343],
   ["Indigenous Bioenergy",
    63.32539242399999,
    82.06426899247501,
    104.09912712164656,
    127.87319679062759,
    153.87150842256102,
    182.70664509141184,
    215.1604352799813,
    252.21476782146124,
    292.9812999009927],
   ["Imported Bioenergy", 0.0, 0.0, 0.0, 0.0, 0.0, 0.0, 0.0, 0.0, 0.0],
   ["Nuclear fussion",
    0.0,
    15.045578887500005,
    15.045578887500005,
    15.045578887500005,
    15.045578887500005,
    15.045578887500005,
    15.045578887500005,
    15.045578887500005,
    15.045578887500005],
   ["Geothermal",
    86.71217625,
    176.3390475,
    286.733120625,
    397.12719375000006,
    507.52126687500004,
    617.91534,
    728.3094131250001,
    838.7034862500001,
    947.6402118750001],
   ["Agriculture",
    63.31913349999999,
    81.95849317687501,
    103.89383441444656,
    127.56838719182758,
    153.46718193216103,
    182.20280170941183,
    214.5570750063813,
    251.51189065626124,
    292.26340131819273],
   ["Hydro",
    19.3842558,
    24.685932599999997,
    31.4234802,
    38.161027799999985,
    44.8985754,
    51.636123,
    58.373670600000004,
    65.11121820000001,
    71.9039916],
   ["Solar",
    0.0018408600000000004,
    0.004602149999999999,
    0.0073634400000000015,
    0.0073634400000000015,
    0.0073634400000000015,
    0.008283869999999999,
    0.0073634400000000015,
    0.0073634400000000015,
    0.0073634400000000015],
   ["Wind",
    0.0034424081999999997,
    0.7554521268,
    1.0966923450000001,
    1.0966923450000001,
    1.0966923450000001,
    1.0966923450000001,
    1.0966923450000001,
    1.0966923450000001,
    1.220950395],
   ["Wave", 0.0, 0.0, 0.0, 0.0, 0.0, 0.0, 0.0, 0.0, 0.0],
   ["Total used in Indonesia",
    42420.84273392565,
    42585.237652392396,
    53778.10214172664,
    54631.47564369947,
    66177.60053917336,
    67343.13652316459,
    79249.98058908395,
    81294.67936305668,
    95591.20629583183]],
 "test1"=>
  [["Vector",
    2010.0,
    2015.0,
    2020.0,
    2025.0,
    2030.0,
    2035.0,
    2040.0,
    2045.0,
    2050.0],
   ["Indigenous Gas",
    1013.8113436715662,
    1103.327606414612,
    1404.7922005610408,
    1537.5692974268095,
    1841.4764720951916,
    2039.7929394729035,
    2446.252606082169,
    2790.4488225914065,
    3408.001772138994],
   ["Imported Gas", 0.0, 0.0, 0.0, 0.0, 0.0, 0.0, 0.0, 0.0, 0.0],
   ["Indigenous Oil",
    511.25480000000005,
    1928.6029000000003,
    3958.038280035563,
    5617.11913338301,
    7004.134344830109,
    8121.479093447157,
    8948.610590400982,
    9555.645723069134,
    10001.1512486724],
   ["Imported Oil",
    39943.2406585241,
    38716.908212146955,
    47197.618788760505,
    45760.3542566438,
    55007.42472194822,
    54203.09732695017,
    64123.42874665547,
    64294.10198584781,
    76473.81157101691],
   ["Indigenous Coal",
    2.2564544444444445,
    10.485108438817223,
    13.40898817882296,
    13.761207579232533,
    14.131393708903179,
    14.520463051594689,
    17.865535368579962,
    15.35915344520544,
    15.810850873556468],
   ["Imported Coal",
    763.0971954496001,
    685.4382651321833,
    1005.9809764544939,
    1414.9282846380413,
    1855.577427667555,
    2235.837375290812,
    2600.75711275877,
    3349.53750749168,
    4219.832469263343],
   ["Indigenous Bioenergy",
    63.32539242399999,
    82.06426899247501,
    104.09912712164656,
    127.87319679062759,
    153.87150842256102,
    182.70664509141184,
    215.1604352799813,
    252.21476782146124,
    292.9812999009927],
   ["Imported Bioenergy", 0.0, 0.0, 0.0, 0.0, 0.0, 0.0, 0.0, 0.0, 0.0],
   ["Nuclear fussion",
    0.0,
    15.045578887500005,
    15.045578887500005,
    15.045578887500005,
    15.045578887500005,
    15.045578887500005,
    15.045578887500005,
    15.045578887500005,
    15.045578887500005],
   ["Geothermal",
    86.71217625,
    176.3390475,
    286.733120625,
    397.12719375000006,
    507.52126687500004,
    617.91534,
    728.3094131250001,
    838.7034862500001,
    947.6402118750001],
   ["Agriculture",
    63.31913349999999,
    81.95849317687501,
    103.89383441444656,
    127.56838719182758,
    153.46718193216103,
    182.20280170941183,
    214.5570750063813,
    251.51189065626124,
    292.26340131819273],
   ["Hydro",
    19.3842558,
    24.685932599999997,
    31.4234802,
    38.161027799999985,
    44.8985754,
    51.636123,
    58.373670600000004,
    65.11121820000001,
    71.9039916],
   ["Solar",
    0.0018408600000000004,
    0.004602149999999999,
    0.0073634400000000015,
    0.0073634400000000015,
    0.0073634400000000015,
    0.008283869999999999,
    0.0073634400000000015,
    0.0073634400000000015,
    0.0073634400000000015],
   ["Wind",
    0.0034424081999999997,
    0.7554521268,
    1.0966923450000001,
    1.0966923450000001,
    1.0966923450000001,
    1.0966923450000001,
    1.0966923450000001,
    1.0966923450000001,
    1.220950395],
   ["Wave", 0.0, 0.0, 0.0, 0.0, 0.0, 0.0, 0.0, 0.0, 0.0],
   ["Total used in Indonesia",
    42420.84273392565,
    42585.237652392396,
    53778.10214172664,
    54631.47564369947,
    66177.60053917336,
    67343.13652316459,
    79249.98058908395,
    81294.67936305668,
    95591.20629583183]],
 "electricity"=>
  {"demand"=>
    [["Sector",
      2011.0,
      2015.0,
      2020.0,
      2025.0,
      2030.0,
      2035.0,
      2040.0,
      2045.0,
      2050.0],
     ["Transport",
      0.15683526486486465,
      0.2744881837803744,
      0.46260617865380504,
      37.99072271339376,
      119.16785916769685,
      279.42215358642613,
      497.17165437260286,
      607.7526005067153,
      710.2518957377364],
     ["Industry",
      34.004882980726244,
      44.596453070122315,
      61.77847906786266,
      84.58367646220199,
      114.70852838540695,
      154.33690873673117,
      206.27560532885113,
      274.126655294503,
      362.5063179339899],
     ["Domestic",
      70.22814609747732,
      17.17325483925889,
      19.078678417281452,
      21.073233597211562,
      23.15601486203812,
      25.32630025507097,
      27.58357915924295,
      29.927585808064727,
      32.35834110997162],
     ["Commerce",
      13.644294412,
      18.411688351605864,
      26.526922454222046,
      37.85843634843175,
      53.519393398299094,
      74.94145271987001,
      103.94047475654,
      142.78668578157462,
      194.27611766430107],
     ["Total",
      118.03415875506843,
      80.45588444476745,
      107.84668611801996,
      181.50606912123905,
      310.551795813441,
      534.0268152980983,
      834.9713136172369,
      1054.5935273908576,
      1299.3926724459989]],
   "supply"=>
    [["Sector",
      2011.0,
      2015.0,
      2020.0,
      2025.0,
      2030.0,
      2035.0,
      2040.0,
      2045.0,
      2050.0],
     ["Conventional",
      89.89352961221802,
      243.632440534392,
      347.98990688531995,
      457.273987048584,
      568.372942052856,
      663.85135011096,
      738.0064456020001,
      789.3497173349522,
      822.8276027999999],
     ["Geothermal",
      9.909963,
      20.153033999999998,
      32.7694995,
      45.385965000000006,
      58.0024305,
      70.61889599999999,
      83.23536150000001,
      95.85182700000001,
      108.30173850000001],
     ["Biomass",
      12.741380999999999,
      16.913997,
      21.384657000000004,
      25.855317,
      30.325977000000005,
      34.796637,
      39.267297,
      43.737956999999994,
      47.61252899999999],
     ["Hydro",
      18.461195999999997,
      23.510412,
      29.927124,
      36.34383599999999,
      42.760548,
      49.17726,
      55.593972,
      62.01068400000001,
      68.479992],
     ["OTEC",
      0.0017532000000000003,
      0.004383,
      0.007012800000000001,
      0.007012800000000001,
      0.007012800000000001,
      0.0078894,
      0.007012800000000001,
      0.007012800000000001,
      0.007012800000000001],
     ["Wind",
      0.003278484,
      0.719478216,
      1.0444689,
      1.0444689,
      1.0444689,
      1.0444689,
      1.0444689,
      1.0444689,
      1.1628099],
     ["PV",
      0.005960880000000001,
      0.10073887200000001,
      0.19551686400000004,
      0.2902948560000001,
      0.3850728480000001,
      0.47985084000000006,
      0.574628832,
      0.669406824,
      0.683712936],
     ["Nuclear power generation",
      0.0,
      5.158484190000001,
      5.158484190000001,
      5.158484190000001,
      5.158484190000001,
      5.158484190000001,
      5.158484190000001,
      5.158484190000001,
      5.158484190000001],
     ["Steam coal PP as balancing",
      44.218786488172384,
      0.0,
      0.0,
      0.0,
      0.0,
      0.0,
      15.439964823522814,
      160.92711379975833,
      364.9996058463671],
     ["Total",
      175.2358486643904,
      310.19296781239206,
      438.47667013932,
      571.3593657945838,
      706.056936290856,
      825.1348364409599,
      938.3276356475229,
      1158.7566718487105,
      1419.233487972367]],
   "ghg"=>
    [["Source",
      2011.0,
      2015.0,
      2020.0,
      2025.0,
      2030.0,
      2035.0,
      2040.0,
      2045.0,
      2050.0],
     ["Fuel combustion", nil, nil, nil, nil, nil, nil, nil, nil, nil],
     ["Bioenergy credit", nil, nil, nil, nil, nil, nil, nil, nil, nil],
     ["Total", 0.0, 0.0, 0.0, 0.0, 0.0, 0.0, 0.0, 0.0, 0.0]],
   "capacity"=>
    [["Sector",
      2011.0,
      2015.0,
      2020.0,
      2025.0,
      2030.0,
      2035.0,
      2040.0,
      2045.0,
      2050.0],
     ["Coal power plant",
      12.05,
      6.335,
      11.2,
      14.195,
      14.905000000000001,
      13.055,
      9.940000000000001,
      6.875,
      4.475],
     ["Gas combined-cycle power plant",
      8.81,
      9.4199,
      11.7398,
      12.1147,
      12.1146,
      12.114500000000001,
      12.114400000000002,
      12.114300000000004,
      12.114200000000002],
     ["Gas turbine power plant",
      2.9700000000000006,
      5.8849,
      7.1998,
      7.3797,
      7.3796,
      7.3795,
      7.379400000000001,
      7.379300000000001,
      7.379200000000001],
     ["Diesel power plant",
      2.598,
      2.4225,
      2.2275,
      2.039,
      1.8575000000000002,
      1.6825,
      1.5130000000000001,
      1.349,
      1.1905],
     ["Geothermal",
      1.19,
      2.42,
      3.935,
      5.45,
      6.965,
      8.48,
      9.995000000000001,
      11.510000000000002,
      13.005000000000003],
     ["Biomass",
      1.71,
      2.27,
      2.87,
      3.47,
      4.07,
      4.67,
      5.27,
      5.869999999999999,
      6.389999999999999],
     ["Hydro",
      3.51,
      4.47,
      5.6899999999999995,
      6.909999999999999,
      8.129999999999999,
      9.35,
      10.57,
      11.790000000000001,
      13.020000000000001],
     ["OTEC", 0.001, 0.0025, 0.004, 0.004, 0.004, 0.0045, 0.004, 0.004, 0.004],
     ["Wind",
      0.00187,
      0.41037999999999997,
      0.59575,
      0.59575,
      0.59575,
      0.59575,
      0.59575,
      0.59575,
      0.66325],
     ["PV", 0.0, 0.0, 0.0, 0.0, 0.0, 0.0, 0.0, 0.0, 0.0],
     ["Nuclear power generation",
      0.0,
      0.65385,
      0.65385,
      0.65385,
      0.65385,
      0.65385,
      0.65385,
      0.65385,
      0.65385],
     ["Steam coal PP as balancing",
      20.393207705182228,
      0.0,
      0.0,
      0.0,
      0.0,
      0.0,
      6.858742391648731,
      71.14345436259957,
      159.5560834503254],
     ["Total generation",
      53.23407770518223,
      34.289030000000004,
      46.1157,
      52.812,
      56.6753,
      57.985600000000005,
      64.89414239164873,
      129.28465436259958,
      218.4510834503254]]}}
